<?xml version="1.0" encoding="UTF-8" standalone="no"?>
<!DOCTYPE svg PUBLIC "-//W3C//DTD SVG 1.1//EN"
 "http://www.w3.org/Graphics/SVG/1.1/DTD/svg11.dtd">
<!-- Generated by graphviz version 2.40.1 (20161225.0304)
 -->
<!-- Title: %3 Pages: 1 -->
<svg width="546pt" height="551pt"
 viewBox="0.00 0.00 546.00 551.00" xmlns="http://www.w3.org/2000/svg" xmlns:xlink="http://www.w3.org/1999/xlink">
<g id="graph0" class="graph" transform="scale(1 1) rotate(0) translate(4 547)">
<title>%3</title>
<polygon fill="#ffffff" stroke="transparent" points="-4,4 -4,-547 542,-547 542,4 -4,4"/>
<g id="clust1" class="cluster">
<title>cluster_0</title>
<g id="a_clust1"><a xlink:href="../index.html" xlink:title="ast::graph">
<polygon fill="none" stroke="#000000" points="283,-419 283,-494 498.5,-494 498.5,-419 283,-419"/>
<text text-anchor="middle" x="390.75" y="-478.8" font-family="Times,serif" font-size="14.00" fill="#000000">ast::graph</text>
</a>
</g>
</g>
<g id="clust2" class="cluster">
<title>cluster_1</title>
<g id="a_clust2"><a xlink:href="../../index.html" xlink:title="ast">
<polygon fill="none" stroke="#000000" points="397,-282 397,-411 530,-411 530,-282 397,-282"/>
<text text-anchor="middle" x="463.5" y="-395.8" font-family="Times,serif" font-size="14.00" fill="#000000">ast</text>
</a>
</g>
</g>
<g id="clust3" class="cluster">
<title>cluster_2</title>
<g id="a_clust3"><a xlink:href="../../parents/index.html" xlink:title="ast::parents">
<polygon fill="none" stroke="#000000" points="402,-91 402,-274 525,-274 525,-91 402,-91"/>
<text text-anchor="middle" x="463.5" y="-258.8" font-family="Times,serif" font-size="14.00" fill="#000000">ast::parents</text>
</a>
</g>
</g>
<g id="clust4" class="cluster">
<title>cluster_3</title>
<g id="a_clust4"><a xlink:href="../../traverse/index.html" xlink:title="ast::traverse">
<polygon fill="none" stroke="#000000" points="422.5,-8 422.5,-83 504.5,-83 504.5,-8 422.5,-8"/>
<text text-anchor="middle" x="463.5" y="-67.8" font-family="Times,serif" font-size="14.00" fill="#000000">ast::traverse</text>
</a>
</g>
</g>
<g id="clust5" class="cluster">
<title>cluster_4</title>
<g id="a_clust5"><a xlink:href="../../../artefact/package_dependencies/index.html" xlink:title="artefact::package_dependencies">
<polygon fill="none" stroke="#000000" points="38,-460 38,-535 226,-535 226,-460 38,-460"/>
<text text-anchor="middle" x="132" y="-519.8" font-family="Times,serif" font-size="14.00" fill="#000000">artefact::package_dependencies</text>
</a>
</g>
</g>
<g id="clust6" class="cluster">
<title>cluster_5</title>
<g id="a_clust6"><a xlink:href="../../../artefact/packages_with_cyclic_dependencies/index.html" xlink:title="artefact::packages_with_cyclic_dependencies">
<polygon fill="none" stroke="#000000" points="0,-377 0,-452 263,-452 263,-377 0,-377"/>
<text text-anchor="middle" x="131.5" y="-436.8" font-family="Times,serif" font-size="14.00" fill="#000000">artefact::packages_with_cyclic_dependencies</text>
</a>
</g>
</g>
<!-- _node0 -->
<g id="node1" class="node">
<title>_node0</title>
<g id="a_node1"><a xlink:href="index.html" xlink:title="buildGraph">
<polygon fill="none" stroke="#000000" stroke-width="2" points="369,-463 291,-463 291,-427 369,-427 369,-463"/>
<text text-anchor="middle" x="330" y="-441.3" font-family="Times,serif" font-size="14.00" fill="#000000">buildGraph</text>
</a>
</g>
</g>
<!-- _node1 -->
<g id="node2" class="node">
<title>_node1</title>
<g id="a_node2"><a xlink:href="../Graph/index.html" xlink:title="Graph">
<polygon fill="none" stroke="#000000" points="490.5,-463 436.5,-463 436.5,-427 490.5,-427 490.5,-463"/>
<text text-anchor="middle" x="463.5" y="-441.3" font-family="Times,serif" font-size="14.00" fill="#000000">Graph</text>
</a>
</g>
</g>
<!-- _node0&#45;&gt;_node1 -->
<g id="edge1" class="edge">
<title>_node0&#45;&gt;_node1</title>
<path fill="none" stroke="#000000" d="M369.3323,-445C387.1664,-445 408.161,-445 425.7956,-445"/>
<polygon fill="#000000" stroke="#000000" points="426.2831,-448.5001 436.2831,-445 426.2831,-441.5001 426.2831,-448.5001"/>
</g>
<!-- _node2 -->
<g id="node3" class="node">
<title>_node2</title>
<g id="a_node3"><a xlink:href="../../Node/index.html" xlink:title="Node">
<polygon fill="none" stroke="#000000" points="490.5,-380 436.5,-380 436.5,-344 490.5,-344 490.5,-380"/>
<text text-anchor="middle" x="463.5" y="-358.3" font-family="Times,serif" font-size="14.00" fill="#000000">Node</text>
</a>
</g>
</g>
<!-- _node0&#45;&gt;_node2 -->
<g id="edge2" class="edge">
<title>_node0&#45;&gt;_node2</title>
<g id="a_edge2"><a xlink:href="../../../../dependencies-between-packages/-~ast~graph,-~ast.svg">
<path fill="none" stroke="#000000" d="M358.9675,-426.9902C379.1876,-414.419 406.3045,-397.5597 427.8523,-384.163"/>
<polygon fill="#000000" stroke="#000000" points="429.7644,-387.0955 436.4089,-378.8432 426.0684,-381.1508 429.7644,-387.0955"/>
</a>
</g>
</g>
<!-- _node3 -->
<g id="node4" class="node">
<title>_node3</title>
<g id="a_node4"><a xlink:href="../../NodeSpecification/index.html" xlink:title="NodeSpecification">
<polygon fill="none" stroke="#000000" points="522,-326 405,-326 405,-290 522,-290 522,-326"/>
<text text-anchor="middle" x="463.5" y="-304.3" font-family="Times,serif" font-size="14.00" fill="#000000">NodeSpecification</text>
</a>
</g>
</g>
<!-- _node0&#45;&gt;_node3 -->
<g id="edge3" class="edge">
<title>_node0&#45;&gt;_node3</title>
<g id="a_edge3"><a xlink:href="../../../../dependencies-between-packages/-~ast~graph,-~ast.svg">
<path fill="none" stroke="#000000" d="M336.7561,-426.9564C346.594,-402.9262 367.0191,-360.4944 397,-335 398.3378,-333.8624 399.7299,-332.7681 401.1662,-331.716"/>
<polygon fill="#000000" stroke="#000000" points="403.3011,-334.504 409.8061,-326.1412 399.5058,-328.6221 403.3011,-334.504"/>
</a>
</g>
</g>
<!-- _node4 -->
<g id="node5" class="node">
<title>_node4</title>
<g id="a_node5"><a xlink:href="../../parents/Parents/index.html" xlink:title="Parents">
<polygon fill="none" stroke="#000000" points="491.5,-243 435.5,-243 435.5,-207 491.5,-207 491.5,-243"/>
<text text-anchor="middle" x="463.5" y="-221.3" font-family="Times,serif" font-size="14.00" fill="#000000">Parents</text>
</a>
</g>
</g>
<!-- _node0&#45;&gt;_node4 -->
<g id="edge4" class="edge">
<title>_node0&#45;&gt;_node4</title>
<g id="a_edge4"><a xlink:href="../../../../dependencies-between-packages/-~ast~graph,-~ast~parents.svg">
<path fill="none" stroke="#000000" d="M333.9983,-426.9185C341.8235,-394.5439 361.5671,-325.6184 397,-278 405.2872,-266.8628 416.4584,-256.7567 427.2769,-248.4267"/>
<polygon fill="#000000" stroke="#000000" points="429.457,-251.1678 435.4274,-242.4153 425.3021,-245.5342 429.457,-251.1678"/>
</a>
</g>
</g>
<!-- _node5 -->
<g id="node6" class="node">
<title>_node5</title>
<g id="a_node6"><a xlink:href="../../parents/buildParents/index.html" xlink:title="buildParents">
<polygon fill="none" stroke="#000000" points="505.5,-189 421.5,-189 421.5,-153 505.5,-153 505.5,-189"/>
<text text-anchor="middle" x="463.5" y="-167.3" font-family="Times,serif" font-size="14.00" fill="#000000">buildParents</text>
</a>
</g>
</g>
<!-- _node0&#45;&gt;_node5 -->
<g id="edge5" class="edge">
<title>_node0&#45;&gt;_node5</title>
<g id="a_edge5"><a xlink:href="../../../../dependencies-between-packages/-~ast~graph,-~ast~parents.svg">
<path fill="none" stroke="#000000" d="M332.7737,-426.9606C340.9171,-376.0744 366.1364,-232.8368 397,-198 401.2838,-193.1647 406.5599,-189.1805 412.2506,-185.901"/>
<polygon fill="#000000" stroke="#000000" points="414.0685,-188.9054 421.4515,-181.3065 410.9412,-182.6428 414.0685,-188.9054"/>
</a>
</g>
</g>
<!-- _node6 -->
<g id="node7" class="node">
<title>_node6</title>
<g id="a_node7"><a xlink:href="../../parents/lowestAnchestor/index.html" xlink:title="lowestAnchestor">
<polygon fill="none" stroke="#000000" points="517,-135 410,-135 410,-99 517,-99 517,-135"/>
<text text-anchor="middle" x="463.5" y="-113.3" font-family="Times,serif" font-size="14.00" fill="#000000">lowestAnchestor</text>
</a>
</g>
</g>
<!-- _node0&#45;&gt;_node6 -->
<g id="edge7" class="edge">
<title>_node0&#45;&gt;_node6</title>
<g id="a_edge7"><a xlink:href="../../../../dependencies-between-packages/-~ast~graph,-~ast~parents.svg">
<path fill="none" stroke="#000000" d="M331.8313,-426.8845C338.0425,-368.6872 360.0065,-187.7363 397,-144 398.4711,-142.2608 400.0712,-140.6323 401.7744,-139.1075"/>
<polygon fill="#000000" stroke="#000000" points="403.9264,-141.8685 409.8219,-133.0655 399.7235,-136.2707 403.9264,-141.8685"/>
</a>
</g>
</g>
<!-- _node7 -->
<g id="node8" class="node">
<title>_node7</title>
<g id="a_node8"><a xlink:href="../../traverse/recursive/index.html" xlink:title="recursive">
<polygon fill="none" stroke="#000000" points="496.5,-52 430.5,-52 430.5,-16 496.5,-16 496.5,-52"/>
<text text-anchor="middle" x="463.5" y="-30.3" font-family="Times,serif" font-size="14.00" fill="#000000">recursive</text>
</a>
</g>
</g>
<!-- _node0&#45;&gt;_node7 -->
<g id="edge6" class="edge">
<title>_node0&#45;&gt;_node7</title>
<g id="a_edge6"><a xlink:href="../../../../dependencies-between-packages/-~ast~graph,-~ast~traverse.svg">
<path fill="none" stroke="#000000" d="M331.7293,-426.699C338.0858,-362.1441 361.6415,-145.7932 397,-87 403.6642,-75.919 413.5524,-66.2164 423.6786,-58.2462"/>
<polygon fill="#000000" stroke="#000000" points="425.8431,-60.9984 431.7935,-52.2323 421.6753,-55.3744 425.8431,-60.9984"/>
</a>
</g>
</g>
<!-- _node8 -->
<g id="node9" class="node">
<title>_node8</title>
<g id="a_node9"><a xlink:href="../../../artefact/package_dependencies/Artefact/index.html" xlink:title="Artefact">
<polygon fill="none" stroke="#000000" points="162,-504 101,-504 101,-468 162,-468 162,-504"/>
<text text-anchor="middle" x="131.5" y="-482.3" font-family="Times,serif" font-size="14.00" fill="#000000">Artefact</text>
</a>
</g>
</g>
<!-- _node8&#45;&gt;_node0 -->
<g id="edge8" class="edge">
<title>_node8&#45;&gt;_node0</title>
<g id="a_edge8"><a xlink:href="../../../../dependencies-between-packages/-~artefact~package_dependencies,-~ast~graph.svg">
<path fill="none" stroke="#000000" d="M162.0806,-479.6836C193.6917,-473.1544 243.5315,-462.86 280.7141,-455.18"/>
<polygon fill="#000000" stroke="#000000" points="281.7549,-458.5389 290.8402,-453.0884 280.3389,-451.6836 281.7549,-458.5389"/>
</a>
</g>
</g>
<!-- _node9 -->
<g id="node10" class="node">
<title>_node9</title>
<g id="a_node10"><a xlink:href="../../../artefact/packages_with_cyclic_dependencies/Artefact/index.html" xlink:title="Artefact">
<polygon fill="none" stroke="#000000" points="162,-421 101,-421 101,-385 162,-385 162,-421"/>
<text text-anchor="middle" x="131.5" y="-399.3" font-family="Times,serif" font-size="14.00" fill="#000000">Artefact</text>
</a>
</g>
</g>
<!-- _node9&#45;&gt;_node0 -->
<g id="edge9" class="edge">
<title>_node9&#45;&gt;_node0</title>
<g id="a_edge9"><a xlink:href="../../../../dependencies-between-packages/-~artefact~packages_with_cyclic_dependencies,-~ast~graph.svg">
<path fill="none" stroke="#000000" d="M162.0806,-409.4705C193.6917,-416.1589 243.5315,-426.7044 280.7141,-434.5717"/>
<polygon fill="#000000" stroke="#000000" points="280.3322,-438.0684 290.8402,-436.7143 281.7813,-431.22 280.3322,-438.0684"/>
</a>
</g>
</g>
</g>
</svg>
