digraph {
    rankdir=LR
    subgraph cluster_0 {
        label="ast::specification"
        URL="../index.html"
        _node0 [
            shape="box"
            style="bold"
            label="AllNodes"
            URL="index.html"
        ]
    }
    subgraph cluster_1 {
        label="ast"
        URL="../../index.html"
        _node1 [
            shape="box"
            label="NodeSpecification"
            URL="../../NodeSpecification/index.html"
        ]
    }
    subgraph cluster_2 {
        label="ast::traverse"
        URL="../../traverse/index.html"
        _node2 [
            shape="box"
            label="recursive"
            URL="../../traverse/recursive/index.html"
        ]
    }
    subgraph cluster_3 {
        label="metric::generic"
        URL="../../../metric/generic/index.html"
        _node3 [
            shape="box"
            label="classLcom4"
            URL="../../../metric/generic/classLcom4/index.html"
        ]
    }
    _node0 -> _node1 [
        URL="../../../../dependencies-between-packages/-~ast~specification,-~ast.svg"
    ]
    _node2 -> _node0 [
        URL="../../../../dependencies-between-packages/-~ast~traverse,-~ast~specification.svg"
    ]
    _node3 -> _node0 [
        URL="../../../../dependencies-between-packages/-~metric~generic,-~ast~specification.svg"
    ]
}
