<?xml version="1.0" encoding="UTF-8" standalone="no"?>
<!DOCTYPE svg PUBLIC "-//W3C//DTD SVG 1.1//EN"
 "http://www.w3.org/Graphics/SVG/1.1/DTD/svg11.dtd">
<!-- Generated by graphviz version 2.40.1 (20161225.0304)
 -->
<!-- Title: %3 Pages: 1 -->
<svg width="404pt" height="402pt"
 viewBox="0.00 0.00 404.00 402.00" xmlns="http://www.w3.org/2000/svg" xmlns:xlink="http://www.w3.org/1999/xlink">
<g id="graph0" class="graph" transform="scale(1 1) rotate(0) translate(4 398)">
<title>%3</title>
<polygon fill="#ffffff" stroke="transparent" points="-4,4 -4,-398 400,-398 400,4 -4,4"/>
<g id="clust1" class="cluster">
<title>cluster_0</title>
<g id="a_clust1"><a xlink:href="../index.html" xlink:title="ast">
<polygon fill="none" stroke="#000000" points="45,-257 45,-386 388,-386 388,-257 45,-257"/>
<text text-anchor="middle" x="216.5" y="-370.8" font-family="Times,serif" font-size="14.00" fill="#000000">ast</text>
</a>
</g>
</g>
<g id="clust2" class="cluster">
<title>cluster_1</title>
<g id="a_clust2"><a xlink:href="../../artefact/intra_class_dependencies/index.html" xlink:title="artefact::intra_class_dependencies">
<polygon fill="none" stroke="#000000" points="0,-174 0,-249 202,-249 202,-174 0,-174"/>
<text text-anchor="middle" x="101" y="-233.8" font-family="Times,serif" font-size="14.00" fill="#000000">artefact::intra_class_dependencies</text>
</a>
</g>
</g>
<g id="clust3" class="cluster">
<title>cluster_2</title>
<g id="a_clust3"><a xlink:href="../../metric/index.html" xlink:title="metric">
<polygon fill="none" stroke="#000000" points="46,-91 46,-166 155,-166 155,-91 46,-91"/>
<text text-anchor="middle" x="100.5" y="-150.8" font-family="Times,serif" font-size="14.00" fill="#000000">metric</text>
</a>
</g>
</g>
<g id="clust4" class="cluster">
<title>cluster_3</title>
<g id="a_clust4"><a xlink:href="../../graph/index.html" xlink:title="graph">
<polygon fill="none" stroke="#000000" points="50.5,-8 50.5,-83 150.5,-83 150.5,-8 50.5,-8"/>
<text text-anchor="middle" x="100.5" y="-67.8" font-family="Times,serif" font-size="14.00" fill="#000000">graph</text>
</a>
</g>
</g>
<!-- _node0 -->
<g id="node1" class="node">
<title>_node0</title>
<g id="a_node1"><a xlink:href="index.html" xlink:title="Method">
<polygon fill="none" stroke="#000000" stroke-width="2" points="290,-301 231,-301 231,-265 290,-265 290,-301"/>
<text text-anchor="middle" x="260.5" y="-279.3" font-family="Times,serif" font-size="14.00" fill="#000000">Method</text>
</a>
</g>
</g>
<!-- _node1 -->
<g id="node2" class="node">
<title>_node1</title>
<g id="a_node2"><a xlink:href="../Node/index.html" xlink:title="Node">
<polygon fill="none" stroke="#000000" points="380,-301 326,-301 326,-265 380,-265 380,-301"/>
<text text-anchor="middle" x="353" y="-279.3" font-family="Times,serif" font-size="14.00" fill="#000000">Node</text>
</a>
</g>
</g>
<!-- _node0&#45;&gt;_node1 -->
<g id="edge1" class="edge">
<title>_node0&#45;&gt;_node1</title>
<path fill="none" stroke="#000000" d="M290.0219,-283C298.2163,-283 307.2204,-283 315.7932,-283"/>
<polygon fill="#000000" stroke="#000000" points="315.9528,-286.5001 325.9527,-283 315.9527,-279.5001 315.9528,-286.5001"/>
</g>
<!-- _node2 -->
<g id="node3" class="node">
<title>_node2</title>
<g id="a_node3"><a xlink:href="../Visitor/index.html" xlink:title="Visitor">
<polygon fill="none" stroke="#000000" points="380,-355 326,-355 326,-319 380,-319 380,-355"/>
<text text-anchor="middle" x="353" y="-333.3" font-family="Times,serif" font-size="14.00" fill="#000000">Visitor</text>
</a>
</g>
</g>
<!-- _node0&#45;&gt;_node2 -->
<g id="edge2" class="edge">
<title>_node0&#45;&gt;_node2</title>
<path fill="none" stroke="#000000" d="M290.0219,-300.2344C298.6666,-305.281 308.2123,-310.8537 317.2022,-316.1018"/>
<polygon fill="#000000" stroke="#000000" points="315.552,-319.1912 325.9527,-321.2102 319.0812,-313.1459 315.552,-319.1912"/>
</g>
<!-- _node3 -->
<g id="node4" class="node">
<title>_node3</title>
<g id="a_node4"><a xlink:href="../DefaultVisitor/index.html" xlink:title="DefaultVisitor">
<polygon fill="none" stroke="#000000" points="148,-301 53,-301 53,-265 148,-265 148,-301"/>
<text text-anchor="middle" x="100.5" y="-279.3" font-family="Times,serif" font-size="14.00" fill="#000000">DefaultVisitor</text>
</a>
</g>
</g>
<!-- _node3&#45;&gt;_node0 -->
<g id="edge3" class="edge">
<title>_node3&#45;&gt;_node0</title>
<path fill="none" stroke="#000000" d="M148.0721,-283C171.2926,-283 198.9008,-283 220.9475,-283"/>
<polygon fill="#000000" stroke="#000000" points="220.9642,-286.5001 230.9642,-283 220.9641,-279.5001 220.9642,-286.5001"/>
</g>
<!-- _node4 -->
<g id="node5" class="node">
<title>_node4</title>
<g id="a_node5"><a xlink:href="../../artefact/intra_class_dependencies/Artefact/index.html" xlink:title="Artefact">
<polygon fill="none" stroke="#000000" points="131,-218 70,-218 70,-182 131,-182 131,-218"/>
<text text-anchor="middle" x="100.5" y="-196.3" font-family="Times,serif" font-size="14.00" fill="#000000">Artefact</text>
</a>
</g>
</g>
<!-- _node4&#45;&gt;_node0 -->
<g id="edge4" class="edge">
<title>_node4&#45;&gt;_node0</title>
<g id="a_edge4"><a xlink:href="../../../dependencies-between-packages/-~artefact~intra_class_dependencies,-~ast.svg">
<path fill="none" stroke="#000000" d="M131.3496,-216.0032C157.1308,-229.3772 194.031,-248.5192 221.792,-262.9202"/>
<polygon fill="#000000" stroke="#000000" points="220.3385,-266.1091 230.827,-267.6071 223.5619,-259.8954 220.3385,-266.1091"/>
</a>
</g>
</g>
<!-- _node5 -->
<g id="node6" class="node">
<title>_node5</title>
<g id="a_node6"><a xlink:href="../../metric/AllRepository/index.html" xlink:title="AllRepository">
<polygon fill="none" stroke="#000000" points="147,-135 54,-135 54,-99 147,-99 147,-135"/>
<text text-anchor="middle" x="100.5" y="-113.3" font-family="Times,serif" font-size="14.00" fill="#000000">AllRepository</text>
</a>
</g>
</g>
<!-- _node5&#45;&gt;_node0 -->
<g id="edge5" class="edge">
<title>_node5&#45;&gt;_node0</title>
<g id="a_edge5"><a xlink:href="../../../dependencies-between-packages/-~metric,-~ast.svg">
<path fill="none" stroke="#000000" d="M147.0802,-134.0563C165.8441,-142.6556 186.635,-154.5808 202,-170 226.1209,-194.2059 242.451,-230.4171 251.5986,-255.2873"/>
<polygon fill="#000000" stroke="#000000" points="248.3473,-256.592 254.9722,-264.8601 254.9494,-254.2653 248.3473,-256.592"/>
</a>
</g>
</g>
<!-- _node6 -->
<g id="node7" class="node">
<title>_node6</title>
<g id="a_node7"><a xlink:href="../../graph/GraphParser/index.html" xlink:title="GraphParser">
<polygon fill="none" stroke="#000000" points="142.5,-52 58.5,-52 58.5,-16 142.5,-16 142.5,-52"/>
<text text-anchor="middle" x="100.5" y="-30.3" font-family="Times,serif" font-size="14.00" fill="#000000">GraphParser</text>
</a>
</g>
</g>
<!-- _node6&#45;&gt;_node0 -->
<g id="edge6" class="edge">
<title>_node6&#45;&gt;_node0</title>
<g id="a_edge6"><a xlink:href="../../../dependencies-between-packages/-~graph,-~ast.svg">
<path fill="none" stroke="#000000" d="M142.6381,-47.1923C163.1797,-55.5906 186.6923,-68.4457 202,-87 242.7643,-136.41 255.1265,-213.5001 258.873,-254.7317"/>
<polygon fill="#000000" stroke="#000000" points="255.3985,-255.192 259.6851,-264.8809 262.3762,-254.6336 255.3985,-255.192"/>
</a>
</g>
</g>
</g>
</svg>
