<?xml version="1.0" encoding="UTF-8" standalone="no"?>
<!DOCTYPE svg PUBLIC "-//W3C//DTD SVG 1.1//EN"
 "http://www.w3.org/Graphics/SVG/1.1/DTD/svg11.dtd">
<!-- Generated by graphviz version 2.40.1 (20161225.0304)
 -->
<!-- Title: %3 Pages: 1 -->
<svg width="444pt" height="273pt"
 viewBox="0.00 0.00 444.00 272.72" xmlns="http://www.w3.org/2000/svg" xmlns:xlink="http://www.w3.org/1999/xlink">
<g id="graph0" class="graph" transform="scale(1 1) rotate(0) translate(4 268.724)">
<title>%3</title>
<polygon fill="#ffffff" stroke="transparent" points="-4,4 -4,-268.724 440,-268.724 440,4 -4,4"/>
<text text-anchor="middle" x="218" y="-7.8" font-family="Times,serif" font-size="14.00" fill="#000000">Artefact</text>
<g id="clust1" class="cluster">
<title>cluster_0</title>
<polygon fill="none" stroke="#000000" points="8,-127.724 8,-256.724 294,-256.724 294,-127.724 8,-127.724"/>
<text text-anchor="middle" x="151" y="-241.524" font-family="Times,serif" font-size="14.00" fill="#000000">methods</text>
</g>
<g id="clust2" class="cluster">
<title>cluster_1</title>
<polygon fill="none" stroke="#000000" points="314,-43.724 314,-172.724 428,-172.724 428,-43.724 314,-43.724"/>
<text text-anchor="middle" x="371" y="-157.524" font-family="Times,serif" font-size="14.00" fill="#000000">fields</text>
</g>
<!-- _node0 -->
<g id="node1" class="node">
<title>_node0</title>
<polygon fill="none" stroke="#000000" points="77.5,-171.724 16.5,-171.724 16.5,-135.724 77.5,-135.724 77.5,-171.724"/>
<text text-anchor="middle" x="47" y="-150.024" font-family="Times,serif" font-size="14.00" fill="#000000">Artefact</text>
</g>
<!-- _node4 -->
<g id="node5" class="node">
<title>_node4</title>
<polygon fill="none" stroke="#000000" points="398,-141.724 344,-141.724 344,-105.724 398,-105.724 398,-141.724"/>
<text text-anchor="middle" x="371" y="-120.024" font-family="Times,serif" font-size="14.00" fill="#000000">node</text>
</g>
<!-- _node0&#45;&gt;_node4 -->
<g id="edge1" class="edge">
<title>_node0&#45;&gt;_node4</title>
<path fill="none" stroke="#000000" d="M55.6051,-135.6529C66.2005,-115.7671 86.2607,-84.8804 114,-71.724 186.2822,-37.4416 221.8957,-37.0689 294,-71.724 306.8248,-77.8879 302.8399,-87.8967 314,-96.724 320.0814,-101.5343 327.1598,-105.7493 334.2182,-109.3303"/>
<polygon fill="#000000" stroke="#000000" points="333.1977,-112.7186 343.7355,-113.8168 336.1826,-106.3869 333.1977,-112.7186"/>
</g>
<!-- _node5 -->
<g id="node6" class="node">
<title>_node5</title>
<polygon fill="none" stroke="#000000" points="420,-87.724 322,-87.724 322,-51.724 420,-51.724 420,-87.724"/>
<text text-anchor="middle" x="371" y="-66.024" font-family="Times,serif" font-size="14.00" fill="#000000">artefactFactory</text>
</g>
<!-- _node0&#45;&gt;_node5 -->
<g id="edge2" class="edge">
<title>_node0&#45;&gt;_node5</title>
<path fill="none" stroke="#000000" d="M51.8797,-135.4496C59.9264,-109.4258 78.716,-62.6399 114,-42.724 178.3148,-6.4219 266.1836,-27.9709 320.7209,-47.9813"/>
<polygon fill="#000000" stroke="#000000" points="319.5801,-51.2917 330.1717,-51.5562 322.0567,-44.7445 319.5801,-51.2917"/>
</g>
<!-- _node1 -->
<g id="node2" class="node">
<title>_node1</title>
<polygon fill="none" stroke="#000000" points="78,-225.724 16,-225.724 16,-189.724 78,-189.724 78,-225.724"/>
<text text-anchor="middle" x="47" y="-204.024" font-family="Times,serif" font-size="14.00" fill="#000000">generate</text>
</g>
<!-- _node2 -->
<g id="node3" class="node">
<title>_node2</title>
<polygon fill="none" stroke="#000000" points="286,-225.724 221,-225.724 221,-189.724 286,-189.724 286,-225.724"/>
<text text-anchor="middle" x="253.5" y="-204.024" font-family="Times,serif" font-size="14.00" fill="#000000">filename</text>
</g>
<!-- _node1&#45;&gt;_node2 -->
<g id="edge5" class="edge">
<title>_node1&#45;&gt;_node2</title>
<path fill="none" stroke="#000000" d="M78.3629,-207.724C113.681,-207.724 171.2775,-207.724 210.7097,-207.724"/>
<polygon fill="#000000" stroke="#000000" points="210.8169,-211.2241 220.8169,-207.724 210.8168,-204.2241 210.8169,-211.2241"/>
</g>
<!-- _node3 -->
<g id="node4" class="node">
<title>_node3</title>
<polygon fill="none" stroke="#000000" points="185,-184.724 114,-184.724 114,-148.724 185,-148.724 185,-184.724"/>
<text text-anchor="middle" x="149.5" y="-163.024" font-family="Times,serif" font-size="14.00" fill="#000000">printBody</text>
</g>
<!-- _node1&#45;&gt;_node3 -->
<g id="edge4" class="edge">
<title>_node1&#45;&gt;_node3</title>
<path fill="none" stroke="#000000" d="M78.0315,-195.3114C86.3396,-191.9882 95.492,-188.3272 104.3934,-184.7667"/>
<polygon fill="#000000" stroke="#000000" points="105.9173,-187.9268 113.9022,-180.9631 103.3175,-181.4274 105.9173,-187.9268"/>
</g>
<!-- _node1&#45;&gt;_node4 -->
<g id="edge3" class="edge">
<title>_node1&#45;&gt;_node4</title>
<path fill="none" stroke="#000000" d="M68.6838,-189.4962C71.8719,-186.6287 75.0671,-183.6452 78,-180.724 95.1815,-163.6113 92.2303,-150.4072 114,-139.724 185.337,-104.7163 281.5139,-110.6099 333.6422,-117.4831"/>
<polygon fill="#000000" stroke="#000000" points="333.3769,-120.9801 343.7664,-118.9046 334.3502,-114.0481 333.3769,-120.9801"/>
</g>
<!-- _node2&#45;&gt;_node4 -->
<g id="edge6" class="edge">
<title>_node2&#45;&gt;_node4</title>
<path fill="none" stroke="#000000" d="M278.7067,-189.7039C295.7818,-177.497 318.542,-161.2259 337.1875,-147.8964"/>
<polygon fill="#000000" stroke="#000000" points="339.33,-150.6671 345.4296,-142.0042 335.259,-144.9726 339.33,-150.6671"/>
</g>
<!-- _node3&#45;&gt;_node2 -->
<g id="edge9" class="edge">
<title>_node3&#45;&gt;_node2</title>
<path fill="none" stroke="#000000" d="M185,-180.7192C193.5563,-184.0924 202.7774,-187.7276 211.5957,-191.2041"/>
<polygon fill="#000000" stroke="#000000" points="210.3691,-194.4826 220.9559,-194.8941 212.9364,-187.9704 210.3691,-194.4826"/>
</g>
<!-- _node3&#45;&gt;_node4 -->
<g id="edge8" class="edge">
<title>_node3&#45;&gt;_node4</title>
<path fill="none" stroke="#000000" d="M185.0878,-159.8153C225.8986,-151.8927 292.4911,-138.965 333.9186,-130.9227"/>
<polygon fill="#000000" stroke="#000000" points="334.7282,-134.3309 343.8779,-128.9893 333.3941,-127.4592 334.7282,-134.3309"/>
</g>
<!-- _node3&#45;&gt;_node5 -->
<g id="edge7" class="edge">
<title>_node3&#45;&gt;_node5</title>
<path fill="none" stroke="#000000" d="M185.0878,-151.1393C221.7333,-135.0914 279.1663,-109.9401 320.5016,-91.8384"/>
<polygon fill="#000000" stroke="#000000" points="322.0945,-94.9619 329.8506,-87.7443 319.2864,-88.5498 322.0945,-94.9619"/>
</g>
</g>
</svg>
