digraph {
    rankdir=LR
    subgraph cluster_0 {
        label="metric::generic"
        URL="../index.html"
        _node0 [
            shape="box"
            style="bold"
            label="Instability"
            URL="index.html"
        ]
    }
    subgraph cluster_1 {
        label="metric::generic::Instability"
        URL="index.html"
        _node1 [
            shape="box"
            label="FanCount"
            URL="FanCount/index.html"
        ]
    }
    subgraph cluster_2 {
        label="ast"
        URL="../../../ast/index.html"
        _node2 [
            shape="box"
            label="Node"
            URL="../../../ast/Node/index.html"
        ]
    }
    subgraph cluster_3 {
        label="metric::AllRepository"
        URL="../../AllRepository/index.html"
        _node3 [
            shape="box"
            label="Instabilty"
            URL="../../AllRepository/Instabilty/index.html"
        ]
    }
    subgraph cluster_4 {
        label="feature_test::metric"
        URL="../../../feature_test/metric/index.html"
        _node4 [
            shape="box"
            label="CukeObject4"
            URL="../../../feature_test/metric/CukeObject4/index.html"
        ]
        _node5 [
            shape="box"
            label="CukeObject7"
            URL="../../../feature_test/metric/CukeObject7/index.html"
        ]
    }
    _node0 -> _node1
    _node0 -> _node2 [
        URL="../../../../dependencies-between-packages/-~metric~generic,-~ast.svg"
    ]
    _node3 -> _node0 [
        URL="../../../../dependencies-between-packages/-~metric,-~metric~generic.svg"
    ]
    _node4 -> _node0 [
        URL="../../../../dependencies-between-packages/-~feature_test~metric,-~metric~generic.svg"
    ]
    _node5 -> _node0 [
        URL="../../../../dependencies-between-packages/-~feature_test~metric,-~metric~generic.svg"
    ]
}
