<?xml version="1.0" encoding="UTF-8" standalone="no"?>
<!DOCTYPE svg PUBLIC "-//W3C//DTD SVG 1.1//EN"
 "http://www.w3.org/Graphics/SVG/1.1/DTD/svg11.dtd">
<!-- Generated by graphviz version 2.40.1 (20161225.0304)
 -->
<!-- Title: %3 Pages: 1 -->
<svg width="261pt" height="230pt"
 viewBox="0.00 0.00 261.00 230.00" xmlns="http://www.w3.org/2000/svg" xmlns:xlink="http://www.w3.org/1999/xlink">
<g id="graph0" class="graph" transform="scale(1 1) rotate(0) translate(4 226)">
<title>%3</title>
<polygon fill="#ffffff" stroke="transparent" points="-4,4 -4,-226 257,-226 257,4 -4,4"/>
<text text-anchor="middle" x="126.5" y="-7.8" font-family="Times,serif" font-size="14.00" fill="#000000">ArtefactFactory</text>
<g id="clust1" class="cluster">
<title>cluster_0</title>
<polygon fill="none" stroke="#000000" points="8,-31 8,-214 245,-214 245,-31 8,-31"/>
<text text-anchor="middle" x="126.5" y="-198.8" font-family="Times,serif" font-size="14.00" fill="#000000">methods</text>
</g>
<!-- _node0 -->
<g id="node1" class="node">
<title>_node0</title>
<polygon fill="none" stroke="#000000" points="181.5,-183 71.5,-183 71.5,-147 181.5,-147 181.5,-183"/>
<text text-anchor="middle" x="126.5" y="-161.3" font-family="Times,serif" font-size="14.00" fill="#000000">~ArtefactFactory</text>
</g>
<!-- _node1 -->
<g id="node2" class="node">
<title>_node1</title>
<polygon fill="none" stroke="#000000" points="229,-129 24,-129 24,-93 229,-93 229,-129"/>
<text text-anchor="middle" x="126.5" y="-107.3" font-family="Times,serif" font-size="14.00" fill="#000000">packagesWithCyclicDependencies</text>
</g>
<!-- _node2 -->
<g id="node3" class="node">
<title>_node2</title>
<polygon fill="none" stroke="#000000" points="237,-75 16,-75 16,-39 237,-39 237,-75"/>
<text text-anchor="middle" x="126.5" y="-53.3" font-family="Times,serif" font-size="14.00" fill="#000000">stableDependencyPrincipleViolations</text>
</g>
</g>
</svg>
