digraph {
    rankdir=LR
    _node0 [
        shape="box"
        label="PathGenerator"
        URL="PathGenerator/index.html"
    ]
    _node1 [
        shape="box"
        label="Queue"
        URL="Queue/index.html"
    ]
    _node2 [
        shape="box"
        label="parse"
        URL="parse/index.html"
    ]
    _node3 [
        shape="box"
        label="Namer"
        URL="Namer/index.html"
    ]
    _node4 [
        shape="box"
        label="GraphParser"
        URL="GraphParser/index.html"
    ]
    _node5 [
        shape="box"
        label="createEnv"
        URL="createEnv/index.html"
    ]
    _node6 [
        shape="box"
        label="edgePrinter"
        URL="edgePrinter/index.html"
    ]
    _node7 [
        shape="box"
        label="edgeMultiplicityPrinter"
        URL="edgeMultiplicityPrinter/index.html"
    ]
    _node1 -> _node5
    _node1 -> _node0
    _node2 -> _node4
    _node5 -> _node0
}
