digraph {
    rankdir=LR
    _node0 [
        shape="box"
        label="graph"
        URL="index.html"
    ]
    _node1 [
        shape="box"
        label="graph::unit_test"
        URL="unit_test/index.html"
    ]
    _node1 -> _node0 [
        URL="../../dependencies-between-packages/-~graph~unit_test,-~graph.svg"
    ]
}
