<?xml version="1.0" encoding="UTF-8" standalone="no"?>
<!DOCTYPE svg PUBLIC "-//W3C//DTD SVG 1.1//EN"
 "http://www.w3.org/Graphics/SVG/1.1/DTD/svg11.dtd">
<!-- Generated by graphviz version 2.40.1 (20161225.0304)
 -->
<!-- Title: %3 Pages: 1 -->
<svg width="184pt" height="99pt"
 viewBox="0.00 0.00 184.00 99.00" xmlns="http://www.w3.org/2000/svg" xmlns:xlink="http://www.w3.org/1999/xlink">
<g id="graph0" class="graph" transform="scale(1 1) rotate(0) translate(4 95)">
<title>%3</title>
<polygon fill="#ffffff" stroke="transparent" points="-4,4 -4,-95 180,-95 180,4 -4,4"/>
<g id="clust1" class="cluster">
<title>cluster_0</title>
<g id="a_clust1"><a xlink:href="../-/index.html" xlink:title="::">
<polygon fill="none" stroke="#000000" points="8,-8 8,-83 78,-83 78,-8 8,-8"/>
<text text-anchor="middle" x="43" y="-67.8" font-family="Times,serif" font-size="14.00" fill="#000000">::</text>
</a>
</g>
</g>
<g id="clust2" class="cluster">
<title>cluster_1</title>
<g id="a_clust2"><a xlink:href="../-/artefact/index.html" xlink:title="artefact">
<polygon fill="none" stroke="#000000" points="98,-8 98,-83 168,-83 168,-8 98,-8"/>
<text text-anchor="middle" x="133" y="-67.8" font-family="Times,serif" font-size="14.00" fill="#000000">artefact</text>
</a>
</g>
</g>
<!-- _node0 -->
<g id="node1" class="node">
<title>_node0</title>
<g id="a_node1"><a xlink:href="../-/StdOs/index.html" xlink:title="StdOs">
<polygon fill="none" stroke="#000000" points="70,-52 16,-52 16,-16 70,-16 70,-52"/>
<text text-anchor="middle" x="43" y="-30.3" font-family="Times,serif" font-size="14.00" fill="#000000">StdOs</text>
</a>
</g>
</g>
<!-- _node1 -->
<g id="node2" class="node">
<title>_node1</title>
<g id="a_node2"><a xlink:href="../-/artefact/Os/index.html" xlink:title="Os">
<polygon fill="none" stroke="#000000" points="160,-52 106,-52 106,-16 160,-16 160,-52"/>
<text text-anchor="middle" x="133" y="-30.3" font-family="Times,serif" font-size="14.00" fill="#000000">Os</text>
</a>
</g>
</g>
<!-- _node0&#45;&gt;_node1 -->
<g id="edge1" class="edge">
<title>_node0&#45;&gt;_node1</title>
<path fill="none" stroke="#000000" d="M70.003,-34C78.0277,-34 86.9665,-34 95.5309,-34"/>
<polygon fill="#000000" stroke="#000000" points="95.7051,-37.5001 105.705,-34 95.705,-30.5001 95.7051,-37.5001"/>
</g>
</g>
</svg>
