<?xml version="1.0" encoding="UTF-8" standalone="no"?>
<!DOCTYPE svg PUBLIC "-//W3C//DTD SVG 1.1//EN"
 "http://www.w3.org/Graphics/SVG/1.1/DTD/svg11.dtd">
<!-- Generated by graphviz version 2.40.1 (20161225.0304)
 -->
<!-- Title: %3 Pages: 1 -->
<svg width="323pt" height="369pt"
 viewBox="0.00 0.00 323.00 369.00" xmlns="http://www.w3.org/2000/svg" xmlns:xlink="http://www.w3.org/1999/xlink">
<g id="graph0" class="graph" transform="scale(1 1) rotate(0) translate(4 365)">
<title>%3</title>
<polygon fill="#ffffff" stroke="transparent" points="-4,4 -4,-365 319,-365 319,4 -4,4"/>
<g id="clust1" class="cluster">
<title>cluster_0</title>
<g id="a_clust1"><a xlink:href="../-/artefact/overviewfactory/index.html" xlink:title="artefact::overviewfactory">
<polygon fill="none" stroke="#000000" points="8,-143 8,-272 176,-272 176,-143 8,-143"/>
<text text-anchor="middle" x="92" y="-256.8" font-family="Times,serif" font-size="14.00" fill="#000000">artefact::overviewfactory</text>
</a>
</g>
</g>
<g id="clust2" class="cluster">
<title>cluster_1</title>
<g id="a_clust2"><a xlink:href="../-/ast/index.html" xlink:title="ast">
<polygon fill="none" stroke="#000000" points="196,-8 196,-353 307,-353 307,-8 196,-8"/>
<text text-anchor="middle" x="251.5" y="-337.8" font-family="Times,serif" font-size="14.00" fill="#000000">ast</text>
</a>
</g>
</g>
<!-- _node0 -->
<g id="node1" class="node">
<title>_node0</title>
<g id="a_node1"><a xlink:href="../-/artefact/overviewfactory/Factory/index.html" xlink:title="Factory">
<polygon fill="none" stroke="#000000" points="121,-241 63,-241 63,-205 121,-205 121,-241"/>
<text text-anchor="middle" x="92" y="-219.3" font-family="Times,serif" font-size="14.00" fill="#000000">Factory</text>
</a>
</g>
</g>
<!-- _node2 -->
<g id="node3" class="node">
<title>_node2</title>
<g id="a_node3"><a xlink:href="../-/ast/Node/index.html" xlink:title="Node">
<polygon fill="none" stroke="#000000" points="278.5,-322 224.5,-322 224.5,-286 278.5,-286 278.5,-322"/>
<text text-anchor="middle" x="251.5" y="-300.3" font-family="Times,serif" font-size="14.00" fill="#000000">Node</text>
</a>
</g>
</g>
<!-- _node0&#45;&gt;_node2 -->
<g id="edge1" class="edge">
<title>_node0&#45;&gt;_node2</title>
<path fill="none" stroke="#000000" d="M121.0343,-238.3338C141.835,-249.2559 170.5529,-264.2064 196,-277 202.1748,-280.1044 208.7612,-283.3584 215.1599,-286.4896"/>
<polygon fill="#000000" stroke="#000000" points="213.8078,-289.7241 224.3306,-290.9576 216.8737,-283.4312 213.8078,-289.7241"/>
</g>
<!-- _node1 -->
<g id="node2" class="node">
<title>_node1</title>
<g id="a_node2"><a xlink:href="../-/artefact/overviewfactory/OverviewArtefactVisitor/index.html" xlink:title="OverviewArtefactVisitor">
<polygon fill="none" stroke="#000000" points="168,-187 16,-187 16,-151 168,-151 168,-187"/>
<text text-anchor="middle" x="92" y="-165.3" font-family="Times,serif" font-size="14.00" fill="#000000">OverviewArtefactVisitor</text>
</a>
</g>
</g>
<!-- _node3 -->
<g id="node4" class="node">
<title>_node3</title>
<g id="a_node4"><a xlink:href="../-/ast/DefaultVisitor/index.html" xlink:title="DefaultVisitor">
<polygon fill="none" stroke="#000000" points="299,-268 204,-268 204,-232 299,-232 299,-268"/>
<text text-anchor="middle" x="251.5" y="-246.3" font-family="Times,serif" font-size="14.00" fill="#000000">DefaultVisitor</text>
</a>
</g>
</g>
<!-- _node1&#45;&gt;_node3 -->
<g id="edge2" class="edge">
<title>_node1&#45;&gt;_node3</title>
<path fill="none" stroke="#000000" d="M160.7063,-187.0122C166.0928,-189.6278 171.2697,-192.6078 176,-196 188.1357,-204.7027 184.5112,-213.4596 196,-223 197.3602,-224.1295 198.7756,-225.2256 200.2334,-226.2878"/>
<polygon fill="#000000" stroke="#000000" points="198.6745,-229.4505 208.9582,-231.9991 202.5084,-223.5938 198.6745,-229.4505"/>
</g>
<!-- _node4 -->
<g id="node5" class="node">
<title>_node4</title>
<g id="a_node5"><a xlink:href="../-/ast/Package/index.html" xlink:title="Package">
<polygon fill="none" stroke="#000000" points="282.5,-214 220.5,-214 220.5,-178 282.5,-178 282.5,-214"/>
<text text-anchor="middle" x="251.5" y="-192.3" font-family="Times,serif" font-size="14.00" fill="#000000">Package</text>
</a>
</g>
</g>
<!-- _node1&#45;&gt;_node4 -->
<g id="edge3" class="edge">
<title>_node1&#45;&gt;_node4</title>
<path fill="none" stroke="#000000" d="M168.0129,-181.8674C182.5746,-184.3324 197.3027,-186.8255 210.2497,-189.0172"/>
<polygon fill="#000000" stroke="#000000" points="209.77,-192.4857 220.2139,-190.7039 210.9383,-185.5839 209.77,-192.4857"/>
</g>
<!-- _node5 -->
<g id="node6" class="node">
<title>_node5</title>
<g id="a_node6"><a xlink:href="../-/ast/Class/index.html" xlink:title="Class">
<polygon fill="none" stroke="#000000" points="278.5,-160 224.5,-160 224.5,-124 278.5,-124 278.5,-160"/>
<text text-anchor="middle" x="251.5" y="-138.3" font-family="Times,serif" font-size="14.00" fill="#000000">Class</text>
</a>
</g>
</g>
<!-- _node1&#45;&gt;_node5 -->
<g id="edge4" class="edge">
<title>_node1&#45;&gt;_node5</title>
<path fill="none" stroke="#000000" d="M168.0129,-156.1326C184.1254,-153.4051 200.4417,-150.6431 214.3233,-148.2932"/>
<polygon fill="#000000" stroke="#000000" points="215.1449,-151.704 224.4204,-146.584 213.9765,-144.8022 215.1449,-151.704"/>
</g>
<!-- _node6 -->
<g id="node7" class="node">
<title>_node6</title>
<g id="a_node7"><a xlink:href="../-/ast/Function/index.html" xlink:title="Function">
<polygon fill="none" stroke="#000000" points="284,-106 219,-106 219,-70 284,-70 284,-106"/>
<text text-anchor="middle" x="251.5" y="-84.3" font-family="Times,serif" font-size="14.00" fill="#000000">Function</text>
</a>
</g>
</g>
<!-- _node1&#45;&gt;_node6 -->
<g id="edge5" class="edge">
<title>_node1&#45;&gt;_node6</title>
<path fill="none" stroke="#000000" d="M126.5505,-150.7727C146.7341,-140.197 172.7341,-126.697 196,-115 200.3768,-112.7996 204.9604,-110.5239 209.5374,-108.2701"/>
<polygon fill="#000000" stroke="#000000" points="211.4141,-111.2483 218.8546,-103.7057 208.3345,-104.9621 211.4141,-111.2483"/>
</g>
<!-- _node7 -->
<g id="node8" class="node">
<title>_node7</title>
<g id="a_node8"><a xlink:href="../-/ast/Variable/index.html" xlink:title="Variable">
<polygon fill="none" stroke="#000000" points="283,-52 220,-52 220,-16 283,-16 283,-52"/>
<text text-anchor="middle" x="251.5" y="-30.3" font-family="Times,serif" font-size="14.00" fill="#000000">Variable</text>
</a>
</g>
</g>
<!-- _node1&#45;&gt;_node7 -->
<g id="edge6" class="edge">
<title>_node1&#45;&gt;_node7</title>
<path fill="none" stroke="#000000" d="M106.2207,-150.6528C124.885,-127.4899 159.5737,-87.4766 196,-61 200.5504,-57.6925 205.5686,-54.6061 210.6713,-51.7891"/>
<polygon fill="#000000" stroke="#000000" points="212.5997,-54.7318 219.8648,-47.0201 209.3764,-48.518 212.5997,-54.7318"/>
</g>
</g>
</svg>
