digraph {
    rankdir=LR
    subgraph cluster_0 {
        label="artefact::packages_with_cyclic_dependencies"
        URL="../-/artefact/packages_with_cyclic_dependencies/index.html"
        _node0 [
            shape="box"
            label="Artefact"
            URL="../-/artefact/packages_with_cyclic_dependencies/Artefact/index.html"
        ]
    }
    subgraph cluster_1 {
        label="html"
        URL="../-/html/index.html"
        _node1 [
            shape="box"
            label="XmlWriter"
            URL="../-/html/XmlWriter/index.html"
        ]
        _node2 [
            shape="box"
            label="printHeader"
            URL="../-/html/printHeader/index.html"
        ]
        _node3 [
            shape="box"
            label="tableStart"
            URL="../-/html/tableStart/index.html"
        ]
        _node4 [
            shape="box"
            label="tableHead"
            URL="../-/html/tableHead/index.html"
        ]
        _node5 [
            shape="box"
            label="tableData"
            URL="../-/html/tableData/index.html"
        ]
        _node6 [
            shape="box"
            label="tableEnd"
            URL="../-/html/tableEnd/index.html"
        ]
        _node7 [
            shape="box"
            label="tableData"
            URL="../-/html/tableData/index.html"
        ]
        _node8 [
            shape="box"
            label="printLink"
            URL="../-/html/printLink/index.html"
        ]
    }
    _node0 -> _node1
    _node0 -> _node2
    _node0 -> _node3
    _node0 -> _node4
    _node0 -> _node5
    _node0 -> _node6
    _node0 -> _node7
    _node0 -> _node8
}
