<?xml version="1.0" encoding="UTF-8" standalone="no"?>
<!DOCTYPE svg PUBLIC "-//W3C//DTD SVG 1.1//EN"
 "http://www.w3.org/Graphics/SVG/1.1/DTD/svg11.dtd">
<!-- Generated by graphviz version 2.40.1 (20161225.0304)
 -->
<!-- Title: %3 Pages: 1 -->
<svg width="346pt" height="207pt"
 viewBox="0.00 0.00 346.00 207.00" xmlns="http://www.w3.org/2000/svg" xmlns:xlink="http://www.w3.org/1999/xlink">
<g id="graph0" class="graph" transform="scale(1 1) rotate(0) translate(4 203)">
<title>%3</title>
<polygon fill="#ffffff" stroke="transparent" points="-4,4 -4,-203 342,-203 342,4 -4,4"/>
<g id="clust1" class="cluster">
<title>cluster_0</title>
<g id="a_clust1"><a xlink:href="../-/artefact/intra_class_dependencies/index.html" xlink:title="artefact::intra_class_dependencies">
<polygon fill="none" stroke="#000000" points="0,-8 0,-137 202,-137 202,-8 0,-8"/>
<text text-anchor="middle" x="101" y="-121.8" font-family="Times,serif" font-size="14.00" fill="#000000">artefact::intra_class_dependencies</text>
</a>
</g>
</g>
<g id="clust2" class="cluster">
<title>cluster_1</title>
<g id="a_clust2"><a xlink:href="../-/graphviz/index.html" xlink:title="graphviz">
<polygon fill="none" stroke="#000000" points="222,-8 222,-191 330,-191 330,-8 222,-8"/>
<text text-anchor="middle" x="276" y="-175.8" font-family="Times,serif" font-size="14.00" fill="#000000">graphviz</text>
</a>
</g>
</g>
<!-- _node0 -->
<g id="node1" class="node">
<title>_node0</title>
<g id="a_node1"><a xlink:href="../-/artefact/intra_class_dependencies/Artefact/index.html" xlink:title="Artefact">
<polygon fill="none" stroke="#000000" points="131.5,-106 70.5,-106 70.5,-70 131.5,-70 131.5,-106"/>
<text text-anchor="middle" x="101" y="-84.3" font-family="Times,serif" font-size="14.00" fill="#000000">Artefact</text>
</a>
</g>
</g>
<!-- _node2 -->
<g id="node3" class="node">
<title>_node2</title>
<g id="a_node3"><a xlink:href="../-/graphviz/StreamWriter/index.html" xlink:title="StreamWriter">
<polygon fill="none" stroke="#000000" points="322,-106 230,-106 230,-70 322,-70 322,-106"/>
<text text-anchor="middle" x="276" y="-84.3" font-family="Times,serif" font-size="14.00" fill="#000000">StreamWriter</text>
</a>
</g>
</g>
<!-- _node0&#45;&gt;_node2 -->
<g id="edge1" class="edge">
<title>_node0&#45;&gt;_node2</title>
<path fill="none" stroke="#000000" d="M131.8837,-88C156.1971,-88 190.7312,-88 219.8987,-88"/>
<polygon fill="#000000" stroke="#000000" points="219.9663,-91.5001 229.9663,-88 219.9663,-84.5001 219.9663,-91.5001"/>
</g>
<!-- _node3 -->
<g id="node4" class="node">
<title>_node3</title>
<g id="a_node4"><a xlink:href="../-/graphviz/Writer/index.html" xlink:title="Writer">
<polygon fill="none" stroke="#000000" points="303,-52 249,-52 249,-16 303,-16 303,-52"/>
<text text-anchor="middle" x="276" y="-30.3" font-family="Times,serif" font-size="14.00" fill="#000000">Writer</text>
</a>
</g>
</g>
<!-- _node0&#45;&gt;_node3 -->
<g id="edge2" class="edge">
<title>_node0&#45;&gt;_node3</title>
<path fill="none" stroke="#000000" d="M131.6999,-80.5462C151.8224,-75.4761 178.6317,-68.3707 202,-61 214.2271,-57.1434 227.423,-52.4905 239.2383,-48.1417"/>
<polygon fill="#000000" stroke="#000000" points="240.638,-51.3553 248.7869,-44.5844 238.1942,-44.7957 240.638,-51.3553"/>
</g>
<!-- _node4 -->
<g id="node5" class="node">
<title>_node4</title>
<g id="a_node5"><a xlink:href="../-/graphviz/Shape/index.html" xlink:title="Shape">
<polygon fill="none" stroke="#000000" points="303,-160 249,-160 249,-124 303,-124 303,-160"/>
<text text-anchor="middle" x="276" y="-138.3" font-family="Times,serif" font-size="14.00" fill="#000000">Shape</text>
</a>
</g>
</g>
<!-- _node0&#45;&gt;_node4 -->
<g id="edge3" class="edge">
<title>_node0&#45;&gt;_node4</title>
<path fill="none" stroke="#000000" d="M131.8837,-97.5298C161.8104,-106.7644 207.222,-120.7771 239.0508,-130.5985"/>
<polygon fill="#000000" stroke="#000000" points="238.2833,-134.0245 248.8707,-133.6287 240.3473,-127.3357 238.2833,-134.0245"/>
</g>
<!-- _node1 -->
<g id="node2" class="node">
<title>_node1</title>
<g id="a_node2"><a xlink:href="../-/artefact/intra_class_dependencies/printChildrenIfAny/index.html" xlink:title="printChildrenIfAny">
<polygon fill="none" stroke="#000000" points="162,-52 40,-52 40,-16 162,-16 162,-52"/>
<text text-anchor="middle" x="101" y="-30.3" font-family="Times,serif" font-size="14.00" fill="#000000">printChildrenIfAny</text>
</a>
</g>
</g>
<!-- _node1&#45;&gt;_node3 -->
<g id="edge4" class="edge">
<title>_node1&#45;&gt;_node3</title>
<path fill="none" stroke="#000000" d="M162.2065,-34C187.7331,-34 216.5511,-34 238.7993,-34"/>
<polygon fill="#000000" stroke="#000000" points="238.8363,-37.5001 248.8363,-34 238.8362,-30.5001 238.8363,-37.5001"/>
</g>
</g>
</svg>
