<?xml version="1.0" encoding="UTF-8" standalone="no"?>
<!DOCTYPE svg PUBLIC "-//W3C//DTD SVG 1.1//EN"
 "http://www.w3.org/Graphics/SVG/1.1/DTD/svg11.dtd">
<!-- Generated by graphviz version 2.40.1 (20161225.0304)
 -->
<!-- Title: %3 Pages: 1 -->
<svg width="375pt" height="99pt"
 viewBox="0.00 0.00 375.00 99.00" xmlns="http://www.w3.org/2000/svg" xmlns:xlink="http://www.w3.org/1999/xlink">
<g id="graph0" class="graph" transform="scale(1 1) rotate(0) translate(4 95)">
<title>%3</title>
<polygon fill="#ffffff" stroke="transparent" points="-4,4 -4,-95 371,-95 371,4 -4,4"/>
<g id="clust1" class="cluster">
<title>cluster_0</title>
<g id="a_clust1"><a xlink:href="../-/artefact/packages_with_cyclic_dependencies/index.html" xlink:title="artefact::packages_with_cyclic_dependencies">
<polygon fill="none" stroke="#000000" points="0,-8 0,-83 263,-83 263,-8 0,-8"/>
<text text-anchor="middle" x="131.5" y="-67.8" font-family="Times,serif" font-size="14.00" fill="#000000">artefact::packages_with_cyclic_dependencies</text>
</a>
</g>
</g>
<g id="clust2" class="cluster">
<title>cluster_1</title>
<g id="a_clust2"><a xlink:href="../-/library/index.html" xlink:title="library">
<polygon fill="none" stroke="#000000" points="283,-8 283,-83 359,-83 359,-8 283,-8"/>
<text text-anchor="middle" x="321" y="-67.8" font-family="Times,serif" font-size="14.00" fill="#000000">library</text>
</a>
</g>
</g>
<!-- _node0 -->
<g id="node1" class="node">
<title>_node0</title>
<g id="a_node1"><a xlink:href="../-/artefact/packages_with_cyclic_dependencies/Artefact/index.html" xlink:title="Artefact">
<polygon fill="none" stroke="#000000" points="162,-52 101,-52 101,-16 162,-16 162,-52"/>
<text text-anchor="middle" x="131.5" y="-30.3" font-family="Times,serif" font-size="14.00" fill="#000000">Artefact</text>
</a>
</g>
</g>
<!-- _node1 -->
<g id="node2" class="node">
<title>_node1</title>
<g id="a_node2"><a xlink:href="../-/library/toString/index.html" xlink:title="toString">
<polygon fill="none" stroke="#000000" points="351,-52 291,-52 291,-16 351,-16 351,-52"/>
<text text-anchor="middle" x="321" y="-30.3" font-family="Times,serif" font-size="14.00" fill="#000000">toString</text>
</a>
</g>
</g>
<!-- _node0&#45;&gt;_node1 -->
<g id="edge1" class="edge">
<title>_node0&#45;&gt;_node1</title>
<path fill="none" stroke="#000000" d="M162.3682,-34C194.4934,-34 244.9577,-34 280.3194,-34"/>
<polygon fill="#000000" stroke="#000000" points="280.7719,-37.5001 290.7718,-34 280.7718,-30.5001 280.7719,-37.5001"/>
</g>
</g>
</svg>
