<?xml version="1.0" encoding="UTF-8" standalone="no"?>
<!DOCTYPE svg PUBLIC "-//W3C//DTD SVG 1.1//EN"
 "http://www.w3.org/Graphics/SVG/1.1/DTD/svg11.dtd">
<!-- Generated by graphviz version 2.40.1 (20161225.0304)
 -->
<!-- Title: %3 Pages: 1 -->
<svg width="294pt" height="99pt"
 viewBox="0.00 0.00 294.00 99.00" xmlns="http://www.w3.org/2000/svg" xmlns:xlink="http://www.w3.org/1999/xlink">
<g id="graph0" class="graph" transform="scale(1 1) rotate(0) translate(4 95)">
<title>%3</title>
<polygon fill="#ffffff" stroke="transparent" points="-4,4 -4,-95 290,-95 290,4 -4,4"/>
<g id="clust1" class="cluster">
<title>cluster_0</title>
<g id="a_clust1"><a xlink:href="../-/artefact/package_dependencies/index.html" xlink:title="artefact::package_dependencies">
<polygon fill="none" stroke="#000000" points="0,-8 0,-83 188,-83 188,-8 0,-8"/>
<text text-anchor="middle" x="94" y="-67.8" font-family="Times,serif" font-size="14.00" fill="#000000">artefact::package_dependencies</text>
</a>
</g>
</g>
<g id="clust2" class="cluster">
<title>cluster_1</title>
<g id="a_clust2"><a xlink:href="../-/ast/index.html" xlink:title="ast">
<polygon fill="none" stroke="#000000" points="208,-8 208,-83 278,-83 278,-8 208,-8"/>
<text text-anchor="middle" x="243" y="-67.8" font-family="Times,serif" font-size="14.00" fill="#000000">ast</text>
</a>
</g>
</g>
<!-- _node0 -->
<g id="node1" class="node">
<title>_node0</title>
<g id="a_node1"><a xlink:href="../-/artefact/package_dependencies/Artefact/index.html" xlink:title="Artefact">
<polygon fill="none" stroke="#000000" points="124,-52 63,-52 63,-16 124,-16 124,-52"/>
<text text-anchor="middle" x="93.5" y="-30.3" font-family="Times,serif" font-size="14.00" fill="#000000">Artefact</text>
</a>
</g>
</g>
<!-- _node1 -->
<g id="node2" class="node">
<title>_node1</title>
<g id="a_node2"><a xlink:href="../-/ast/Node/index.html" xlink:title="Node">
<polygon fill="none" stroke="#000000" points="270,-52 216,-52 216,-16 270,-16 270,-52"/>
<text text-anchor="middle" x="243" y="-30.3" font-family="Times,serif" font-size="14.00" fill="#000000">Node</text>
</a>
</g>
</g>
<!-- _node0&#45;&gt;_node1 -->
<g id="edge1" class="edge">
<title>_node0&#45;&gt;_node1</title>
<path fill="none" stroke="#000000" d="M124.1143,-34C147.7346,-34 180.5153,-34 205.6736,-34"/>
<polygon fill="#000000" stroke="#000000" points="205.9402,-37.5001 215.9402,-34 205.9402,-30.5001 205.9402,-37.5001"/>
</g>
</g>
</svg>
