digraph {
    rankdir=LR
    subgraph cluster_0 {
        label="artefact::dependencies_between_packages"
        URL="../-/artefact/dependencies_between_packages/index.html"
        _node0 [
            shape="box"
            label="PackageNode"
            URL="../-/artefact/dependencies_between_packages/PackageNode/index.html"
        ]
    }
    subgraph cluster_1 {
        label="ast::query"
        URL="../-/ast/query/index.html"
        _node1 [
            shape="box"
            label="isOfType"
            URL="../-/ast/query/isOfType/index.html"
        ]
    }
    _node0 -> _node1
}
