digraph {
    rankdir=LR
    subgraph cluster_0 {
        label="artefact::intra_class_dependencies"
        URL="../-/artefact/intra_class_dependencies/index.html"
        _node0 [
            shape="box"
            label="Artefact"
            URL="../-/artefact/intra_class_dependencies/Artefact/index.html"
        ]
        _node1 [
            shape="box"
            label="hasDirectChildren"
            URL="../-/artefact/intra_class_dependencies/hasDirectChildren/index.html"
        ]
        _node2 [
            shape="box"
            label="Predicate"
            URL="../-/artefact/intra_class_dependencies/Predicate/index.html"
        ]
        _node3 [
            shape="box"
            label="EdgeVisitor"
            URL="../-/artefact/intra_class_dependencies/EdgeVisitor/index.html"
        ]
        _node4 [
            shape="box"
            label="traverseDirectChildrenEdgesOnce"
            URL="../-/artefact/intra_class_dependencies/traverseDirectChildrenEdgesOnce/index.html"
        ]
        _node5 [
            shape="box"
            label="printChildrenIfAny"
            URL="../-/artefact/intra_class_dependencies/printChildrenIfAny/index.html"
        ]
    }
    subgraph cluster_1 {
        label="ast"
        URL="../-/ast/index.html"
        _node6 [
            shape="box"
            label="Class"
            URL="../-/ast/Class/index.html"
        ]
        _node7 [
            shape="box"
            label="Node"
            URL="../-/ast/Node/index.html"
        ]
        _node8 [
            shape="box"
            label="Method"
            URL="../-/ast/Method/index.html"
        ]
        _node9 [
            shape="box"
            label="Field"
            URL="../-/ast/Field/index.html"
        ]
    }
    _node0 -> _node6
    _node0 -> _node7
    _node0 -> _node8
    _node0 -> _node9
    _node1 -> _node7
    _node2 -> _node7
    _node3 -> _node7
    _node4 -> _node7
    _node5 -> _node7
}
