<?xml version="1.0" encoding="UTF-8" standalone="no"?>
<!DOCTYPE svg PUBLIC "-//W3C//DTD SVG 1.1//EN"
 "http://www.w3.org/Graphics/SVG/1.1/DTD/svg11.dtd">
<!-- Generated by graphviz version 2.40.1 (20161225.0304)
 -->
<!-- Title: %3 Pages: 1 -->
<svg width="374pt" height="423pt"
 viewBox="0.00 0.00 374.00 423.00" xmlns="http://www.w3.org/2000/svg" xmlns:xlink="http://www.w3.org/1999/xlink">
<g id="graph0" class="graph" transform="scale(1 1) rotate(0) translate(4 419)">
<title>%3</title>
<polygon fill="#ffffff" stroke="transparent" points="-4,4 -4,-419 370,-419 370,4 -4,4"/>
<g id="clust1" class="cluster">
<title>cluster_0</title>
<g id="a_clust1"><a xlink:href="../-/artefact/package_dependencies/index.html" xlink:title="artefact::package_dependencies">
<polygon fill="none" stroke="#000000" points="0,-170 0,-245 188,-245 188,-170 0,-170"/>
<text text-anchor="middle" x="94" y="-229.8" font-family="Times,serif" font-size="14.00" fill="#000000">artefact::package_dependencies</text>
</a>
</g>
</g>
<g id="clust2" class="cluster">
<title>cluster_1</title>
<g id="a_clust2"><a xlink:href="../-/artefact/index.html" xlink:title="artefact">
<polygon fill="none" stroke="#000000" points="208,-8 208,-407 358,-407 358,-8 208,-8"/>
<text text-anchor="middle" x="283" y="-391.8" font-family="Times,serif" font-size="14.00" fill="#000000">artefact</text>
</a>
</g>
</g>
<!-- _node0 -->
<g id="node1" class="node">
<title>_node0</title>
<g id="a_node1"><a xlink:href="../-/artefact/package_dependencies/Artefact/index.html" xlink:title="Artefact">
<polygon fill="none" stroke="#000000" points="124,-214 63,-214 63,-178 124,-178 124,-214"/>
<text text-anchor="middle" x="93.5" y="-192.3" font-family="Times,serif" font-size="14.00" fill="#000000">Artefact</text>
</a>
</g>
</g>
<!-- _node1 -->
<g id="node2" class="node">
<title>_node1</title>
<g id="a_node2"><a xlink:href="../-/artefact/Artefact/index.html" xlink:title="Artefact">
<polygon fill="none" stroke="#000000" points="313.5,-376 252.5,-376 252.5,-340 313.5,-340 313.5,-376"/>
<text text-anchor="middle" x="283" y="-354.3" font-family="Times,serif" font-size="14.00" fill="#000000">Artefact</text>
</a>
</g>
</g>
<!-- _node0&#45;&gt;_node1 -->
<g id="edge1" class="edge">
<title>_node0&#45;&gt;_node1</title>
<path fill="none" stroke="#000000" d="M104.5509,-214.381C122.7137,-243.1293 161.537,-298.7698 208,-331 218.3938,-338.2099 230.9269,-343.7133 242.7465,-347.8097"/>
<polygon fill="#000000" stroke="#000000" points="241.8533,-351.1988 252.4446,-350.9263 243.995,-344.5345 241.8533,-351.1988"/>
</g>
<!-- _node2 -->
<g id="node3" class="node">
<title>_node2</title>
<g id="a_node3"><a xlink:href="../-/artefact/Environment/index.html" xlink:title="Environment">
<polygon fill="none" stroke="#000000" points="327,-322 239,-322 239,-286 327,-286 327,-322"/>
<text text-anchor="middle" x="283" y="-300.3" font-family="Times,serif" font-size="14.00" fill="#000000">Environment</text>
</a>
</g>
</g>
<!-- _node0&#45;&gt;_node2 -->
<g id="edge2" class="edge">
<title>_node0&#45;&gt;_node2</title>
<path fill="none" stroke="#000000" d="M115.1546,-214.03C137.3642,-231.8502 173.4543,-258.9878 208,-277 214.6647,-280.475 221.8773,-283.6908 229.1053,-286.601"/>
<polygon fill="#000000" stroke="#000000" points="228.3313,-290.0531 238.9213,-290.3756 230.8438,-283.5196 228.3313,-290.0531"/>
</g>
<!-- _node3 -->
<g id="node4" class="node">
<title>_node3</title>
<g id="a_node4"><a xlink:href="../-/artefact/generateGraphvizSvg/index.html" xlink:title="generateGraphvizSvg">
<polygon fill="none" stroke="#000000" points="350,-268 216,-268 216,-232 350,-232 350,-268"/>
<text text-anchor="middle" x="283" y="-246.3" font-family="Times,serif" font-size="14.00" fill="#000000">generateGraphvizSvg</text>
</a>
</g>
</g>
<!-- _node0&#45;&gt;_node3 -->
<g id="edge3" class="edge">
<title>_node0&#45;&gt;_node3</title>
<path fill="none" stroke="#000000" d="M124.3682,-204.7962C147.4535,-211.3746 180.0089,-220.6516 209.6249,-229.091"/>
<polygon fill="#000000" stroke="#000000" points="208.9616,-232.5413 219.538,-231.9158 210.88,-225.8092 208.9616,-232.5413"/>
</g>
<!-- _node4 -->
<g id="node5" class="node">
<title>_node4</title>
<g id="a_node5"><a xlink:href="../-/artefact/Url/index.html" xlink:title="Url">
<polygon fill="none" stroke="#000000" points="310,-214 256,-214 256,-178 310,-178 310,-214"/>
<text text-anchor="middle" x="283" y="-192.3" font-family="Times,serif" font-size="14.00" fill="#000000">Url</text>
</a>
</g>
</g>
<!-- _node0&#45;&gt;_node4 -->
<g id="edge4" class="edge">
<title>_node0&#45;&gt;_node4</title>
<path fill="none" stroke="#000000" d="M124.3682,-196C157.4438,-196 209.9598,-196 245.4175,-196"/>
<polygon fill="#000000" stroke="#000000" points="245.8336,-199.5001 255.8335,-196 245.8335,-192.5001 245.8336,-199.5001"/>
</g>
<!-- _node5 -->
<g id="node6" class="node">
<title>_node5</title>
<g id="a_node6"><a xlink:href="../-/artefact/PathForNode/index.html" xlink:title="PathForNode">
<polygon fill="none" stroke="#000000" points="327.5,-160 238.5,-160 238.5,-124 327.5,-124 327.5,-160"/>
<text text-anchor="middle" x="283" y="-138.3" font-family="Times,serif" font-size="14.00" fill="#000000">PathForNode</text>
</a>
</g>
</g>
<!-- _node0&#45;&gt;_node5 -->
<g id="edge5" class="edge">
<title>_node0&#45;&gt;_node5</title>
<path fill="none" stroke="#000000" d="M124.3682,-187.2038C152.5273,-179.1796 194.7768,-167.1401 228.5948,-157.5033"/>
<polygon fill="#000000" stroke="#000000" points="229.6835,-160.8325 238.3414,-154.7259 227.7651,-154.1005 229.6835,-160.8325"/>
</g>
<!-- _node6 -->
<g id="node7" class="node">
<title>_node6</title>
<g id="a_node7"><a xlink:href="../-/artefact/Path/index.html" xlink:title="Path">
<polygon fill="none" stroke="#000000" points="310,-106 256,-106 256,-70 310,-70 310,-106"/>
<text text-anchor="middle" x="283" y="-84.3" font-family="Times,serif" font-size="14.00" fill="#000000">Path</text>
</a>
</g>
</g>
<!-- _node0&#45;&gt;_node6 -->
<g id="edge6" class="edge">
<title>_node0&#45;&gt;_node6</title>
<path fill="none" stroke="#000000" d="M115.1546,-177.97C137.3642,-160.1498 173.4543,-133.0122 208,-115 220.0064,-108.7398 233.791,-103.3208 246.2406,-99.0145"/>
<polygon fill="#000000" stroke="#000000" points="247.4974,-102.285 255.8792,-95.8046 245.2856,-95.6436 247.4974,-102.285"/>
</g>
<!-- _node7 -->
<g id="node8" class="node">
<title>_node7</title>
<g id="a_node8"><a xlink:href="../-/artefact/QueueAdder/index.html" xlink:title="QueueAdder">
<polygon fill="none" stroke="#000000" points="326,-52 240,-52 240,-16 326,-16 326,-52"/>
<text text-anchor="middle" x="283" y="-30.3" font-family="Times,serif" font-size="14.00" fill="#000000">QueueAdder</text>
</a>
</g>
</g>
<!-- _node0&#45;&gt;_node7 -->
<g id="edge7" class="edge">
<title>_node0&#45;&gt;_node7</title>
<path fill="none" stroke="#000000" d="M104.5509,-177.619C122.7137,-148.8707 161.537,-93.2302 208,-61 214.7906,-56.2896 222.4944,-52.3075 230.3157,-48.9703"/>
<polygon fill="#000000" stroke="#000000" points="231.8373,-52.1329 239.8609,-45.2139 229.2738,-45.6191 231.8373,-52.1329"/>
</g>
</g>
</svg>
