<?xml version="1.0" encoding="UTF-8" standalone="no"?>
<!DOCTYPE svg PUBLIC "-//W3C//DTD SVG 1.1//EN"
 "http://www.w3.org/Graphics/SVG/1.1/DTD/svg11.dtd">
<!-- Generated by graphviz version 2.40.1 (20161225.0304)
 -->
<!-- Title: %3 Pages: 1 -->
<svg width="220pt" height="315pt"
 viewBox="0.00 0.00 220.00 315.00" xmlns="http://www.w3.org/2000/svg" xmlns:xlink="http://www.w3.org/1999/xlink">
<g id="graph0" class="graph" transform="scale(1 1) rotate(0) translate(4 311)">
<title>%3</title>
<polygon fill="#ffffff" stroke="transparent" points="-4,4 -4,-311 216,-311 216,4 -4,4"/>
<g id="clust1" class="cluster">
<title>cluster_0</title>
<g id="a_clust1"><a xlink:href="../-/artefact/factory/index.html" xlink:title="artefact::factory">
<polygon fill="none" stroke="#000000" points="0,-116 0,-191 103,-191 103,-116 0,-116"/>
<text text-anchor="middle" x="51.5" y="-175.8" font-family="Times,serif" font-size="14.00" fill="#000000">artefact::factory</text>
</a>
</g>
</g>
<g id="clust2" class="cluster">
<title>cluster_1</title>
<g id="a_clust2"><a xlink:href="../-/ast/index.html" xlink:title="ast">
<polygon fill="none" stroke="#000000" points="123,-8 123,-299 204,-299 204,-8 123,-8"/>
<text text-anchor="middle" x="163.5" y="-283.8" font-family="Times,serif" font-size="14.00" fill="#000000">ast</text>
</a>
</g>
</g>
<!-- _node0 -->
<g id="node1" class="node">
<title>_node0</title>
<g id="a_node1"><a xlink:href="../-/artefact/factory/Factory/index.html" xlink:title="Factory">
<polygon fill="none" stroke="#000000" points="80,-160 22,-160 22,-124 80,-124 80,-160"/>
<text text-anchor="middle" x="51" y="-138.3" font-family="Times,serif" font-size="14.00" fill="#000000">Factory</text>
</a>
</g>
</g>
<!-- _node1 -->
<g id="node2" class="node">
<title>_node1</title>
<g id="a_node2"><a xlink:href="../-/ast/Project/index.html" xlink:title="Project">
<polygon fill="none" stroke="#000000" points="191,-268 136,-268 136,-232 191,-232 191,-268"/>
<text text-anchor="middle" x="163.5" y="-246.3" font-family="Times,serif" font-size="14.00" fill="#000000">Project</text>
</a>
</g>
</g>
<!-- _node0&#45;&gt;_node1 -->
<g id="edge1" class="edge">
<title>_node0&#45;&gt;_node1</title>
<path fill="none" stroke="#000000" d="M64.9771,-160.2721C78.6844,-177.5373 100.7158,-203.6093 123,-223 124.4822,-224.2897 126.0292,-225.5679 127.617,-226.8259"/>
<polygon fill="#000000" stroke="#000000" points="125.6746,-229.7433 135.7854,-232.9092 129.8557,-224.1291 125.6746,-229.7433"/>
</g>
<!-- _node2 -->
<g id="node3" class="node">
<title>_node2</title>
<g id="a_node3"><a xlink:href="../-/ast/Node/index.html" xlink:title="Node">
<polygon fill="none" stroke="#000000" points="190.5,-214 136.5,-214 136.5,-178 190.5,-178 190.5,-214"/>
<text text-anchor="middle" x="163.5" y="-192.3" font-family="Times,serif" font-size="14.00" fill="#000000">Node</text>
</a>
</g>
</g>
<!-- _node0&#45;&gt;_node2 -->
<g id="edge2" class="edge">
<title>_node0&#45;&gt;_node2</title>
<path fill="none" stroke="#000000" d="M80.2644,-156.0469C94.6056,-162.9307 112.0138,-171.2866 127.1953,-178.5737"/>
<polygon fill="#000000" stroke="#000000" points="125.783,-181.7781 136.3128,-182.9502 128.8122,-175.4675 125.783,-181.7781"/>
</g>
<!-- _node3 -->
<g id="node4" class="node">
<title>_node3</title>
<g id="a_node4"><a xlink:href="../-/ast/Class/index.html" xlink:title="Class">
<polygon fill="none" stroke="#000000" points="190.5,-160 136.5,-160 136.5,-124 190.5,-124 190.5,-160"/>
<text text-anchor="middle" x="163.5" y="-138.3" font-family="Times,serif" font-size="14.00" fill="#000000">Class</text>
</a>
</g>
</g>
<!-- _node0&#45;&gt;_node3 -->
<g id="edge3" class="edge">
<title>_node0&#45;&gt;_node3</title>
<path fill="none" stroke="#000000" d="M80.2644,-142C94.1997,-142 111.0308,-142 125.901,-142"/>
<polygon fill="#000000" stroke="#000000" points="126.3129,-145.5001 136.3128,-142 126.3128,-138.5001 126.3129,-145.5001"/>
</g>
<!-- _node4 -->
<g id="node5" class="node">
<title>_node4</title>
<g id="a_node5"><a xlink:href="../-/ast/Function/index.html" xlink:title="Function">
<polygon fill="none" stroke="#000000" points="196,-106 131,-106 131,-70 196,-70 196,-106"/>
<text text-anchor="middle" x="163.5" y="-84.3" font-family="Times,serif" font-size="14.00" fill="#000000">Function</text>
</a>
</g>
</g>
<!-- _node0&#45;&gt;_node4 -->
<g id="edge4" class="edge">
<title>_node0&#45;&gt;_node4</title>
<path fill="none" stroke="#000000" d="M80.2644,-127.9531C92.8539,-121.9102 107.8069,-114.7327 121.5422,-108.1397"/>
<polygon fill="#000000" stroke="#000000" points="123.3121,-111.1726 130.8128,-103.6899 120.2829,-104.8619 123.3121,-111.1726"/>
</g>
<!-- _node5 -->
<g id="node6" class="node">
<title>_node5</title>
<g id="a_node6"><a xlink:href="../-/ast/Variable/index.html" xlink:title="Variable">
<polygon fill="none" stroke="#000000" points="195,-52 132,-52 132,-16 195,-16 195,-52"/>
<text text-anchor="middle" x="163.5" y="-30.3" font-family="Times,serif" font-size="14.00" fill="#000000">Variable</text>
</a>
</g>
</g>
<!-- _node0&#45;&gt;_node5 -->
<g id="edge5" class="edge">
<title>_node0&#45;&gt;_node5</title>
<path fill="none" stroke="#000000" d="M64.9771,-123.7279C78.6844,-106.4627 100.7158,-80.3907 123,-61 124.1156,-60.0292 125.268,-59.065 126.4468,-58.111"/>
<polygon fill="#000000" stroke="#000000" points="128.6501,-60.8328 134.5029,-52.0012 124.4202,-55.2553 128.6501,-60.8328"/>
</g>
</g>
</svg>
