<?xml version="1.0" encoding="UTF-8" standalone="no"?>
<!DOCTYPE svg PUBLIC "-//W3C//DTD SVG 1.1//EN"
 "http://www.w3.org/Graphics/SVG/1.1/DTD/svg11.dtd">
<!-- Generated by graphviz version 2.40.1 (20161225.0304)
 -->
<!-- Title: %3 Pages: 1 -->
<svg width="397pt" height="153pt"
 viewBox="0.00 0.00 397.00 153.00" xmlns="http://www.w3.org/2000/svg" xmlns:xlink="http://www.w3.org/1999/xlink">
<g id="graph0" class="graph" transform="scale(1 1) rotate(0) translate(4 149)">
<title>%3</title>
<polygon fill="#ffffff" stroke="transparent" points="-4,4 -4,-149 393,-149 393,4 -4,4"/>
<g id="clust1" class="cluster">
<title>cluster_0</title>
<g id="a_clust1"><a xlink:href="../-/artefact/packages_with_cyclic_dependencies/index.html" xlink:title="artefact::packages_with_cyclic_dependencies">
<polygon fill="none" stroke="#000000" points="0,-35 0,-110 263,-110 263,-35 0,-35"/>
<text text-anchor="middle" x="131.5" y="-94.8" font-family="Times,serif" font-size="14.00" fill="#000000">artefact::packages_with_cyclic_dependencies</text>
</a>
</g>
</g>
<g id="clust2" class="cluster">
<title>cluster_1</title>
<g id="a_clust2"><a xlink:href="../-/ast/graph/cycle/index.html" xlink:title="ast::graph::cycle">
<polygon fill="none" stroke="#000000" points="283,-8 283,-137 389,-137 389,-8 283,-8"/>
<text text-anchor="middle" x="336" y="-121.8" font-family="Times,serif" font-size="14.00" fill="#000000">ast::graph::cycle</text>
</a>
</g>
</g>
<!-- _node0 -->
<g id="node1" class="node">
<title>_node0</title>
<g id="a_node1"><a xlink:href="../-/artefact/packages_with_cyclic_dependencies/Artefact/index.html" xlink:title="Artefact">
<polygon fill="none" stroke="#000000" points="162,-79 101,-79 101,-43 162,-43 162,-79"/>
<text text-anchor="middle" x="131.5" y="-57.3" font-family="Times,serif" font-size="14.00" fill="#000000">Artefact</text>
</a>
</g>
</g>
<!-- _node1 -->
<g id="node2" class="node">
<title>_node1</title>
<g id="a_node2"><a xlink:href="../-/ast/graph/cycle/Cycles/index.html" xlink:title="Cycles">
<polygon fill="none" stroke="#000000" points="362.5,-106 308.5,-106 308.5,-70 362.5,-70 362.5,-106"/>
<text text-anchor="middle" x="335.5" y="-84.3" font-family="Times,serif" font-size="14.00" fill="#000000">Cycles</text>
</a>
</g>
</g>
<!-- _node0&#45;&gt;_node1 -->
<g id="edge1" class="edge">
<title>_node0&#45;&gt;_node1</title>
<path fill="none" stroke="#000000" d="M162.0409,-65.0422C198.4666,-69.8632 259.3264,-77.9182 298.4182,-83.0921"/>
<polygon fill="#000000" stroke="#000000" points="297.9709,-86.5633 308.3437,-84.4058 298.8894,-79.6239 297.9709,-86.5633"/>
</g>
<!-- _node2 -->
<g id="node3" class="node">
<title>_node2</title>
<g id="a_node3"><a xlink:href="../-/ast/graph/cycle/johnson/index.html" xlink:title="johnson">
<polygon fill="none" stroke="#000000" points="365,-52 306,-52 306,-16 365,-16 365,-52"/>
<text text-anchor="middle" x="335.5" y="-30.3" font-family="Times,serif" font-size="14.00" fill="#000000">johnson</text>
</a>
</g>
</g>
<!-- _node0&#45;&gt;_node2 -->
<g id="edge2" class="edge">
<title>_node0&#45;&gt;_node2</title>
<path fill="none" stroke="#000000" d="M162.0409,-56.9578C197.6503,-52.2448 256.6111,-44.4412 295.7579,-39.26"/>
<polygon fill="#000000" stroke="#000000" points="296.2928,-42.7198 305.7471,-37.9379 295.3743,-35.7803 296.2928,-42.7198"/>
</g>
</g>
</svg>
