<?xml version="1.0" encoding="UTF-8" standalone="no"?>
<!DOCTYPE svg PUBLIC "-//W3C//DTD SVG 1.1//EN"
 "http://www.w3.org/Graphics/SVG/1.1/DTD/svg11.dtd">
<!-- Generated by graphviz version 2.40.1 (20161225.0304)
 -->
<!-- Title: %3 Pages: 1 -->
<svg width="325pt" height="477pt"
 viewBox="0.00 0.00 325.00 477.00" xmlns="http://www.w3.org/2000/svg" xmlns:xlink="http://www.w3.org/1999/xlink">
<g id="graph0" class="graph" transform="scale(1 1) rotate(0) translate(4 473)">
<title>%3</title>
<polygon fill="#ffffff" stroke="transparent" points="-4,4 -4,-473 321,-473 321,4 -4,4"/>
<g id="clust1" class="cluster">
<title>cluster_0</title>
<g id="a_clust1"><a xlink:href="../-/artefact/package_overview/index.html" xlink:title="artefact::package_overview">
<polygon fill="none" stroke="#000000" points="0,-197 0,-272 166,-272 166,-197 0,-197"/>
<text text-anchor="middle" x="83" y="-256.8" font-family="Times,serif" font-size="14.00" fill="#000000">artefact::package_overview</text>
</a>
</g>
</g>
<g id="clust2" class="cluster">
<title>cluster_1</title>
<g id="a_clust2"><a xlink:href="../-/artefact/index.html" xlink:title="artefact">
<polygon fill="none" stroke="#000000" points="186,-8 186,-461 309,-461 309,-8 186,-8"/>
<text text-anchor="middle" x="247.5" y="-445.8" font-family="Times,serif" font-size="14.00" fill="#000000">artefact</text>
</a>
</g>
</g>
<!-- _node0 -->
<g id="node1" class="node">
<title>_node0</title>
<g id="a_node1"><a xlink:href="../-/artefact/package_overview/Artefact/index.html" xlink:title="Artefact">
<polygon fill="none" stroke="#000000" points="113,-241 52,-241 52,-205 113,-205 113,-241"/>
<text text-anchor="middle" x="82.5" y="-219.3" font-family="Times,serif" font-size="14.00" fill="#000000">Artefact</text>
</a>
</g>
</g>
<!-- _node1 -->
<g id="node2" class="node">
<title>_node1</title>
<g id="a_node2"><a xlink:href="../-/artefact/Artefact/index.html" xlink:title="Artefact">
<polygon fill="none" stroke="#000000" points="278,-430 217,-430 217,-394 278,-394 278,-430"/>
<text text-anchor="middle" x="247.5" y="-408.3" font-family="Times,serif" font-size="14.00" fill="#000000">Artefact</text>
</a>
</g>
</g>
<!-- _node0&#45;&gt;_node1 -->
<g id="edge1" class="edge">
<title>_node0&#45;&gt;_node1</title>
<path fill="none" stroke="#000000" d="M89.7631,-241.0106C103.7945,-273.7708 137.5734,-343.5457 186,-385 192.2978,-390.391 199.8407,-394.8701 207.4515,-398.5279"/>
<polygon fill="#000000" stroke="#000000" points="206.1264,-401.7686 216.6895,-402.5885 208.9432,-395.3604 206.1264,-401.7686"/>
</g>
<!-- _node2 -->
<g id="node3" class="node">
<title>_node2</title>
<g id="a_node3"><a xlink:href="../-/artefact/Environment/index.html" xlink:title="Environment">
<polygon fill="none" stroke="#000000" points="291.5,-376 203.5,-376 203.5,-340 291.5,-340 291.5,-376"/>
<text text-anchor="middle" x="247.5" y="-354.3" font-family="Times,serif" font-size="14.00" fill="#000000">Environment</text>
</a>
</g>
</g>
<!-- _node0&#45;&gt;_node2 -->
<g id="edge2" class="edge">
<title>_node0&#45;&gt;_node2</title>
<path fill="none" stroke="#000000" d="M96.1556,-241.1738C114.4611,-264.5188 148.9666,-305.1067 186,-331 188.6758,-332.8709 191.502,-334.6555 194.4137,-336.3504"/>
<polygon fill="#000000" stroke="#000000" points="192.8769,-339.4981 203.3402,-341.1622 196.1984,-333.3363 192.8769,-339.4981"/>
</g>
<!-- _node3 -->
<g id="node4" class="node">
<title>_node3</title>
<g id="a_node4"><a xlink:href="../-/artefact/Path/index.html" xlink:title="Path">
<polygon fill="none" stroke="#000000" points="274.5,-322 220.5,-322 220.5,-286 274.5,-286 274.5,-322"/>
<text text-anchor="middle" x="247.5" y="-300.3" font-family="Times,serif" font-size="14.00" fill="#000000">Path</text>
</a>
</g>
</g>
<!-- _node0&#45;&gt;_node3 -->
<g id="edge3" class="edge">
<title>_node0&#45;&gt;_node3</title>
<path fill="none" stroke="#000000" d="M113.0228,-239.6134C133.4908,-250.583 161.148,-265.0781 186,-277 194.01,-280.8425 202.6995,-284.7893 210.9544,-288.438"/>
<polygon fill="#000000" stroke="#000000" points="209.8142,-291.7594 220.3787,-292.5602 212.6194,-285.346 209.8142,-291.7594"/>
</g>
<!-- _node4 -->
<g id="node5" class="node">
<title>_node4</title>
<g id="a_node5"><a xlink:href="../-/artefact/Url/index.html" xlink:title="Url">
<polygon fill="none" stroke="#000000" points="274.5,-268 220.5,-268 220.5,-232 274.5,-232 274.5,-268"/>
<text text-anchor="middle" x="247.5" y="-246.3" font-family="Times,serif" font-size="14.00" fill="#000000">Url</text>
</a>
</g>
</g>
<!-- _node0&#45;&gt;_node4 -->
<g id="edge4" class="edge">
<title>_node0&#45;&gt;_node4</title>
<path fill="none" stroke="#000000" d="M113.1485,-228.0152C140.5397,-232.4974 180.7549,-239.0781 210.0454,-243.8711"/>
<polygon fill="#000000" stroke="#000000" points="209.8644,-247.3879 220.2984,-245.5488 210.9949,-240.4798 209.8644,-247.3879"/>
</g>
<!-- _node5 -->
<g id="node6" class="node">
<title>_node5</title>
<g id="a_node6"><a xlink:href="../-/artefact/Os/index.html" xlink:title="Os">
<polygon fill="none" stroke="#000000" points="274.5,-214 220.5,-214 220.5,-178 274.5,-178 274.5,-214"/>
<text text-anchor="middle" x="247.5" y="-192.3" font-family="Times,serif" font-size="14.00" fill="#000000">Os</text>
</a>
</g>
</g>
<!-- _node0&#45;&gt;_node5 -->
<g id="edge5" class="edge">
<title>_node0&#45;&gt;_node5</title>
<path fill="none" stroke="#000000" d="M113.1485,-217.9848C140.5397,-213.5026 180.7549,-206.9219 210.0454,-202.1289"/>
<polygon fill="#000000" stroke="#000000" points="210.9949,-205.5202 220.2984,-200.4512 209.8644,-198.6121 210.9949,-205.5202"/>
</g>
<!-- _node6 -->
<g id="node7" class="node">
<title>_node6</title>
<g id="a_node7"><a xlink:href="../-/artefact/PathForNode/index.html" xlink:title="PathForNode">
<polygon fill="none" stroke="#000000" points="292,-160 203,-160 203,-124 292,-124 292,-160"/>
<text text-anchor="middle" x="247.5" y="-138.3" font-family="Times,serif" font-size="14.00" fill="#000000">PathForNode</text>
</a>
</g>
</g>
<!-- _node0&#45;&gt;_node6 -->
<g id="edge6" class="edge">
<title>_node0&#45;&gt;_node6</title>
<path fill="none" stroke="#000000" d="M113.0228,-206.3866C133.4908,-195.417 161.148,-180.9219 186,-169 189.2954,-167.4192 192.7057,-165.8207 196.1535,-164.2326"/>
<polygon fill="#000000" stroke="#000000" points="197.6563,-167.3942 205.314,-160.0723 194.7617,-161.0207 197.6563,-167.3942"/>
</g>
<!-- _node7 -->
<g id="node8" class="node">
<title>_node7</title>
<g id="a_node8"><a xlink:href="../-/artefact/ArtefactList/index.html" xlink:title="ArtefactList">
<polygon fill="none" stroke="#000000" points="288.5,-106 206.5,-106 206.5,-70 288.5,-70 288.5,-106"/>
<text text-anchor="middle" x="247.5" y="-84.3" font-family="Times,serif" font-size="14.00" fill="#000000">ArtefactList</text>
</a>
</g>
</g>
<!-- _node0&#45;&gt;_node7 -->
<g id="edge7" class="edge">
<title>_node0&#45;&gt;_node7</title>
<path fill="none" stroke="#000000" d="M96.1556,-204.8262C114.4611,-181.4812 148.9666,-140.8933 186,-115 189.4941,-112.557 193.2446,-110.261 197.107,-108.12"/>
<polygon fill="#000000" stroke="#000000" points="198.9666,-111.0992 206.2544,-103.4091 195.7616,-104.876 198.9666,-111.0992"/>
</g>
<!-- _node8 -->
<g id="node9" class="node">
<title>_node8</title>
<g id="a_node9"><a xlink:href="../-/artefact/printArtefactList/index.html" xlink:title="printArtefactList">
<polygon fill="none" stroke="#000000" points="301,-52 194,-52 194,-16 301,-16 301,-52"/>
<text text-anchor="middle" x="247.5" y="-30.3" font-family="Times,serif" font-size="14.00" fill="#000000">printArtefactList</text>
</a>
</g>
</g>
<!-- _node0&#45;&gt;_node8 -->
<g id="edge8" class="edge">
<title>_node0&#45;&gt;_node8</title>
<path fill="none" stroke="#000000" d="M89.7631,-204.9894C103.7945,-172.2292 137.5734,-102.4543 186,-61 187.3398,-59.8531 188.736,-58.7474 190.1772,-57.6822"/>
<polygon fill="#000000" stroke="#000000" points="192.3891,-60.4178 198.8448,-52.0169 188.5593,-54.5584 192.3891,-60.4178"/>
</g>
</g>
</svg>
