<?xml version="1.0" encoding="UTF-8" standalone="no"?>
<!DOCTYPE svg PUBLIC "-//W3C//DTD SVG 1.1//EN"
 "http://www.w3.org/Graphics/SVG/1.1/DTD/svg11.dtd">
<!-- Generated by graphviz version 2.40.1 (20161225.0304)
 -->
<!-- Title: %3 Pages: 1 -->
<svg width="297pt" height="477pt"
 viewBox="0.00 0.00 297.00 477.00" xmlns="http://www.w3.org/2000/svg" xmlns:xlink="http://www.w3.org/1999/xlink">
<g id="graph0" class="graph" transform="scale(1 1) rotate(0) translate(4 473)">
<title>%3</title>
<polygon fill="#ffffff" stroke="transparent" points="-4,4 -4,-473 293,-473 293,4 -4,4"/>
<g id="clust1" class="cluster">
<title>cluster_0</title>
<g id="a_clust1"><a xlink:href="../-/artefact/overview/index.html" xlink:title="artefact::overview">
<polygon fill="none" stroke="#000000" points="8,-35 8,-218 138,-218 138,-35 8,-35"/>
<text text-anchor="middle" x="73" y="-202.8" font-family="Times,serif" font-size="14.00" fill="#000000">artefact::overview</text>
</a>
</g>
</g>
<g id="clust2" class="cluster">
<title>cluster_1</title>
<g id="a_clust2"><a xlink:href="../-/artefact/index.html" xlink:title="artefact">
<polygon fill="none" stroke="#000000" points="158,-8 158,-461 281,-461 281,-8 158,-8"/>
<text text-anchor="middle" x="219.5" y="-445.8" font-family="Times,serif" font-size="14.00" fill="#000000">artefact</text>
</a>
</g>
</g>
<!-- _node0 -->
<g id="node1" class="node">
<title>_node0</title>
<g id="a_node1"><a xlink:href="../-/artefact/overview/Artefact/index.html" xlink:title="Artefact">
<polygon fill="none" stroke="#000000" points="103.5,-187 42.5,-187 42.5,-151 103.5,-151 103.5,-187"/>
<text text-anchor="middle" x="73" y="-165.3" font-family="Times,serif" font-size="14.00" fill="#000000">Artefact</text>
</a>
</g>
</g>
<!-- _node3 -->
<g id="node4" class="node">
<title>_node3</title>
<g id="a_node4"><a xlink:href="../-/artefact/Artefact/index.html" xlink:title="Artefact">
<polygon fill="none" stroke="#000000" points="250,-376 189,-376 189,-340 250,-340 250,-376"/>
<text text-anchor="middle" x="219.5" y="-354.3" font-family="Times,serif" font-size="14.00" fill="#000000">Artefact</text>
</a>
</g>
</g>
<!-- _node0&#45;&gt;_node3 -->
<g id="edge1" class="edge">
<title>_node0&#45;&gt;_node3</title>
<path fill="none" stroke="#000000" d="M78.0771,-187.0251C88.1573,-219.8087 113.6392,-289.6205 158,-331 164.1834,-336.7678 171.7983,-341.4344 179.5378,-345.1609"/>
<polygon fill="#000000" stroke="#000000" points="178.3855,-348.4763 188.952,-349.251 181.1749,-342.056 178.3855,-348.4763"/>
</g>
<!-- _node4 -->
<g id="node5" class="node">
<title>_node4</title>
<g id="a_node5"><a xlink:href="../-/artefact/Environment/index.html" xlink:title="Environment">
<polygon fill="none" stroke="#000000" points="263.5,-322 175.5,-322 175.5,-286 263.5,-286 263.5,-322"/>
<text text-anchor="middle" x="219.5" y="-300.3" font-family="Times,serif" font-size="14.00" fill="#000000">Environment</text>
</a>
</g>
</g>
<!-- _node0&#45;&gt;_node4 -->
<g id="edge2" class="edge">
<title>_node0&#45;&gt;_node4</title>
<path fill="none" stroke="#000000" d="M83.4717,-187.3203C97.7018,-210.8237 125.1722,-251.5827 158,-277 160.6277,-279.0346 163.4326,-280.9507 166.3426,-282.7497"/>
<polygon fill="#000000" stroke="#000000" points="164.8842,-285.945 175.3161,-287.796 168.3154,-279.8436 164.8842,-285.945"/>
</g>
<!-- _node5 -->
<g id="node6" class="node">
<title>_node5</title>
<g id="a_node6"><a xlink:href="../-/artefact/Url/index.html" xlink:title="Url">
<polygon fill="none" stroke="#000000" points="246.5,-52 192.5,-52 192.5,-16 246.5,-16 246.5,-52"/>
<text text-anchor="middle" x="219.5" y="-30.3" font-family="Times,serif" font-size="14.00" fill="#000000">Url</text>
</a>
</g>
</g>
<!-- _node0&#45;&gt;_node5 -->
<g id="edge3" class="edge">
<title>_node0&#45;&gt;_node5</title>
<path fill="none" stroke="#000000" d="M103.7651,-162.6212C116.0101,-158.6162 129.2426,-152.1972 138,-142 162.1591,-113.869 134.1233,-89.371 158,-61 164.4643,-53.319 173.5363,-47.7506 182.7309,-43.7425"/>
<polygon fill="#000000" stroke="#000000" points="184.1589,-46.9438 192.253,-40.1074 181.6623,-40.4042 184.1589,-46.9438"/>
</g>
<!-- _node6 -->
<g id="node7" class="node">
<title>_node6</title>
<g id="a_node7"><a xlink:href="../-/artefact/Os/index.html" xlink:title="Os">
<polygon fill="none" stroke="#000000" points="246.5,-268 192.5,-268 192.5,-232 246.5,-232 246.5,-268"/>
<text text-anchor="middle" x="219.5" y="-246.3" font-family="Times,serif" font-size="14.00" fill="#000000">Os</text>
</a>
</g>
</g>
<!-- _node0&#45;&gt;_node6 -->
<g id="edge4" class="edge">
<title>_node0&#45;&gt;_node6</title>
<path fill="none" stroke="#000000" d="M99.1751,-187.0927C115.6735,-198.1249 137.636,-212.1425 158,-223 165.9994,-227.265 174.8119,-231.4296 183.2059,-235.1614"/>
<polygon fill="#000000" stroke="#000000" points="181.8732,-238.3984 192.4396,-239.1732 184.6626,-231.9782 181.8732,-238.3984"/>
</g>
<!-- _node7 -->
<g id="node8" class="node">
<title>_node7</title>
<g id="a_node8"><a xlink:href="../-/artefact/PathForNode/index.html" xlink:title="PathForNode">
<polygon fill="none" stroke="#000000" points="264,-214 175,-214 175,-178 264,-178 264,-214"/>
<text text-anchor="middle" x="219.5" y="-192.3" font-family="Times,serif" font-size="14.00" fill="#000000">PathForNode</text>
</a>
</g>
</g>
<!-- _node0&#45;&gt;_node7 -->
<g id="edge5" class="edge">
<title>_node0&#45;&gt;_node7</title>
<path fill="none" stroke="#000000" d="M103.7112,-174.6601C121.4489,-177.9291 144.2794,-182.1368 164.9729,-185.9506"/>
<polygon fill="#000000" stroke="#000000" points="164.4595,-189.4149 174.9282,-187.7854 165.7283,-182.5308 164.4595,-189.4149"/>
</g>
<!-- _node8 -->
<g id="node9" class="node">
<title>_node8</title>
<g id="a_node9"><a xlink:href="../-/artefact/ArtefactList/index.html" xlink:title="ArtefactList">
<polygon fill="none" stroke="#000000" points="260.5,-160 178.5,-160 178.5,-124 260.5,-124 260.5,-160"/>
<text text-anchor="middle" x="219.5" y="-138.3" font-family="Times,serif" font-size="14.00" fill="#000000">ArtefactList</text>
</a>
</g>
</g>
<!-- _node0&#45;&gt;_node8 -->
<g id="edge6" class="edge">
<title>_node0&#45;&gt;_node8</title>
<path fill="none" stroke="#000000" d="M103.7112,-163.3399C122.3987,-159.8958 146.739,-155.4099 168.2777,-151.4403"/>
<polygon fill="#000000" stroke="#000000" points="169.0667,-154.8539 178.2666,-149.5993 167.7979,-147.9698 169.0667,-154.8539"/>
</g>
<!-- _node9 -->
<g id="node10" class="node">
<title>_node9</title>
<g id="a_node10"><a xlink:href="../-/artefact/printArtefactList/index.html" xlink:title="printArtefactList">
<polygon fill="none" stroke="#000000" points="273,-106 166,-106 166,-70 273,-70 273,-106"/>
<text text-anchor="middle" x="219.5" y="-84.3" font-family="Times,serif" font-size="14.00" fill="#000000">printArtefactList</text>
</a>
</g>
</g>
<!-- _node0&#45;&gt;_node9 -->
<g id="edge7" class="edge">
<title>_node0&#45;&gt;_node9</title>
<path fill="none" stroke="#000000" d="M103.6146,-160.1479C115.1401,-155.8638 127.8914,-149.9018 138,-142 149.7656,-132.803 146.327,-124.3141 158,-115 159.5381,-113.7727 161.1407,-112.5899 162.7925,-111.4511"/>
<polygon fill="#000000" stroke="#000000" points="164.7364,-114.364 171.392,-106.1206 161.0484,-108.4143 164.7364,-114.364"/>
</g>
<!-- _node10 -->
<g id="node11" class="node">
<title>_node10</title>
<g id="a_node11"><a xlink:href="../-/artefact/Path/index.html" xlink:title="Path">
<polygon fill="none" stroke="#000000" points="246.5,-430 192.5,-430 192.5,-394 246.5,-394 246.5,-430"/>
<text text-anchor="middle" x="219.5" y="-408.3" font-family="Times,serif" font-size="14.00" fill="#000000">Path</text>
</a>
</g>
</g>
<!-- _node0&#45;&gt;_node10 -->
<g id="edge8" class="edge">
<title>_node0&#45;&gt;_node10</title>
<path fill="none" stroke="#000000" d="M75.4014,-187.1473C81.6745,-227.7515 102.1243,-326.9141 158,-385 164.8398,-392.1103 173.8763,-397.47 182.9103,-401.4595"/>
<polygon fill="#000000" stroke="#000000" points="181.6449,-404.7227 192.2316,-405.1369 184.2138,-398.2111 181.6449,-404.7227"/>
</g>
<!-- _node1 -->
<g id="node2" class="node">
<title>_node1</title>
<g id="a_node2"><a xlink:href="../-/artefact/overview/Artefact/Link/index.html" xlink:title="Artefact::Link">
<polygon fill="none" stroke="#000000" points="120,-133 26,-133 26,-97 120,-97 120,-133"/>
<text text-anchor="middle" x="73" y="-111.3" font-family="Times,serif" font-size="14.00" fill="#000000">Artefact::Link</text>
</a>
</g>
</g>
<!-- _node1&#45;&gt;_node5 -->
<g id="edge9" class="edge">
<title>_node1&#45;&gt;_node5</title>
<path fill="none" stroke="#000000" d="M120.158,-99.0273C126.4658,-95.8768 132.6087,-92.2143 138,-88 149.7656,-78.803 146.327,-70.3141 158,-61 165.43,-55.0715 174.3638,-50.181 183.0904,-46.2684"/>
<polygon fill="#000000" stroke="#000000" points="184.5042,-49.4712 192.3975,-42.404 181.8198,-43.0064 184.5042,-49.4712"/>
</g>
<!-- _node2 -->
<g id="node3" class="node">
<title>_node2</title>
<g id="a_node3"><a xlink:href="../-/artefact/overview/printOverviewFor/index.html" xlink:title="printOverviewFor">
<polygon fill="none" stroke="#000000" points="130,-79 16,-79 16,-43 130,-43 130,-79"/>
<text text-anchor="middle" x="73" y="-57.3" font-family="Times,serif" font-size="14.00" fill="#000000">printOverviewFor</text>
</a>
</g>
</g>
<!-- _node2&#45;&gt;_node5 -->
<g id="edge10" class="edge">
<title>_node2&#45;&gt;_node5</title>
<path fill="none" stroke="#000000" d="M130.0602,-50.4838C147.5909,-47.2529 166.424,-43.7819 182.2653,-40.8624"/>
<polygon fill="#000000" stroke="#000000" points="182.9995,-44.2861 192.1994,-39.0315 181.7307,-37.402 182.9995,-44.2861"/>
</g>
</g>
</svg>
