digraph {
    rankdir=LR
    subgraph cluster_0 {
        label="artefact::package_neighbors"
        URL="../-/artefact/package_neighbors/index.html"
        _node0 [
            shape="box"
            label="Artefact"
            URL="../-/artefact/package_neighbors/Artefact/index.html"
        ]
    }
    subgraph cluster_1 {
        label="graphviz"
        URL="../-/graphviz/index.html"
        _node1 [
            shape="box"
            label="StreamWriter"
            URL="../-/graphviz/StreamWriter/index.html"
        ]
        _node2 [
            shape="box"
            label="Writer"
            URL="../-/graphviz/Writer/index.html"
        ]
        _node3 [
            shape="box"
            label="Shape"
            URL="../-/graphviz/Shape/index.html"
        ]
        _node4 [
            shape="box"
            label="Style"
            URL="../-/graphviz/Style/index.html"
        ]
    }
    _node0 -> _node1
    _node0 -> _node2
    _node0 -> _node3
    _node0 -> _node4
}
