digraph {
    rankdir=LR
    subgraph cluster_0 {
        label="artefact::package_neighbors"
        URL="../-/artefact/package_neighbors/index.html"
        _node0 [
            shape="box"
            label="Artefact"
            URL="../-/artefact/package_neighbors/Artefact/index.html"
        ]
        _node1 [
            shape="box"
            label="Artefact::Edges"
            URL="../-/artefact/package_neighbors/Artefact/Edges/index.html"
        ]
    }
    subgraph cluster_1 {
        label="library"
        URL="../-/library/index.html"
        _node2 [
            shape="box"
            label="Set"
            URL="../-/library/Set/index.html"
        ]
    }
    _node0 -> _node2
    _node1 -> _node2
}
