<?xml version="1.0" encoding="UTF-8" standalone="no"?>
<!DOCTYPE svg PUBLIC "-//W3C//DTD SVG 1.1//EN"
 "http://www.w3.org/Graphics/SVG/1.1/DTD/svg11.dtd">
<!-- Generated by graphviz version 2.40.1 (20161225.0304)
 -->
<!-- Title: %3 Pages: 1 -->
<svg width="297pt" height="153pt"
 viewBox="0.00 0.00 297.00 153.00" xmlns="http://www.w3.org/2000/svg" xmlns:xlink="http://www.w3.org/1999/xlink">
<g id="graph0" class="graph" transform="scale(1 1) rotate(0) translate(4 149)">
<title>%3</title>
<polygon fill="#ffffff" stroke="transparent" points="-4,4 -4,-149 293,-149 293,4 -4,4"/>
<g id="clust1" class="cluster">
<title>cluster_0</title>
<g id="a_clust1"><a xlink:href="../-/artefact/factory/index.html" xlink:title="artefact::factory">
<polygon fill="none" stroke="#000000" points="0,-35 0,-110 103,-110 103,-35 0,-35"/>
<text text-anchor="middle" x="51.5" y="-94.8" font-family="Times,serif" font-size="14.00" fill="#000000">artefact::factory</text>
</a>
</g>
</g>
<g id="clust2" class="cluster">
<title>cluster_1</title>
<g id="a_clust2"><a xlink:href="../-/artefact/package_overview/index.html" xlink:title="artefact::package_overview">
<polygon fill="none" stroke="#000000" points="123,-8 123,-137 289,-137 289,-8 123,-8"/>
<text text-anchor="middle" x="206" y="-121.8" font-family="Times,serif" font-size="14.00" fill="#000000">artefact::package_overview</text>
</a>
</g>
</g>
<!-- _node0 -->
<g id="node1" class="node">
<title>_node0</title>
<g id="a_node1"><a xlink:href="../-/artefact/factory/Factory/index.html" xlink:title="Factory">
<polygon fill="none" stroke="#000000" points="80,-79 22,-79 22,-43 80,-43 80,-79"/>
<text text-anchor="middle" x="51" y="-57.3" font-family="Times,serif" font-size="14.00" fill="#000000">Factory</text>
</a>
</g>
</g>
<!-- _node1 -->
<g id="node2" class="node">
<title>_node1</title>
<g id="a_node2"><a xlink:href="../-/artefact/package_overview/ArtefactFactory/index.html" xlink:title="ArtefactFactory">
<polygon fill="none" stroke="#000000" points="257,-106 155,-106 155,-70 257,-70 257,-106"/>
<text text-anchor="middle" x="206" y="-84.3" font-family="Times,serif" font-size="14.00" fill="#000000">ArtefactFactory</text>
</a>
</g>
</g>
<!-- _node0&#45;&gt;_node1 -->
<g id="edge1" class="edge">
<title>_node0&#45;&gt;_node1</title>
<path fill="none" stroke="#000000" d="M80.1543,-66.0785C98.3297,-69.2445 122.4118,-73.4395 144.6402,-77.3115"/>
<polygon fill="#000000" stroke="#000000" points="144.2427,-80.7949 154.695,-79.063 145.444,-73.8987 144.2427,-80.7949"/>
</g>
<!-- _node2 -->
<g id="node3" class="node">
<title>_node2</title>
<g id="a_node3"><a xlink:href="../-/artefact/package_overview/Artefact/index.html" xlink:title="Artefact">
<polygon fill="none" stroke="#000000" points="236.5,-52 175.5,-52 175.5,-16 236.5,-16 236.5,-52"/>
<text text-anchor="middle" x="206" y="-30.3" font-family="Times,serif" font-size="14.00" fill="#000000">Artefact</text>
</a>
</g>
</g>
<!-- _node0&#45;&gt;_node2 -->
<g id="edge2" class="edge">
<title>_node0&#45;&gt;_node2</title>
<path fill="none" stroke="#000000" d="M80.1543,-55.9215C104.1539,-51.7409 138.4521,-45.7664 165.1826,-41.1101"/>
<polygon fill="#000000" stroke="#000000" points="166.1347,-44.4971 175.3857,-39.3328 164.9334,-37.6009 166.1347,-44.4971"/>
</g>
</g>
</svg>
