<?xml version="1.0" encoding="UTF-8" standalone="no"?>
<!DOCTYPE svg PUBLIC "-//W3C//DTD SVG 1.1//EN"
 "http://www.w3.org/Graphics/SVG/1.1/DTD/svg11.dtd">
<!-- Generated by graphviz version 2.40.1 (20161225.0304)
 -->
<!-- Title: %3 Pages: 1 -->
<svg width="360pt" height="261pt"
 viewBox="0.00 0.00 360.00 261.00" xmlns="http://www.w3.org/2000/svg" xmlns:xlink="http://www.w3.org/1999/xlink">
<g id="graph0" class="graph" transform="scale(1 1) rotate(0) translate(4 257)">
<title>%3</title>
<polygon fill="#ffffff" stroke="transparent" points="-4,4 -4,-257 356,-257 356,4 -4,4"/>
<g id="clust1" class="cluster">
<title>cluster_0</title>
<g id="a_clust1"><a xlink:href="../-/ast/graph/index.html" xlink:title="ast::graph">
<polygon fill="none" stroke="#000000" points="8,-8 8,-191 183,-191 183,-8 8,-8"/>
<text text-anchor="middle" x="95.5" y="-175.8" font-family="Times,serif" font-size="14.00" fill="#000000">ast::graph</text>
</a>
</g>
</g>
<g id="clust2" class="cluster">
<title>cluster_1</title>
<g id="a_clust2"><a xlink:href="../-/ast/parents/index.html" xlink:title="ast::parents">
<polygon fill="none" stroke="#000000" points="203,-8 203,-245 344,-245 344,-8 203,-8"/>
<text text-anchor="middle" x="273.5" y="-229.8" font-family="Times,serif" font-size="14.00" fill="#000000">ast::parents</text>
</a>
</g>
</g>
<!-- _node0 -->
<g id="node1" class="node">
<title>_node0</title>
<g id="a_node1"><a xlink:href="../-/ast/graph/buildDirectChildrenGraph/index.html" xlink:title="buildDirectChildrenGraph">
<polygon fill="none" stroke="#000000" points="175,-106 16,-106 16,-70 175,-70 175,-106"/>
<text text-anchor="middle" x="95.5" y="-84.3" font-family="Times,serif" font-size="14.00" fill="#000000">buildDirectChildrenGraph</text>
</a>
</g>
</g>
<!-- _node3 -->
<g id="node4" class="node">
<title>_node3</title>
<g id="a_node4"><a xlink:href="../-/ast/parents/Parents/index.html" xlink:title="Parents">
<polygon fill="none" stroke="#000000" points="301.5,-106 245.5,-106 245.5,-70 301.5,-70 301.5,-106"/>
<text text-anchor="middle" x="273.5" y="-84.3" font-family="Times,serif" font-size="14.00" fill="#000000">Parents</text>
</a>
</g>
</g>
<!-- _node0&#45;&gt;_node3 -->
<g id="edge1" class="edge">
<title>_node0&#45;&gt;_node3</title>
<path fill="none" stroke="#000000" d="M175.1288,-88C195.8258,-88 217.2064,-88 234.7263,-88"/>
<polygon fill="#000000" stroke="#000000" points="235.0955,-91.5001 245.0955,-88 235.0954,-84.5001 235.0955,-91.5001"/>
</g>
<!-- _node4 -->
<g id="node5" class="node">
<title>_node4</title>
<g id="a_node5"><a xlink:href="../-/ast/parents/buildParents/index.html" xlink:title="buildParents">
<polygon fill="none" stroke="#000000" points="315.5,-160 231.5,-160 231.5,-124 315.5,-124 315.5,-160"/>
<text text-anchor="middle" x="273.5" y="-138.3" font-family="Times,serif" font-size="14.00" fill="#000000">buildParents</text>
</a>
</g>
</g>
<!-- _node0&#45;&gt;_node4 -->
<g id="edge2" class="edge">
<title>_node0&#45;&gt;_node4</title>
<path fill="none" stroke="#000000" d="M155.2666,-106.1314C176.8024,-112.6648 200.9072,-119.9775 221.7059,-126.2872"/>
<polygon fill="#000000" stroke="#000000" points="220.7302,-129.6486 231.3156,-129.2025 222.7624,-122.9501 220.7302,-129.6486"/>
</g>
<!-- _node1 -->
<g id="node2" class="node">
<title>_node1</title>
<g id="a_node2"><a xlink:href="../-/ast/graph/buildGraph/index.html" xlink:title="buildGraph">
<polygon fill="none" stroke="#000000" points="134.5,-160 56.5,-160 56.5,-124 134.5,-124 134.5,-160"/>
<text text-anchor="middle" x="95.5" y="-138.3" font-family="Times,serif" font-size="14.00" fill="#000000">buildGraph</text>
</a>
</g>
</g>
<!-- _node1&#45;&gt;_node3 -->
<g id="edge3" class="edge">
<title>_node1&#45;&gt;_node3</title>
<path fill="none" stroke="#000000" d="M134.5629,-130.1495C164.6287,-121.0284 205.9362,-108.4969 235.685,-99.472"/>
<polygon fill="#000000" stroke="#000000" points="236.7444,-102.8082 245.2977,-96.5558 234.7122,-96.1096 236.7444,-102.8082"/>
</g>
<!-- _node1&#45;&gt;_node4 -->
<g id="edge4" class="edge">
<title>_node1&#45;&gt;_node4</title>
<path fill="none" stroke="#000000" d="M134.5629,-142C159.9715,-142 193.4089,-142 221.1135,-142"/>
<polygon fill="#000000" stroke="#000000" points="221.4222,-145.5001 231.4222,-142 221.4222,-138.5001 221.4222,-145.5001"/>
</g>
<!-- _node5 -->
<g id="node6" class="node">
<title>_node5</title>
<g id="a_node6"><a xlink:href="../-/ast/parents/lowestAnchestor/index.html" xlink:title="lowestAnchestor">
<polygon fill="none" stroke="#000000" points="327,-214 220,-214 220,-178 327,-178 327,-214"/>
<text text-anchor="middle" x="273.5" y="-192.3" font-family="Times,serif" font-size="14.00" fill="#000000">lowestAnchestor</text>
</a>
</g>
</g>
<!-- _node1&#45;&gt;_node5 -->
<g id="edge5" class="edge">
<title>_node1&#45;&gt;_node5</title>
<path fill="none" stroke="#000000" d="M134.5629,-153.8505C156.6072,-160.5381 184.6948,-169.0591 209.8388,-176.6871"/>
<polygon fill="#000000" stroke="#000000" points="209.0899,-180.1173 219.6753,-179.6712 211.1221,-173.4188 209.0899,-180.1173"/>
</g>
<!-- _node2 -->
<g id="node3" class="node">
<title>_node2</title>
<g id="a_node3"><a xlink:href="../-/ast/graph/forAllTargetAnchors/index.html" xlink:title="forAllTargetAnchors">
<polygon fill="none" stroke="#000000" points="161,-52 30,-52 30,-16 161,-16 161,-52"/>
<text text-anchor="middle" x="95.5" y="-30.3" font-family="Times,serif" font-size="14.00" fill="#000000">forAllTargetAnchors</text>
</a>
</g>
</g>
<!-- _node2&#45;&gt;_node3 -->
<g id="edge6" class="edge">
<title>_node2&#45;&gt;_node3</title>
<path fill="none" stroke="#000000" d="M155.2666,-52.1314C181.6602,-60.1385 211.9124,-69.3161 235.2084,-76.3834"/>
<polygon fill="#000000" stroke="#000000" points="234.4731,-79.8178 245.0585,-79.3717 236.5053,-73.1193 234.4731,-79.8178"/>
</g>
<!-- _node6 -->
<g id="node7" class="node">
<title>_node6</title>
<g id="a_node7"><a xlink:href="../-/ast/parents/topAnchestorBelow/index.html" xlink:title="topAnchestorBelow">
<polygon fill="none" stroke="#000000" points="336,-52 211,-52 211,-16 336,-16 336,-52"/>
<text text-anchor="middle" x="273.5" y="-30.3" font-family="Times,serif" font-size="14.00" fill="#000000">topAnchestorBelow</text>
</a>
</g>
</g>
<!-- _node2&#45;&gt;_node6 -->
<g id="edge7" class="edge">
<title>_node2&#45;&gt;_node6</title>
<path fill="none" stroke="#000000" d="M161.0223,-34C173.8501,-34 187.3787,-34 200.4344,-34"/>
<polygon fill="#000000" stroke="#000000" points="200.7811,-37.5001 210.781,-34 200.781,-30.5001 200.7811,-37.5001"/>
</g>
</g>
</svg>
