digraph {
    rankdir=LR
    subgraph cluster_0 {
        label="ast::graph"
        URL="../-/ast/graph/index.html"
        _node0 [
            shape="box"
            label="Graph"
            URL="../-/ast/graph/Graph/index.html"
        ]
        _node1 [
            shape="box"
            label="addAllReachable"
            URL="../-/ast/graph/addAllReachable/index.html"
        ]
    }
    subgraph cluster_1 {
        label="library"
        URL="../-/library/index.html"
        _node2 [
            shape="box"
            label="Set"
            URL="../-/library/Set/index.html"
        ]
    }
    _node0 -> _node2
    _node1 -> _node2
}
