digraph {
    rankdir=LR
    subgraph cluster_0 {
        label="ast::traverse"
        URL="../-/ast/traverse/index.html"
        _node0 [
            shape="box"
            label="recursive"
            URL="../-/ast/traverse/recursive/index.html"
        ]
    }
    subgraph cluster_1 {
        label="ast::specification"
        URL="../-/ast/specification/index.html"
        _node1 [
            shape="box"
            label="AllNodes"
            URL="../-/ast/specification/AllNodes/index.html"
        ]
    }
    _node0 -> _node1
}
