digraph {
    rankdir=LR
    subgraph cluster_0 {
        label="ast::specification"
        URL="../-/ast/specification/index.html"
        _node0 [
            shape="box"
            label="PackageElement"
            URL="../-/ast/specification/PackageElement/index.html"
        ]
        _node1 [
            shape="box"
            label="PackageNode"
            URL="../-/ast/specification/PackageNode/index.html"
        ]
        _node2 [
            shape="box"
            label="AllNodes"
            URL="../-/ast/specification/AllNodes/index.html"
        ]
    }
    subgraph cluster_1 {
        label="ast"
        URL="../-/ast/index.html"
        _node3 [
            shape="box"
            label="NodeSpecification"
            URL="../-/ast/NodeSpecification/index.html"
        ]
        _node4 [
            shape="box"
            label="Class"
            URL="../-/ast/Class/index.html"
        ]
        _node5 [
            shape="box"
            label="Function"
            URL="../-/ast/Function/index.html"
        ]
        _node6 [
            shape="box"
            label="Variable"
            URL="../-/ast/Variable/index.html"
        ]
        _node7 [
            shape="box"
            label="Package"
            URL="../-/ast/Package/index.html"
        ]
    }
    _node0 -> _node3
    _node0 -> _node4
    _node0 -> _node5
    _node0 -> _node6
    _node1 -> _node3
    _node1 -> _node7
    _node2 -> _node3
}
