<?xml version="1.0" encoding="UTF-8" standalone="no"?>
<!DOCTYPE svg PUBLIC "-//W3C//DTD SVG 1.1//EN"
 "http://www.w3.org/Graphics/SVG/1.1/DTD/svg11.dtd">
<!-- Generated by graphviz version 2.40.1 (20161225.0304)
 -->
<!-- Title: %3 Pages: 1 -->
<svg width="187pt" height="99pt"
 viewBox="0.00 0.00 187.00 99.00" xmlns="http://www.w3.org/2000/svg" xmlns:xlink="http://www.w3.org/1999/xlink">
<g id="graph0" class="graph" transform="scale(1 1) rotate(0) translate(4 95)">
<title>%3</title>
<polygon fill="#ffffff" stroke="transparent" points="-4,4 -4,-95 183,-95 183,4 -4,4"/>
<g id="clust1" class="cluster">
<title>cluster_0</title>
<g id="a_clust1"><a xlink:href="../-/driver/index.html" xlink:title="driver">
<polygon fill="none" stroke="#000000" points="8,-8 8,-83 81,-83 81,-8 8,-8"/>
<text text-anchor="middle" x="44.5" y="-67.8" font-family="Times,serif" font-size="14.00" fill="#000000">driver</text>
</a>
</g>
</g>
<g id="clust2" class="cluster">
<title>cluster_1</title>
<g id="a_clust2"><a xlink:href="../-/artefact/index.html" xlink:title="artefact">
<polygon fill="none" stroke="#000000" points="101,-8 101,-83 171,-83 171,-8 101,-8"/>
<text text-anchor="middle" x="136" y="-67.8" font-family="Times,serif" font-size="14.00" fill="#000000">artefact</text>
</a>
</g>
</g>
<!-- _node0 -->
<g id="node1" class="node">
<title>_node0</title>
<g id="a_node1"><a xlink:href="../-/driver/process/index.html" xlink:title="process">
<polygon fill="none" stroke="#000000" points="73,-52 16,-52 16,-16 73,-16 73,-52"/>
<text text-anchor="middle" x="44.5" y="-30.3" font-family="Times,serif" font-size="14.00" fill="#000000">process</text>
</a>
</g>
</g>
<!-- _node1 -->
<g id="node2" class="node">
<title>_node1</title>
<g id="a_node2"><a xlink:href="../-/artefact/Os/index.html" xlink:title="Os">
<polygon fill="none" stroke="#000000" points="163,-52 109,-52 109,-16 163,-16 163,-52"/>
<text text-anchor="middle" x="136" y="-30.3" font-family="Times,serif" font-size="14.00" fill="#000000">Os</text>
</a>
</g>
</g>
<!-- _node0&#45;&gt;_node1 -->
<g id="edge1" class="edge">
<title>_node0&#45;&gt;_node1</title>
<path fill="none" stroke="#000000" d="M73.4512,-34C81.4912,-34 90.335,-34 98.7773,-34"/>
<polygon fill="#000000" stroke="#000000" points="98.7948,-37.5001 108.7947,-34 98.7947,-30.5001 98.7948,-37.5001"/>
</g>
</g>
</svg>
