<?xml version="1.0" encoding="UTF-8" standalone="no"?>
<!DOCTYPE svg PUBLIC "-//W3C//DTD SVG 1.1//EN"
 "http://www.w3.org/Graphics/SVG/1.1/DTD/svg11.dtd">
<!-- Generated by graphviz version 2.40.1 (20161225.0304)
 -->
<!-- Title: %3 Pages: 1 -->
<svg width="285pt" height="639pt"
 viewBox="0.00 0.00 285.00 639.00" xmlns="http://www.w3.org/2000/svg" xmlns:xlink="http://www.w3.org/1999/xlink">
<g id="graph0" class="graph" transform="scale(1 1) rotate(0) translate(4 635)">
<title>%3</title>
<polygon fill="#ffffff" stroke="transparent" points="-4,4 -4,-635 281,-635 281,4 -4,4"/>
<g id="clust1" class="cluster">
<title>cluster_0</title>
<g id="a_clust1"><a xlink:href="../-/graph/index.html" xlink:title="graph">
<polygon fill="none" stroke="#000000" points="8,-170 8,-623 168,-623 168,-170 8,-170"/>
<text text-anchor="middle" x="88" y="-607.8" font-family="Times,serif" font-size="14.00" fill="#000000">graph</text>
</a>
</g>
</g>
<g id="clust2" class="cluster">
<title>cluster_1</title>
<g id="a_clust2"><a xlink:href="../-/ast/index.html" xlink:title="ast">
<polygon fill="none" stroke="#000000" points="188,-8 188,-461 269,-461 269,-8 188,-8"/>
<text text-anchor="middle" x="228.5" y="-445.8" font-family="Times,serif" font-size="14.00" fill="#000000">ast</text>
</a>
</g>
</g>
<!-- _node0 -->
<g id="node1" class="node">
<title>_node0</title>
<g id="a_node1"><a xlink:href="../-/graph/PathGenerator/index.html" xlink:title="PathGenerator">
<polygon fill="none" stroke="#000000" points="135.5,-484 40.5,-484 40.5,-448 135.5,-448 135.5,-484"/>
<text text-anchor="middle" x="88" y="-462.3" font-family="Times,serif" font-size="14.00" fill="#000000">PathGenerator</text>
</a>
</g>
</g>
<!-- _node8 -->
<g id="node9" class="node">
<title>_node8</title>
<g id="a_node9"><a xlink:href="../-/ast/Project/index.html" xlink:title="Project">
<polygon fill="none" stroke="#000000" points="256,-430 201,-430 201,-394 256,-394 256,-430"/>
<text text-anchor="middle" x="228.5" y="-408.3" font-family="Times,serif" font-size="14.00" fill="#000000">Project</text>
</a>
</g>
</g>
<!-- _node0&#45;&gt;_node8 -->
<g id="edge1" class="edge">
<title>_node0&#45;&gt;_node8</title>
<path fill="none" stroke="#000000" d="M135.6449,-450.7415C146.358,-447.0832 157.624,-443.0558 168,-439 175.6922,-435.9932 183.829,-432.549 191.5558,-429.1493"/>
<polygon fill="#000000" stroke="#000000" points="193.0163,-432.3303 200.72,-425.0568 190.1619,-425.9386 193.0163,-432.3303"/>
</g>
<!-- _node9 -->
<g id="node10" class="node">
<title>_node9</title>
<g id="a_node10"><a xlink:href="../-/ast/Node/index.html" xlink:title="Node">
<polygon fill="none" stroke="#000000" points="255.5,-376 201.5,-376 201.5,-340 255.5,-340 255.5,-376"/>
<text text-anchor="middle" x="228.5" y="-354.3" font-family="Times,serif" font-size="14.00" fill="#000000">Node</text>
</a>
</g>
</g>
<!-- _node0&#45;&gt;_node9 -->
<g id="edge2" class="edge">
<title>_node0&#45;&gt;_node9</title>
<path fill="none" stroke="#000000" d="M135.8506,-457.4309C147.5174,-453.4346 159.167,-447.5787 168,-439 186.3595,-421.1691 172.1321,-405.0804 188,-385 189.6046,-382.9695 191.4048,-381.0384 193.331,-379.212"/>
<polygon fill="#000000" stroke="#000000" points="195.7448,-381.7581 201.2366,-372.6977 191.2933,-376.3559 195.7448,-381.7581"/>
</g>
<!-- _node1 -->
<g id="node2" class="node">
<title>_node1</title>
<g id="a_node2"><a xlink:href="../-/graph/Queue/index.html" xlink:title="Queue">
<polygon fill="none" stroke="#000000" points="115,-592 61,-592 61,-556 115,-556 115,-592"/>
<text text-anchor="middle" x="88" y="-570.3" font-family="Times,serif" font-size="14.00" fill="#000000">Queue</text>
</a>
</g>
</g>
<!-- _node1&#45;&gt;_node8 -->
<g id="edge3" class="edge">
<title>_node1&#45;&gt;_node8</title>
<path fill="none" stroke="#000000" d="M115.2839,-570.4478C132.224,-566.9867 153.4614,-560.2082 168,-547 199.459,-518.4196 215.5273,-470.3759 222.957,-439.9759"/>
<polygon fill="#000000" stroke="#000000" points="226.4164,-440.5485 225.2358,-430.0197 219.5928,-438.9867 226.4164,-440.5485"/>
</g>
<!-- _node2 -->
<g id="node3" class="node">
<title>_node2</title>
<g id="a_node3"><a xlink:href="../-/graph/parse/index.html" xlink:title="parse">
<polygon fill="none" stroke="#000000" points="115,-538 61,-538 61,-502 115,-502 115,-538"/>
<text text-anchor="middle" x="88" y="-516.3" font-family="Times,serif" font-size="14.00" fill="#000000">parse</text>
</a>
</g>
</g>
<!-- _node2&#45;&gt;_node8 -->
<g id="edge4" class="edge">
<title>_node2&#45;&gt;_node8</title>
<path fill="none" stroke="#000000" d="M115.1,-515.1275C131.5554,-511.1821 152.3355,-504.3586 168,-493 187.4816,-478.8736 203.4487,-456.6459 214.0782,-439.0459"/>
<polygon fill="#000000" stroke="#000000" points="217.1437,-440.7365 219.1405,-430.3315 211.0909,-437.2203 217.1437,-440.7365"/>
</g>
<!-- _node3 -->
<g id="node4" class="node">
<title>_node3</title>
<g id="a_node4"><a xlink:href="../-/graph/Namer/index.html" xlink:title="Namer">
<polygon fill="none" stroke="#000000" points="115,-430 61,-430 61,-394 115,-394 115,-430"/>
<text text-anchor="middle" x="88" y="-408.3" font-family="Times,serif" font-size="14.00" fill="#000000">Namer</text>
</a>
</g>
</g>
<!-- _node3&#45;&gt;_node8 -->
<g id="edge5" class="edge">
<title>_node3&#45;&gt;_node8</title>
<path fill="none" stroke="#000000" d="M115.0898,-412C136.4842,-412 166.5983,-412 190.4188,-412"/>
<polygon fill="#000000" stroke="#000000" points="190.5317,-415.5001 200.5317,-412 190.5317,-408.5001 190.5317,-415.5001"/>
</g>
<!-- _node3&#45;&gt;_node9 -->
<g id="edge6" class="edge">
<title>_node3&#45;&gt;_node9</title>
<path fill="none" stroke="#000000" d="M115.2606,-403.5047C130.837,-398.4754 150.6612,-391.7775 168,-385 175.8445,-381.9337 184.1514,-378.4124 192.0143,-374.9474"/>
<polygon fill="#000000" stroke="#000000" points="193.6249,-378.0612 201.3242,-370.783 190.7667,-371.6713 193.6249,-378.0612"/>
</g>
<!-- _node4 -->
<g id="node5" class="node">
<title>_node4</title>
<g id="a_node5"><a xlink:href="../-/graph/GraphParser/index.html" xlink:title="GraphParser">
<polygon fill="none" stroke="#000000" points="130,-214 46,-214 46,-178 130,-178 130,-214"/>
<text text-anchor="middle" x="88" y="-192.3" font-family="Times,serif" font-size="14.00" fill="#000000">GraphParser</text>
</a>
</g>
</g>
<!-- _node4&#45;&gt;_node8 -->
<g id="edge7" class="edge">
<title>_node4&#45;&gt;_node8</title>
<path fill="none" stroke="#000000" d="M130.1789,-201.0891C144.2179,-204.9029 158.6439,-211.5259 168,-223 213.8459,-279.2242 149.9069,-323.2592 188,-385 189.3977,-387.2654 191.0647,-389.3821 192.9134,-391.3524"/>
<polygon fill="#000000" stroke="#000000" points="190.9332,-394.2709 200.7601,-398.2309 195.5475,-389.0071 190.9332,-394.2709"/>
</g>
<!-- _node4&#45;&gt;_node9 -->
<g id="edge8" class="edge">
<title>_node4&#45;&gt;_node9</title>
<path fill="none" stroke="#000000" d="M130.2193,-201.52C144.091,-205.381 158.3984,-211.9238 168,-223 199.9754,-259.8861 161.1272,-290.2463 188,-331 189.6136,-333.4471 191.5336,-335.7268 193.6471,-337.8395"/>
<polygon fill="#000000" stroke="#000000" points="191.5115,-340.6167 201.4155,-344.3798 196.0198,-335.2618 191.5115,-340.6167"/>
</g>
<!-- _node10 -->
<g id="node11" class="node">
<title>_node10</title>
<g id="a_node11"><a xlink:href="../-/ast/Package/index.html" xlink:title="Package">
<polygon fill="none" stroke="#000000" points="259.5,-322 197.5,-322 197.5,-286 259.5,-286 259.5,-322"/>
<text text-anchor="middle" x="228.5" y="-300.3" font-family="Times,serif" font-size="14.00" fill="#000000">Package</text>
</a>
</g>
</g>
<!-- _node4&#45;&gt;_node10 -->
<g id="edge9" class="edge">
<title>_node4&#45;&gt;_node10</title>
<path fill="none" stroke="#000000" d="M130.0287,-202.7219C143.556,-206.6891 157.6949,-212.9916 168,-223 186.3595,-240.8309 172.1321,-256.9196 188,-277 188.5731,-277.7252 189.1711,-278.4377 189.7909,-279.1373"/>
<polygon fill="#000000" stroke="#000000" points="187.4681,-281.7586 197.1203,-286.1274 192.2993,-276.693 187.4681,-281.7586"/>
</g>
<!-- _node11 -->
<g id="node12" class="node">
<title>_node11</title>
<g id="a_node12"><a xlink:href="../-/ast/Field/index.html" xlink:title="Field">
<polygon fill="none" stroke="#000000" points="255.5,-268 201.5,-268 201.5,-232 255.5,-232 255.5,-268"/>
<text text-anchor="middle" x="228.5" y="-246.3" font-family="Times,serif" font-size="14.00" fill="#000000">Field</text>
</a>
</g>
</g>
<!-- _node4&#45;&gt;_node11 -->
<g id="edge10" class="edge">
<title>_node4&#45;&gt;_node11</title>
<path fill="none" stroke="#000000" d="M130.2031,-209.4154C142.4778,-213.5399 155.8492,-218.2504 168,-223 175.8445,-226.0663 184.1514,-229.5876 192.0143,-233.0526"/>
<polygon fill="#000000" stroke="#000000" points="190.7667,-236.3287 201.3242,-237.217 193.6249,-229.9388 190.7667,-236.3287"/>
</g>
<!-- _node12 -->
<g id="node13" class="node">
<title>_node12</title>
<g id="a_node13"><a xlink:href="../-/ast/Method/index.html" xlink:title="Method">
<polygon fill="none" stroke="#000000" points="258,-214 199,-214 199,-178 258,-178 258,-214"/>
<text text-anchor="middle" x="228.5" y="-192.3" font-family="Times,serif" font-size="14.00" fill="#000000">Method</text>
</a>
</g>
</g>
<!-- _node4&#45;&gt;_node12 -->
<g id="edge11" class="edge">
<title>_node4&#45;&gt;_node12</title>
<path fill="none" stroke="#000000" d="M130.1546,-196C148.7551,-196 170.5018,-196 188.8092,-196"/>
<polygon fill="#000000" stroke="#000000" points="188.8619,-199.5001 198.8618,-196 188.8618,-192.5001 188.8619,-199.5001"/>
</g>
<!-- _node13 -->
<g id="node14" class="node">
<title>_node13</title>
<g id="a_node14"><a xlink:href="../-/ast/Class/index.html" xlink:title="Class">
<polygon fill="none" stroke="#000000" points="255.5,-160 201.5,-160 201.5,-124 255.5,-124 255.5,-160"/>
<text text-anchor="middle" x="228.5" y="-138.3" font-family="Times,serif" font-size="14.00" fill="#000000">Class</text>
</a>
</g>
</g>
<!-- _node4&#45;&gt;_node13 -->
<g id="edge12" class="edge">
<title>_node4&#45;&gt;_node13</title>
<path fill="none" stroke="#000000" d="M130.1546,-179.7982C149.8406,-172.2321 173.0508,-163.3115 191.978,-156.0369"/>
<polygon fill="#000000" stroke="#000000" points="193.3653,-159.2534 201.444,-152.3988 190.854,-152.7194 193.3653,-159.2534"/>
</g>
<!-- _node14 -->
<g id="node15" class="node">
<title>_node14</title>
<g id="a_node15"><a xlink:href="../-/ast/Function/index.html" xlink:title="Function">
<polygon fill="none" stroke="#000000" points="261,-106 196,-106 196,-70 261,-70 261,-106"/>
<text text-anchor="middle" x="228.5" y="-84.3" font-family="Times,serif" font-size="14.00" fill="#000000">Function</text>
</a>
</g>
</g>
<!-- _node4&#45;&gt;_node14 -->
<g id="edge13" class="edge">
<title>_node4&#45;&gt;_node14</title>
<path fill="none" stroke="#000000" d="M109.3898,-177.7089C129.3324,-160.8896 160.1082,-135.5252 188,-115 189.357,-114.0014 190.7483,-112.9946 192.1603,-111.9869"/>
<polygon fill="#000000" stroke="#000000" points="194.1776,-114.8471 200.3791,-106.2569 190.1742,-109.1049 194.1776,-114.8471"/>
</g>
<!-- _node15 -->
<g id="node16" class="node">
<title>_node15</title>
<g id="a_node16"><a xlink:href="../-/ast/Variable/index.html" xlink:title="Variable">
<polygon fill="none" stroke="#000000" points="260,-52 197,-52 197,-16 260,-16 260,-52"/>
<text text-anchor="middle" x="228.5" y="-30.3" font-family="Times,serif" font-size="14.00" fill="#000000">Variable</text>
</a>
</g>
</g>
<!-- _node4&#45;&gt;_node15 -->
<g id="edge14" class="edge">
<title>_node4&#45;&gt;_node15</title>
<path fill="none" stroke="#000000" d="M98.597,-177.854C115.2253,-150.3898 149.5455,-97.5949 188,-61 188.9297,-60.1152 189.8917,-59.2404 190.8787,-58.3775"/>
<polygon fill="#000000" stroke="#000000" points="193.1963,-61.0057 198.8204,-52.0268 188.8245,-55.5388 193.1963,-61.0057"/>
</g>
<!-- _node5 -->
<g id="node6" class="node">
<title>_node5</title>
<g id="a_node6"><a xlink:href="../-/graph/createEnv/index.html" xlink:title="createEnv">
<polygon fill="none" stroke="#000000" points="123.5,-376 52.5,-376 52.5,-340 123.5,-340 123.5,-376"/>
<text text-anchor="middle" x="88" y="-354.3" font-family="Times,serif" font-size="14.00" fill="#000000">createEnv</text>
</a>
</g>
</g>
<!-- _node5&#45;&gt;_node8 -->
<g id="edge15" class="edge">
<title>_node5&#45;&gt;_node8</title>
<path fill="none" stroke="#000000" d="M123.7028,-369.2509C137.6306,-373.8475 153.6647,-379.3965 168,-385 175.6922,-388.0068 183.829,-391.451 191.5558,-394.8507"/>
<polygon fill="#000000" stroke="#000000" points="190.1619,-398.0614 200.72,-398.9432 193.0163,-391.6697 190.1619,-398.0614"/>
</g>
<!-- _node5&#45;&gt;_node9 -->
<g id="edge16" class="edge">
<title>_node5&#45;&gt;_node9</title>
<path fill="none" stroke="#000000" d="M123.8176,-358C144.4048,-358 170.2335,-358 191.0836,-358"/>
<polygon fill="#000000" stroke="#000000" points="191.1759,-361.5001 201.1758,-358 191.1758,-354.5001 191.1759,-361.5001"/>
</g>
<!-- _node6 -->
<g id="node7" class="node">
<title>_node6</title>
<g id="a_node7"><a xlink:href="../-/graph/edgePrinter/index.html" xlink:title="edgePrinter">
<polygon fill="none" stroke="#000000" points="127.5,-322 48.5,-322 48.5,-286 127.5,-286 127.5,-322"/>
<text text-anchor="middle" x="88" y="-300.3" font-family="Times,serif" font-size="14.00" fill="#000000">edgePrinter</text>
</a>
</g>
</g>
<!-- _node6&#45;&gt;_node9 -->
<g id="edge17" class="edge">
<title>_node6&#45;&gt;_node9</title>
<path fill="none" stroke="#000000" d="M127.7362,-316.5894C140.6693,-320.9049 155.03,-325.9302 168,-331 175.8445,-334.0663 184.1514,-337.5876 192.0143,-341.0526"/>
<polygon fill="#000000" stroke="#000000" points="190.7667,-344.3287 201.3242,-345.217 193.6249,-337.9388 190.7667,-344.3287"/>
</g>
<!-- _node7 -->
<g id="node8" class="node">
<title>_node7</title>
<g id="a_node8"><a xlink:href="../-/graph/edgeMultiplicityPrinter/index.html" xlink:title="edgeMultiplicityPrinter">
<polygon fill="none" stroke="#000000" points="160,-268 16,-268 16,-232 160,-232 160,-268"/>
<text text-anchor="middle" x="88" y="-246.3" font-family="Times,serif" font-size="14.00" fill="#000000">edgeMultiplicityPrinter</text>
</a>
</g>
</g>
<!-- _node7&#45;&gt;_node9 -->
<g id="edge18" class="edge">
<title>_node7&#45;&gt;_node9</title>
<path fill="none" stroke="#000000" d="M156.4553,-268.0978C160.6251,-270.6798 164.5299,-273.6298 168,-277 186.3595,-294.8309 172.1321,-310.9196 188,-331 189.6046,-333.0305 191.4048,-334.9616 193.331,-336.788"/>
<polygon fill="#000000" stroke="#000000" points="191.2933,-339.6441 201.2366,-343.3023 195.7448,-334.2419 191.2933,-339.6441"/>
</g>
</g>
</svg>
