<?xml version="1.0" encoding="UTF-8" standalone="no"?>
<!DOCTYPE svg PUBLIC "-//W3C//DTD SVG 1.1//EN"
 "http://www.w3.org/Graphics/SVG/1.1/DTD/svg11.dtd">
<!-- Generated by graphviz version 2.40.1 (20161225.0304)
 -->
<!-- Title: %3 Pages: 1 -->
<svg width="274pt" height="153pt"
 viewBox="0.00 0.00 274.00 153.00" xmlns="http://www.w3.org/2000/svg" xmlns:xlink="http://www.w3.org/1999/xlink">
<g id="graph0" class="graph" transform="scale(1 1) rotate(0) translate(4 149)">
<title>%3</title>
<polygon fill="#ffffff" stroke="transparent" points="-4,4 -4,-149 270,-149 270,4 -4,4"/>
<g id="clust1" class="cluster">
<title>cluster_0</title>
<g id="a_clust1"><a xlink:href="../-/graph/index.html" xlink:title="graph">
<polygon fill="none" stroke="#000000" points="8,-8 8,-137 168,-137 168,-8 8,-8"/>
<text text-anchor="middle" x="88" y="-121.8" font-family="Times,serif" font-size="14.00" fill="#000000">graph</text>
</a>
</g>
</g>
<g id="clust2" class="cluster">
<title>cluster_1</title>
<g id="a_clust2"><a xlink:href="../-/graphviz/index.html" xlink:title="graphviz">
<polygon fill="none" stroke="#000000" points="188,-35 188,-110 258,-110 258,-35 188,-35"/>
<text text-anchor="middle" x="223" y="-94.8" font-family="Times,serif" font-size="14.00" fill="#000000">graphviz</text>
</a>
</g>
</g>
<!-- _node0 -->
<g id="node1" class="node">
<title>_node0</title>
<g id="a_node1"><a xlink:href="../-/graph/edgePrinter/index.html" xlink:title="edgePrinter">
<polygon fill="none" stroke="#000000" points="127.5,-106 48.5,-106 48.5,-70 127.5,-70 127.5,-106"/>
<text text-anchor="middle" x="88" y="-84.3" font-family="Times,serif" font-size="14.00" fill="#000000">edgePrinter</text>
</a>
</g>
</g>
<!-- _node2 -->
<g id="node3" class="node">
<title>_node2</title>
<g id="a_node3"><a xlink:href="../-/graphviz/Writer/index.html" xlink:title="Writer">
<polygon fill="none" stroke="#000000" points="250,-79 196,-79 196,-43 250,-43 250,-79"/>
<text text-anchor="middle" x="223" y="-57.3" font-family="Times,serif" font-size="14.00" fill="#000000">Writer</text>
</a>
</g>
</g>
<!-- _node0&#45;&gt;_node2 -->
<g id="edge1" class="edge">
<title>_node0&#45;&gt;_node2</title>
<path fill="none" stroke="#000000" d="M127.7743,-80.0451C146.1946,-76.3611 167.9491,-72.0102 186.0118,-68.3976"/>
<polygon fill="#000000" stroke="#000000" points="186.7744,-71.8145 195.8938,-66.4212 185.4016,-64.9504 186.7744,-71.8145"/>
</g>
<!-- _node1 -->
<g id="node2" class="node">
<title>_node1</title>
<g id="a_node2"><a xlink:href="../-/graph/edgeMultiplicityPrinter/index.html" xlink:title="edgeMultiplicityPrinter">
<polygon fill="none" stroke="#000000" points="160,-52 16,-52 16,-16 160,-16 160,-52"/>
<text text-anchor="middle" x="88" y="-30.3" font-family="Times,serif" font-size="14.00" fill="#000000">edgeMultiplicityPrinter</text>
</a>
</g>
</g>
<!-- _node1&#45;&gt;_node2 -->
<g id="edge2" class="edge">
<title>_node1&#45;&gt;_node2</title>
<path fill="none" stroke="#000000" d="M160.2426,-48.4485C169.0476,-50.2095 177.7445,-51.9489 185.7299,-53.546"/>
<polygon fill="#000000" stroke="#000000" points="185.2748,-57.0242 195.767,-55.5534 186.6477,-50.1601 185.2748,-57.0242"/>
</g>
</g>
</svg>
