digraph {
    rankdir=LR
    subgraph cluster_0 {
        label="graph"
        URL="../-/graph/index.html"
        _node0 [
            shape="box"
            label="Queue"
            URL="../-/graph/Queue/index.html"
        ]
        _node1 [
            shape="box"
            label="parse"
            URL="../-/graph/parse/index.html"
        ]
        _node2 [
            shape="box"
            label="GraphParser"
            URL="../-/graph/GraphParser/index.html"
        ]
    }
    subgraph cluster_1 {
        label="logger"
        URL="../-/logger/index.html"
        _node3 [
            shape="box"
            label="Logger"
            URL="../-/logger/Logger/index.html"
        ]
    }
    _node0 -> _node3
    _node1 -> _node3
    _node2 -> _node3
}
