digraph {
    rankdir=LR
    subgraph cluster_0 {
        label="graph"
        URL="../-/graph/index.html"
        _node0 [
            shape="box"
            label="edgePrinter"
            URL="../-/graph/edgePrinter/index.html"
        ]
        _node1 [
            shape="box"
            label="edgeMultiplicityPrinter"
            URL="../-/graph/edgeMultiplicityPrinter/index.html"
        ]
    }
    subgraph cluster_1 {
        label="graphviz"
        URL="../-/graphviz/index.html"
        _node2 [
            shape="box"
            label="Writer"
            URL="../-/graphviz/Writer/index.html"
        ]
    }
    _node0 -> _node2
    _node1 -> _node2
}
