digraph {
    rankdir=LR
    subgraph cluster_0 {
        label="metric"
        URL="../-/metric/index.html"
        _node0 [
            shape="box"
            label="InstabilityService"
            URL="../-/metric/InstabilityService/index.html"
        ]
        _node1 [
            shape="box"
            label="InstabilityService::PackageInstability"
            URL="../-/metric/InstabilityService/PackageInstability/index.html"
        ]
        _node2 [
            shape="box"
            label="Repository::RealCalculation"
            URL="../-/metric/Repository/RealCalculation/index.html"
        ]
        _node3 [
            shape="box"
            label="Description::Calculation"
            URL="../-/metric/Description/Calculation/index.html"
        ]
        _node4 [
            shape="box"
            label="AllRepository"
            URL="../-/metric/AllRepository/index.html"
        ]
        _node5 [
            shape="box"
            label="AllRepository::WholeCalculation"
            URL="../-/metric/AllRepository/WholeCalculation/index.html"
        ]
        _node6 [
            shape="box"
            label="AllRepository::Instabilty"
            URL="../-/metric/AllRepository/Instabilty/index.html"
        ]
    }
    subgraph cluster_1 {
        label="ast"
        URL="../-/ast/index.html"
        _node7 [
            shape="box"
            label="Node"
            URL="../-/ast/Node/index.html"
        ]
        _node8 [
            shape="box"
            label="Package"
            URL="../-/ast/Package/index.html"
        ]
        _node9 [
            shape="box"
            label="Class"
            URL="../-/ast/Class/index.html"
        ]
        _node10 [
            shape="box"
            label="Function"
            URL="../-/ast/Function/index.html"
        ]
        _node11 [
            shape="box"
            label="Variable"
            URL="../-/ast/Variable/index.html"
        ]
        _node12 [
            shape="box"
            label="Method"
            URL="../-/ast/Method/index.html"
        ]
        _node13 [
            shape="box"
            label="Field"
            URL="../-/ast/Field/index.html"
        ]
    }
    _node0 -> _node7
    _node1 -> _node7
    _node2 -> _node7
    _node3 -> _node7
    _node4 -> _node7
    _node4 -> _node8
    _node4 -> _node9
    _node4 -> _node10
    _node4 -> _node11
    _node4 -> _node12
    _node4 -> _node13
    _node5 -> _node7
    _node6 -> _node7
}
