<?xml version="1.0" encoding="UTF-8" standalone="no"?>
<!DOCTYPE svg PUBLIC "-//W3C//DTD SVG 1.1//EN"
 "http://www.w3.org/Graphics/SVG/1.1/DTD/svg11.dtd">
<!-- Generated by graphviz version 2.40.1 (20161225.0304)
 -->
<!-- Title: %3 Pages: 1 -->
<svg width="249pt" height="153pt"
 viewBox="0.00 0.00 249.00 153.00" xmlns="http://www.w3.org/2000/svg" xmlns:xlink="http://www.w3.org/1999/xlink">
<g id="graph0" class="graph" transform="scale(1 1) rotate(0) translate(4 149)">
<title>%3</title>
<polygon fill="#ffffff" stroke="transparent" points="-4,4 -4,-149 245,-149 245,4 -4,4"/>
<g id="clust1" class="cluster">
<title>cluster_0</title>
<g id="a_clust1"><a xlink:href="../-/metric/index.html" xlink:title="metric">
<polygon fill="none" stroke="#000000" points="8,-35 8,-110 117,-110 117,-35 8,-35"/>
<text text-anchor="middle" x="62.5" y="-94.8" font-family="Times,serif" font-size="14.00" fill="#000000">metric</text>
</a>
</g>
</g>
<g id="clust2" class="cluster">
<title>cluster_1</title>
<g id="a_clust2"><a xlink:href="../-/metric/package/index.html" xlink:title="metric::package">
<polygon fill="none" stroke="#000000" points="137,-8 137,-137 241,-137 241,-8 137,-8"/>
<text text-anchor="middle" x="189" y="-121.8" font-family="Times,serif" font-size="14.00" fill="#000000">metric::package</text>
</a>
</g>
</g>
<!-- _node0 -->
<g id="node1" class="node">
<title>_node0</title>
<g id="a_node1"><a xlink:href="../-/metric/AllRepository/index.html" xlink:title="AllRepository">
<polygon fill="none" stroke="#000000" points="109,-79 16,-79 16,-43 109,-43 109,-79"/>
<text text-anchor="middle" x="62.5" y="-57.3" font-family="Times,serif" font-size="14.00" fill="#000000">AllRepository</text>
</a>
</g>
</g>
<!-- _node1 -->
<g id="node2" class="node">
<title>_node1</title>
<g id="a_node2"><a xlink:href="../-/metric/package/FanIn/index.html" xlink:title="FanIn">
<polygon fill="none" stroke="#000000" points="215.5,-106 161.5,-106 161.5,-70 215.5,-70 215.5,-106"/>
<text text-anchor="middle" x="188.5" y="-84.3" font-family="Times,serif" font-size="14.00" fill="#000000">FanIn</text>
</a>
</g>
</g>
<!-- _node0&#45;&gt;_node1 -->
<g id="edge1" class="edge">
<title>_node0&#45;&gt;_node1</title>
<path fill="none" stroke="#000000" d="M109.0598,-70.9771C122.8887,-73.9404 137.8539,-77.1473 151.027,-79.9701"/>
<polygon fill="#000000" stroke="#000000" points="150.64,-83.4665 161.1514,-82.1396 152.1067,-76.6219 150.64,-83.4665"/>
</g>
<!-- _node2 -->
<g id="node3" class="node">
<title>_node2</title>
<g id="a_node3"><a xlink:href="../-/metric/package/FanOut/index.html" xlink:title="FanOut">
<polygon fill="none" stroke="#000000" points="217,-52 160,-52 160,-16 217,-16 217,-52"/>
<text text-anchor="middle" x="188.5" y="-30.3" font-family="Times,serif" font-size="14.00" fill="#000000">FanOut</text>
</a>
</g>
</g>
<!-- _node0&#45;&gt;_node2 -->
<g id="edge2" class="edge">
<title>_node0&#45;&gt;_node2</title>
<path fill="none" stroke="#000000" d="M109.0598,-51.0229C122.4461,-48.1544 136.8973,-45.0577 149.7569,-42.3021"/>
<polygon fill="#000000" stroke="#000000" points="150.6336,-45.6938 159.6782,-40.1761 149.1668,-38.8492 150.6336,-45.6938"/>
</g>
</g>
</svg>
