digraph {
    rankdir=LR
    subgraph cluster_0 {
        label="metric::generic"
        URL="../-/metric/generic/index.html"
        _node0 [
            shape="box"
            label="packageLcom4"
            URL="../-/metric/generic/packageLcom4/index.html"
        ]
        _node1 [
            shape="box"
            label="classLcom4"
            URL="../-/metric/generic/classLcom4/index.html"
        ]
    }
    subgraph cluster_1 {
        label="ast::specification"
        URL="../-/ast/specification/index.html"
        _node2 [
            shape="box"
            label="PackageElement"
            URL="../-/ast/specification/PackageElement/index.html"
        ]
        _node3 [
            shape="box"
            label="AllNodes"
            URL="../-/ast/specification/AllNodes/index.html"
        ]
    }
    _node0 -> _node2
    _node1 -> _node3
}
