digraph {
    rankdir=LR
    label="ArtefactFactory"
    subgraph cluster_0 {
        label="methods"
        _node0 [
            shape="box"
            label="~ArtefactFactory"
        ]
        _node1 [
            shape="box"
            label="packageDependencies"
        ]
        _node2 [
            shape="box"
            label="package"
        ]
    }
}
