<?xml version="1.0" encoding="UTF-8" standalone="no"?>
<!DOCTYPE svg PUBLIC "-//W3C//DTD SVG 1.1//EN"
 "http://www.w3.org/Graphics/SVG/1.1/DTD/svg11.dtd">
<!-- Generated by graphviz version 2.40.1 (20161225.0304)
 -->
<!-- Title: %3 Pages: 1 -->
<svg width="387pt" height="422pt"
 viewBox="0.00 0.00 387.00 422.00" xmlns="http://www.w3.org/2000/svg" xmlns:xlink="http://www.w3.org/1999/xlink">
<g id="graph0" class="graph" transform="scale(1 1) rotate(0) translate(4 418)">
<title>%3</title>
<polygon fill="#ffffff" stroke="transparent" points="-4,4 -4,-418 383,-418 383,4 -4,4"/>
<!-- _node0 -->
<g id="node1" class="node">
<title>_node0</title>
<g id="a_node1"><a xlink:href="index.html" xlink:title="html">
<polygon fill="none" stroke="#000000" stroke-width="2" points="379,-225 325,-225 325,-189 379,-189 379,-225"/>
<text text-anchor="middle" x="352" y="-203.3" font-family="Times,serif" font-size="14.00" fill="#000000">html</text>
</a>
</g>
</g>
<!-- _node1 -->
<g id="node2" class="node">
<title>_node1</title>
<g id="a_node2"><a xlink:href="../artefact/class_overview/index.html" xlink:title="artefact::class_overview">
<polygon fill="none" stroke="#000000" points="215,-414 67,-414 67,-378 215,-378 215,-414"/>
<text text-anchor="middle" x="141" y="-392.3" font-family="Times,serif" font-size="14.00" fill="#000000">artefact::class_overview</text>
</a>
</g>
</g>
<!-- _node1&#45;&gt;_node0 -->
<g id="edge1" class="edge">
<title>_node1&#45;&gt;_node0</title>
<g id="a_edge1"><a xlink:href="../../dependencies-between-packages/-~artefact~class_overview,-~html.svg" xlink:title="2">
<path fill="none" stroke="#000000" d="M215.1009,-394.5591C238.4003,-390.9474 262.9827,-383.5205 282,-369 324.7758,-336.3389 341.8067,-272.2252 348.2834,-235.2006"/>
<polygon fill="#000000" stroke="#000000" points="351.778,-235.5129 349.9075,-225.0845 344.8665,-234.4032 351.778,-235.5129"/>
</a>
</g>
<g id="a_edge1&#45;label"><a xlink:href="../../dependencies-between-packages/-~artefact~class_overview,-~html.svg" xlink:title="2">
<text text-anchor="middle" x="303.5" y="-352.8" font-family="Times,serif" font-size="14.00" fill="#000000">2</text>
</a>
</g>
</g>
<!-- _node2 -->
<g id="node3" class="node">
<title>_node2</title>
<g id="a_node3"><a xlink:href="../artefact/overview/index.html" xlink:title="artefact::overview">
<polygon fill="none" stroke="#000000" points="198.5,-360 83.5,-360 83.5,-324 198.5,-324 198.5,-360"/>
<text text-anchor="middle" x="141" y="-338.3" font-family="Times,serif" font-size="14.00" fill="#000000">artefact::overview</text>
</a>
</g>
</g>
<!-- _node2&#45;&gt;_node0 -->
<g id="edge2" class="edge">
<title>_node2&#45;&gt;_node0</title>
<g id="a_edge2"><a xlink:href="../../dependencies-between-packages/-~artefact~overview,-~html.svg" xlink:title="9">
<path fill="none" stroke="#000000" d="M198.8226,-341.2023C226.0087,-338.3827 257.7056,-331.3532 282,-315 310.9637,-295.5038 330.6492,-259.5707 341.5921,-234.5299"/>
<polygon fill="#000000" stroke="#000000" points="344.8654,-235.7741 345.489,-225.1976 338.4059,-233.0768 344.8654,-235.7741"/>
</a>
</g>
<g id="a_edge2&#45;label"><a xlink:href="../../dependencies-between-packages/-~artefact~overview,-~html.svg" xlink:title="9">
<text text-anchor="middle" x="303.5" y="-302.8" font-family="Times,serif" font-size="14.00" fill="#000000">9</text>
</a>
</g>
</g>
<!-- _node3 -->
<g id="node4" class="node">
<title>_node3</title>
<g id="a_node4"><a xlink:href="../artefact/package_overview/index.html" xlink:title="artefact::package_overview">
<polygon fill="none" stroke="#000000" points="224,-306 58,-306 58,-270 224,-270 224,-306"/>
<text text-anchor="middle" x="141" y="-284.3" font-family="Times,serif" font-size="14.00" fill="#000000">artefact::package_overview</text>
</a>
</g>
</g>
<!-- _node3&#45;&gt;_node0 -->
<g id="edge3" class="edge">
<title>_node3&#45;&gt;_node0</title>
<g id="a_edge3"><a xlink:href="../../dependencies-between-packages/-~artefact~package_overview,-~html.svg" xlink:title="2">
<path fill="none" stroke="#000000" d="M224.2575,-278.7218C243.7464,-274.7514 264.0466,-269.0851 282,-261 297.9575,-253.8137 313.5869,-242.3162 326.0147,-231.7737"/>
<polygon fill="#000000" stroke="#000000" points="328.4823,-234.2648 333.6905,-225.0385 323.8654,-229.0032 328.4823,-234.2648"/>
</a>
</g>
<g id="a_edge3&#45;label"><a xlink:href="../../dependencies-between-packages/-~artefact~package_overview,-~html.svg" xlink:title="2">
<text text-anchor="middle" x="303.5" y="-253.8" font-family="Times,serif" font-size="14.00" fill="#000000">2</text>
</a>
</g>
</g>
<!-- _node4 -->
<g id="node5" class="node">
<title>_node4</title>
<g id="a_node5"><a xlink:href="../artefact/packages_with_cyclic_dependencies/index.html" xlink:title="artefact::packages_with_cyclic_dependencies">
<polygon fill="none" stroke="#000000" points="272.5,-252 9.5,-252 9.5,-216 272.5,-216 272.5,-252"/>
<text text-anchor="middle" x="141" y="-230.3" font-family="Times,serif" font-size="14.00" fill="#000000">artefact::packages_with_cyclic_dependencies</text>
</a>
</g>
</g>
<!-- _node4&#45;&gt;_node0 -->
<g id="edge4" class="edge">
<title>_node4&#45;&gt;_node0</title>
<g id="a_edge4"><a xlink:href="../../dependencies-between-packages/-~artefact~packages_with_cyclic_dependencies,-~html.svg" xlink:title="8">
<path fill="none" stroke="#000000" d="M272.5306,-217.1691C287.782,-215.2175 302.2593,-213.3649 314.576,-211.7889"/>
<polygon fill="#000000" stroke="#000000" points="315.3339,-215.2205 324.8087,-210.4795 314.4453,-208.2771 315.3339,-215.2205"/>
</a>
</g>
<g id="a_edge4&#45;label"><a xlink:href="../../dependencies-between-packages/-~artefact~packages_with_cyclic_dependencies,-~html.svg" xlink:title="8">
<text text-anchor="middle" x="303.5" y="-216.8" font-family="Times,serif" font-size="14.00" fill="#000000">8</text>
</a>
</g>
</g>
<!-- _node5 -->
<g id="node6" class="node">
<title>_node5</title>
<g id="a_node6"><a xlink:href="../artefact/stable_dependency_principle_violations/index.html" xlink:title="artefact::stable_dependency_principle_violations">
<polygon fill="none" stroke="#000000" points="282,-198 0,-198 0,-162 282,-162 282,-198"/>
<text text-anchor="middle" x="141" y="-176.3" font-family="Times,serif" font-size="14.00" fill="#000000">artefact::stable_dependency_principle_violations</text>
</a>
</g>
</g>
<!-- _node5&#45;&gt;_node0 -->
<g id="edge5" class="edge">
<title>_node5&#45;&gt;_node0</title>
<g id="a_edge5"><a xlink:href="../../dependencies-between-packages/-~artefact~stable_dependency_principle_violations,-~html.svg" xlink:title="8">
<path fill="none" stroke="#000000" d="M282.1175,-188.8683C290.5628,-190.0751 298.9094,-191.445 307,-193 309.6214,-193.5038 312.3054,-194.1066 314.9937,-194.775"/>
<polygon fill="#000000" stroke="#000000" points="314.0724,-198.1515 324.6422,-197.4226 315.9248,-191.401 314.0724,-198.1515"/>
</a>
</g>
<g id="a_edge5&#45;label"><a xlink:href="../../dependencies-between-packages/-~artefact~stable_dependency_principle_violations,-~html.svg" xlink:title="8">
<text text-anchor="middle" x="303.5" y="-196.8" font-family="Times,serif" font-size="14.00" fill="#000000">8</text>
</a>
</g>
</g>
<!-- _node6 -->
<g id="node7" class="node">
<title>_node6</title>
<g id="a_node7"><a xlink:href="../artefact/function_overview/index.html" xlink:title="artefact::function_overview">
<polygon fill="none" stroke="#000000" points="224.5,-144 57.5,-144 57.5,-108 224.5,-108 224.5,-144"/>
<text text-anchor="middle" x="141" y="-122.3" font-family="Times,serif" font-size="14.00" fill="#000000">artefact::function_overview</text>
</a>
</g>
</g>
<!-- _node6&#45;&gt;_node0 -->
<g id="edge6" class="edge">
<title>_node6&#45;&gt;_node0</title>
<g id="a_edge6"><a xlink:href="../../dependencies-between-packages/-~artefact~function_overview,-~html.svg" xlink:title="2">
<path fill="none" stroke="#000000" d="M224.6276,-135.3538C244.0033,-139.3204 264.1603,-144.966 282,-153 297.9575,-160.1863 313.5869,-171.6838 326.0147,-182.2263"/>
<polygon fill="#000000" stroke="#000000" points="323.8654,-184.9968 333.6905,-188.9615 328.4823,-179.7352 323.8654,-184.9968"/>
</a>
</g>
<g id="a_edge6&#45;label"><a xlink:href="../../dependencies-between-packages/-~artefact~function_overview,-~html.svg" xlink:title="2">
<text text-anchor="middle" x="303.5" y="-169.8" font-family="Times,serif" font-size="14.00" fill="#000000">2</text>
</a>
</g>
</g>
<!-- _node7 -->
<g id="node8" class="node">
<title>_node7</title>
<g id="a_node8"><a xlink:href="../artefact/variable_overview/index.html" xlink:title="artefact::variable_overview">
<polygon fill="none" stroke="#000000" points="223.5,-90 58.5,-90 58.5,-54 223.5,-54 223.5,-90"/>
<text text-anchor="middle" x="141" y="-68.3" font-family="Times,serif" font-size="14.00" fill="#000000">artefact::variable_overview</text>
</a>
</g>
</g>
<!-- _node7&#45;&gt;_node0 -->
<g id="edge7" class="edge">
<title>_node7&#45;&gt;_node0</title>
<g id="a_edge7"><a xlink:href="../../dependencies-between-packages/-~artefact~variable_overview,-~html.svg" xlink:title="2">
<path fill="none" stroke="#000000" d="M223.6346,-76.4996C243.984,-80.5491 264.8388,-87.4484 282,-99 310.9637,-118.4962 330.6492,-154.4293 341.5921,-179.4701"/>
<polygon fill="#000000" stroke="#000000" points="338.4059,-180.9232 345.489,-188.8024 344.8654,-178.2259 338.4059,-180.9232"/>
</a>
</g>
<g id="a_edge7&#45;label"><a xlink:href="../../dependencies-between-packages/-~artefact~variable_overview,-~html.svg" xlink:title="2">
<text text-anchor="middle" x="303.5" y="-122.8" font-family="Times,serif" font-size="14.00" fill="#000000">2</text>
</a>
</g>
</g>
<!-- _node8 -->
<g id="node9" class="node">
<title>_node8</title>
<g id="a_node9"><a xlink:href="../artefact/index.html" xlink:title="artefact">
<polygon fill="none" stroke="#000000" points="169.5,-36 112.5,-36 112.5,0 169.5,0 169.5,-36"/>
<text text-anchor="middle" x="141" y="-14.3" font-family="Times,serif" font-size="14.00" fill="#000000">artefact</text>
</a>
</g>
</g>
<!-- _node8&#45;&gt;_node0 -->
<g id="edge8" class="edge">
<title>_node8&#45;&gt;_node0</title>
<g id="a_edge8"><a xlink:href="../../dependencies-between-packages/-~artefact,-~html.svg" xlink:title="2">
<path fill="none" stroke="#000000" d="M169.6357,-16.3955C200.4158,-16.1571 249.3154,-20.2471 282,-45 324.9041,-77.4924 341.8872,-141.6689 348.3213,-178.7495"/>
<polygon fill="#000000" stroke="#000000" points="344.9055,-179.5559 349.9331,-188.8819 351.8186,-178.4562 344.9055,-179.5559"/>
</a>
</g>
<g id="a_edge8&#45;label"><a xlink:href="../../dependencies-between-packages/-~artefact,-~html.svg" xlink:title="2">
<text text-anchor="middle" x="303.5" y="-71.8" font-family="Times,serif" font-size="14.00" fill="#000000">2</text>
</a>
</g>
</g>
</g>
</svg>
