digraph {
    rankdir=LR
    subgraph cluster_0 {
        label="artefact::package_dependencies"
        URL="../index.html"
        _node0 [
            shape="box"
            style="bold"
            label="Artefact"
            URL="index.html"
        ]
        _node1 [
            shape="box"
            label="ArtefactFactory"
            URL="../ArtefactFactory/index.html"
        ]
    }
    subgraph cluster_1 {
        label="artefact"
        URL="../../index.html"
        _node2 [
            shape="box"
            label="Artefact"
            URL="../../Artefact/index.html"
        ]
        _node3 [
            shape="box"
            label="Environment"
            URL="../../Environment/index.html"
        ]
        _node4 [
            shape="box"
            label="generateGraphvizSvg"
            URL="../../generateGraphvizSvg/index.html"
        ]
        _node5 [
            shape="box"
            label="Url"
            URL="../../Url/index.html"
        ]
        _node6 [
            shape="box"
            label="PathForNode"
            URL="../../PathForNode/index.html"
        ]
        _node7 [
            shape="box"
            label="Path"
            URL="../../Path/index.html"
        ]
        _node8 [
            shape="box"
            label="QueueAdder"
            URL="../../QueueAdder/index.html"
        ]
    }
    subgraph cluster_2 {
        label="ast"
        URL="../../../ast/index.html"
        _node9 [
            shape="box"
            label="Node"
            URL="../../../ast/Node/index.html"
        ]
    }
    subgraph cluster_3 {
        label="ast::graph"
        URL="../../../ast/graph/index.html"
        _node10 [
            shape="box"
            label="Graph"
            URL="../../../ast/graph/Graph/index.html"
        ]
        _node11 [
            shape="box"
            label="buildGraph"
            URL="../../../ast/graph/buildGraph/index.html"
        ]
    }
    subgraph cluster_4 {
        label="ast::specification"
        URL="../../../ast/specification/index.html"
        _node12 [
            shape="box"
            label="PackageNode"
            URL="../../../ast/specification/PackageNode/index.html"
        ]
    }
    subgraph cluster_5 {
        label="graphviz"
        URL="../../../graphviz/index.html"
        _node13 [
            shape="box"
            label="StreamWriter"
            URL="../../../graphviz/StreamWriter/index.html"
        ]
        _node14 [
            shape="box"
            label="Writer"
            URL="../../../graphviz/Writer/index.html"
        ]
        _node15 [
            shape="box"
            label="Shape"
            URL="../../../graphviz/Shape/index.html"
        ]
    }
    subgraph cluster_6 {
        label="artefact::factory"
        URL="../../factory/index.html"
        _node16 [
            shape="box"
            label="Factory"
            URL="../../factory/Factory/index.html"
        ]
    }
    _node0 -> _node2 [
        URL="../../../../dependencies-between-packages/-~artefact~package_dependencies,-~artefact.svg"
    ]
    _node0 -> _node9 [
        URL="../../../../dependencies-between-packages/-~artefact~package_dependencies,-~ast.svg"
    ]
    _node0 -> _node1
    _node0 -> _node3 [
        URL="../../../../dependencies-between-packages/-~artefact~package_dependencies,-~artefact.svg"
    ]
    _node0 -> _node4 [
        URL="../../../../dependencies-between-packages/-~artefact~package_dependencies,-~artefact.svg"
    ]
    _node0 -> _node5 [
        URL="../../../../dependencies-between-packages/-~artefact~package_dependencies,-~artefact.svg"
    ]
    _node0 -> _node6 [
        URL="../../../../dependencies-between-packages/-~artefact~package_dependencies,-~artefact.svg"
    ]
    _node0 -> _node7 [
        URL="../../../../dependencies-between-packages/-~artefact~package_dependencies,-~artefact.svg"
    ]
    _node0 -> _node8 [
        URL="../../../../dependencies-between-packages/-~artefact~package_dependencies,-~artefact.svg"
    ]
    _node0 -> _node10 [
        URL="../../../../dependencies-between-packages/-~artefact~package_dependencies,-~ast~graph.svg"
    ]
    _node0 -> _node11 [
        URL="../../../../dependencies-between-packages/-~artefact~package_dependencies,-~ast~graph.svg"
    ]
    _node0 -> _node12 [
        URL="../../../../dependencies-between-packages/-~artefact~package_dependencies,-~ast~specification.svg"
    ]
    _node0 -> _node13 [
        URL="../../../../dependencies-between-packages/-~artefact~package_dependencies,-~graphviz.svg"
    ]
    _node0 -> _node14 [
        URL="../../../../dependencies-between-packages/-~artefact~package_dependencies,-~graphviz.svg"
    ]
    _node0 -> _node15 [
        URL="../../../../dependencies-between-packages/-~artefact~package_dependencies,-~graphviz.svg"
    ]
    _node16 -> _node0 [
        URL="../../../../dependencies-between-packages/-~artefact~factory,-~artefact~package_dependencies.svg"
    ]
}
