digraph {
    rankdir=LR
    _node0 [
        shape="box"
        label="ArtefactFactory"
        URL="ArtefactFactory/index.html"
    ]
    _node1 [
        shape="box"
        label="Artefact"
        URL="Artefact/index.html"
    ]
    _node1 -> _node0
}
