<?xml version="1.0" encoding="UTF-8" standalone="no"?>
<!DOCTYPE svg PUBLIC "-//W3C//DTD SVG 1.1//EN"
 "http://www.w3.org/Graphics/SVG/1.1/DTD/svg11.dtd">
<!-- Generated by graphviz version 2.40.1 (20161225.0304)
 -->
<!-- Title: %3 Pages: 1 -->
<svg width="394pt" height="368pt"
 viewBox="0.00 0.00 394.00 368.00" xmlns="http://www.w3.org/2000/svg" xmlns:xlink="http://www.w3.org/1999/xlink">
<g id="graph0" class="graph" transform="scale(1 1) rotate(0) translate(4 364)">
<title>%3</title>
<polygon fill="#ffffff" stroke="transparent" points="-4,4 -4,-364 390,-364 390,4 -4,4"/>
<!-- _node0 -->
<g id="node1" class="node">
<title>_node0</title>
<g id="a_node1"><a xlink:href="index.html" xlink:title="driver">
<polygon fill="none" stroke="#000000" stroke-width="2" points="240,-198 186,-198 186,-162 240,-162 240,-198"/>
<text text-anchor="middle" x="213" y="-176.3" font-family="Times,serif" font-size="14.00" fill="#000000">driver</text>
</a>
</g>
</g>
<!-- _node1 -->
<g id="node2" class="node">
<title>_node1</title>
<g id="a_node2"><a xlink:href="../artefact/index.html" xlink:title="artefact">
<polygon fill="none" stroke="#000000" points="363,-360 306,-360 306,-324 363,-324 363,-360"/>
<text text-anchor="middle" x="334.5" y="-338.3" font-family="Times,serif" font-size="14.00" fill="#000000">artefact</text>
</a>
</g>
</g>
<!-- _node0&#45;&gt;_node1 -->
<g id="edge1" class="edge">
<title>_node0&#45;&gt;_node1</title>
<g id="a_edge1"><a xlink:href="../../dependencies-between-packages/-~driver,-~artefact.svg" xlink:title="1">
<path fill="none" stroke="#000000" d="M218.5148,-198.3191C227.7905,-226.4873 248.9145,-280.7599 283,-315 287.152,-319.1709 292.0837,-322.8423 297.2246,-326.0254"/>
<polygon fill="#000000" stroke="#000000" points="295.5379,-329.0922 305.9733,-330.9235 298.9575,-322.9843 295.5379,-329.0922"/>
</a>
</g>
<g id="a_edge1&#45;label"><a xlink:href="../../dependencies-between-packages/-~driver,-~artefact.svg" xlink:title="1">
<text text-anchor="middle" x="261.5" y="-295.8" font-family="Times,serif" font-size="14.00" fill="#000000">1</text>
</a>
</g>
</g>
<!-- _node2 -->
<g id="node3" class="node">
<title>_node2</title>
<g id="a_node3"><a xlink:href="../logger/index.html" xlink:title="logger">
<polygon fill="none" stroke="#000000" points="361.5,-306 307.5,-306 307.5,-270 361.5,-270 361.5,-306"/>
<text text-anchor="middle" x="334.5" y="-284.3" font-family="Times,serif" font-size="14.00" fill="#000000">logger</text>
</a>
</g>
</g>
<!-- _node0&#45;&gt;_node2 -->
<g id="edge2" class="edge">
<title>_node0&#45;&gt;_node2</title>
<g id="a_edge2"><a xlink:href="../../dependencies-between-packages/-~driver,-~logger.svg" xlink:title="1">
<path fill="none" stroke="#000000" d="M225.561,-198.1657C238.4503,-215.8381 259.8457,-242.6372 283,-261 287.7125,-264.7373 293.0208,-268.1974 298.3925,-271.307"/>
<polygon fill="#000000" stroke="#000000" points="296.94,-274.5009 307.3984,-276.1962 300.2799,-268.349 296.94,-274.5009"/>
</a>
</g>
<g id="a_edge2&#45;label"><a xlink:href="../../dependencies-between-packages/-~driver,-~logger.svg" xlink:title="1">
<text text-anchor="middle" x="261.5" y="-246.8" font-family="Times,serif" font-size="14.00" fill="#000000">1</text>
</a>
</g>
</g>
<!-- _node3 -->
<g id="node4" class="node">
<title>_node3</title>
<g id="a_node4"><a xlink:href="../ast/index.html" xlink:title="ast">
<polygon fill="none" stroke="#000000" points="361.5,-252 307.5,-252 307.5,-216 361.5,-216 361.5,-252"/>
<text text-anchor="middle" x="334.5" y="-230.3" font-family="Times,serif" font-size="14.00" fill="#000000">ast</text>
</a>
</g>
</g>
<!-- _node0&#45;&gt;_node3 -->
<g id="edge3" class="edge">
<title>_node0&#45;&gt;_node3</title>
<g id="a_edge3"><a xlink:href="../../dependencies-between-packages/-~driver,-~ast.svg" xlink:title="1">
<path fill="none" stroke="#000000" d="M240.267,-192.1187C257.3068,-199.6919 279.4577,-209.5368 298.0017,-217.7785"/>
<polygon fill="#000000" stroke="#000000" points="296.7644,-221.0587 307.324,-221.9218 299.6074,-214.662 296.7644,-221.0587"/>
</a>
</g>
<g id="a_edge3&#45;label"><a xlink:href="../../dependencies-between-packages/-~driver,-~ast.svg" xlink:title="1">
<text text-anchor="middle" x="261.5" y="-205.8" font-family="Times,serif" font-size="14.00" fill="#000000">1</text>
</a>
</g>
</g>
<!-- _node4 -->
<g id="node5" class="node">
<title>_node4</title>
<g id="a_node5"><a xlink:href="../graph/index.html" xlink:title="graph">
<polygon fill="none" stroke="#000000" points="361.5,-198 307.5,-198 307.5,-162 361.5,-162 361.5,-198"/>
<text text-anchor="middle" x="334.5" y="-176.3" font-family="Times,serif" font-size="14.00" fill="#000000">graph</text>
</a>
</g>
</g>
<!-- _node0&#45;&gt;_node4 -->
<g id="edge4" class="edge">
<title>_node0&#45;&gt;_node4</title>
<g id="a_edge4"><a xlink:href="../../dependencies-between-packages/-~driver,-~graph.svg" xlink:title="3">
<path fill="none" stroke="#000000" d="M240.267,-180C257.0723,-180 278.849,-180 297.2341,-180"/>
<polygon fill="#000000" stroke="#000000" points="297.3241,-183.5001 307.324,-180 297.324,-176.5001 297.3241,-183.5001"/>
</a>
</g>
<g id="a_edge4&#45;label"><a xlink:href="../../dependencies-between-packages/-~driver,-~graph.svg" xlink:title="3">
<text text-anchor="middle" x="261.5" y="-183.8" font-family="Times,serif" font-size="14.00" fill="#000000">3</text>
</a>
</g>
</g>
<!-- _node5 -->
<g id="node6" class="node">
<title>_node5</title>
<g id="a_node6"><a xlink:href="../ast/repository/index.html" xlink:title="ast::repository">
<polygon fill="none" stroke="#000000" points="381.5,-144 287.5,-144 287.5,-108 381.5,-108 381.5,-144"/>
<text text-anchor="middle" x="334.5" y="-122.3" font-family="Times,serif" font-size="14.00" fill="#000000">ast::repository</text>
</a>
</g>
</g>
<!-- _node0&#45;&gt;_node5 -->
<g id="edge5" class="edge">
<title>_node0&#45;&gt;_node5</title>
<g id="a_edge5"><a xlink:href="../../dependencies-between-packages/-~driver,-~ast~repository.svg" xlink:title="2">
<path fill="none" stroke="#000000" d="M240.267,-167.8813C253.3614,-162.0616 269.4741,-154.9004 284.6488,-148.1561"/>
<polygon fill="#000000" stroke="#000000" points="286.224,-151.2862 293.9407,-144.0264 283.381,-144.8895 286.224,-151.2862"/>
</a>
</g>
<g id="a_edge5&#45;label"><a xlink:href="../../dependencies-between-packages/-~driver,-~ast~repository.svg" xlink:title="2">
<text text-anchor="middle" x="261.5" y="-162.8" font-family="Times,serif" font-size="14.00" fill="#000000">2</text>
</a>
</g>
</g>
<!-- _node6 -->
<g id="node7" class="node">
<title>_node6</title>
<g id="a_node7"><a xlink:href="../metric/index.html" xlink:title="metric">
<polygon fill="none" stroke="#000000" points="361.5,-90 307.5,-90 307.5,-54 361.5,-54 361.5,-90"/>
<text text-anchor="middle" x="334.5" y="-68.3" font-family="Times,serif" font-size="14.00" fill="#000000">metric</text>
</a>
</g>
</g>
<!-- _node0&#45;&gt;_node6 -->
<g id="edge6" class="edge">
<title>_node0&#45;&gt;_node6</title>
<g id="a_edge6"><a xlink:href="../../dependencies-between-packages/-~driver,-~metric.svg" xlink:title="1">
<path fill="none" stroke="#000000" d="M225.561,-161.8343C238.4503,-144.1619 259.8457,-117.3628 283,-99 287.7125,-95.2627 293.0208,-91.8026 298.3925,-88.693"/>
<polygon fill="#000000" stroke="#000000" points="300.2799,-91.651 307.3984,-83.8038 296.94,-85.4991 300.2799,-91.651"/>
</a>
</g>
<g id="a_edge6&#45;label"><a xlink:href="../../dependencies-between-packages/-~driver,-~metric.svg" xlink:title="1">
<text text-anchor="middle" x="261.5" y="-124.8" font-family="Times,serif" font-size="14.00" fill="#000000">1</text>
</a>
</g>
</g>
<!-- _node7 -->
<g id="node8" class="node">
<title>_node7</title>
<g id="a_node8"><a xlink:href="../artefact/factory/index.html" xlink:title="artefact::factory">
<polygon fill="none" stroke="#000000" points="386,-36 283,-36 283,0 386,0 386,-36"/>
<text text-anchor="middle" x="334.5" y="-14.3" font-family="Times,serif" font-size="14.00" fill="#000000">artefact::factory</text>
</a>
</g>
</g>
<!-- _node0&#45;&gt;_node7 -->
<g id="edge7" class="edge">
<title>_node0&#45;&gt;_node7</title>
<g id="a_edge7"><a xlink:href="../../dependencies-between-packages/-~driver,-~artefact~factory.svg" xlink:title="1">
<path fill="none" stroke="#000000" d="M218.5148,-161.6809C227.7905,-133.5127 248.9145,-79.2401 283,-45 283.9214,-44.0744 284.8813,-43.1734 285.8733,-42.2968"/>
<polygon fill="#000000" stroke="#000000" points="288.204,-44.92 294.0047,-36.0542 283.9413,-39.3676 288.204,-44.92"/>
</a>
</g>
<g id="a_edge7&#45;label"><a xlink:href="../../dependencies-between-packages/-~driver,-~artefact~factory.svg" xlink:title="1">
<text text-anchor="middle" x="261.5" y="-77.8" font-family="Times,serif" font-size="14.00" fill="#000000">1</text>
</a>
</g>
</g>
<!-- _node8 -->
<g id="node9" class="node">
<title>_node8</title>
<g id="a_node9"><a xlink:href="../feature_test/filesystem/index.html" xlink:title="feature_test::filesystem">
<polygon fill="none" stroke="#000000" points="143,-252 0,-252 0,-216 143,-216 143,-252"/>
<text text-anchor="middle" x="71.5" y="-230.3" font-family="Times,serif" font-size="14.00" fill="#000000">feature_test::filesystem</text>
</a>
</g>
</g>
<!-- _node8&#45;&gt;_node0 -->
<g id="edge8" class="edge">
<title>_node8&#45;&gt;_node0</title>
<g id="a_edge8"><a xlink:href="../../dependencies-between-packages/-~feature_test~filesystem,-~driver.svg" xlink:title="1">
<path fill="none" stroke="#000000" d="M122.7675,-215.9613C137.4343,-210.6506 153.3997,-204.7256 168,-199 170.8298,-197.8903 173.7494,-196.7188 176.6782,-195.5247"/>
<polygon fill="#000000" stroke="#000000" points="178.0636,-198.7393 185.965,-191.6811 175.3866,-192.2713 178.0636,-198.7393"/>
</a>
</g>
<g id="a_edge8&#45;label"><a xlink:href="../../dependencies-between-packages/-~feature_test~filesystem,-~driver.svg" xlink:title="1">
<text text-anchor="middle" x="164.5" y="-204.8" font-family="Times,serif" font-size="14.00" fill="#000000">1</text>
</a>
</g>
</g>
<!-- _node9 -->
<g id="node10" class="node">
<title>_node9</title>
<g id="a_node10"><a xlink:href="../index.html" xlink:title="::">
<polygon fill="none" stroke="#000000" points="98.5,-198 44.5,-198 44.5,-162 98.5,-162 98.5,-198"/>
<text text-anchor="middle" x="71.5" y="-176.3" font-family="Times,serif" font-size="14.00" fill="#000000">::</text>
</a>
</g>
</g>
<!-- _node9&#45;&gt;_node0 -->
<g id="edge9" class="edge">
<title>_node9&#45;&gt;_node0</title>
<g id="a_edge9"><a xlink:href="../../dependencies-between-packages/-,-~driver.svg" xlink:title="2">
<path fill="none" stroke="#000000" d="M98.7826,-180C120.6091,-180 151.447,-180 175.5792,-180"/>
<polygon fill="#000000" stroke="#000000" points="175.8012,-183.5001 185.8011,-180 175.8011,-176.5001 175.8012,-183.5001"/>
</a>
</g>
<g id="a_edge9&#45;label"><a xlink:href="../../dependencies-between-packages/-,-~driver.svg" xlink:title="2">
<text text-anchor="middle" x="164.5" y="-183.8" font-family="Times,serif" font-size="14.00" fill="#000000">2</text>
</a>
</g>
</g>
<!-- _node10 -->
<g id="node11" class="node">
<title>_node10</title>
<g id="a_node11"><a xlink:href="../feature_test/index.html" xlink:title="feature_test">
<polygon fill="none" stroke="#000000" points="111.5,-144 31.5,-144 31.5,-108 111.5,-108 111.5,-144"/>
<text text-anchor="middle" x="71.5" y="-122.3" font-family="Times,serif" font-size="14.00" fill="#000000">feature_test</text>
</a>
</g>
</g>
<!-- _node10&#45;&gt;_node0 -->
<g id="edge10" class="edge">
<title>_node10&#45;&gt;_node0</title>
<g id="a_edge10"><a xlink:href="../../dependencies-between-packages/-~feature_test,-~driver.svg" xlink:title="1">
<path fill="none" stroke="#000000" d="M111.5811,-140.015C128.9955,-146.2386 149.5837,-153.7779 168,-161 170.8298,-162.1097 173.7494,-163.2812 176.6782,-164.4753"/>
<polygon fill="#000000" stroke="#000000" points="175.3866,-167.7287 185.965,-168.3189 178.0636,-161.2607 175.3866,-167.7287"/>
</a>
</g>
<g id="a_edge10&#45;label"><a xlink:href="../../dependencies-between-packages/-~feature_test,-~driver.svg" xlink:title="1">
<text text-anchor="middle" x="164.5" y="-164.8" font-family="Times,serif" font-size="14.00" fill="#000000">1</text>
</a>
</g>
</g>
</g>
</svg>
