<?xml version="1.0" encoding="UTF-8" standalone="no"?>
<!DOCTYPE svg PUBLIC "-//W3C//DTD SVG 1.1//EN"
 "http://www.w3.org/Graphics/SVG/1.1/DTD/svg11.dtd">
<!-- Generated by graphviz version 2.40.1 (20161225.0304)
 -->
<!-- Title: %3 Pages: 1 -->
<svg width="845pt" height="548pt"
 viewBox="0.00 0.00 845.00 547.72" xmlns="http://www.w3.org/2000/svg" xmlns:xlink="http://www.w3.org/1999/xlink">
<g id="graph0" class="graph" transform="scale(1 1) rotate(0) translate(4 543.7243)">
<title>%3</title>
<polygon fill="#ffffff" stroke="transparent" points="-4,4 -4,-543.7243 841,-543.7243 841,4 -4,4"/>
<text text-anchor="middle" x="418.5" y="-7.8" font-family="Times,serif" font-size="14.00" fill="#000000">GraphParser</text>
<g id="clust1" class="cluster">
<title>cluster_0</title>
<polygon fill="none" stroke="#000000" points="8,-276.7243 8,-531.7243 705,-531.7243 705,-276.7243 8,-276.7243"/>
<text text-anchor="middle" x="356.5" y="-516.5243" font-family="Times,serif" font-size="14.00" fill="#000000">methods</text>
</g>
<g id="clust2" class="cluster">
<title>cluster_1</title>
<polygon fill="none" stroke="#000000" points="725,-84.7243 725,-321.7243 829,-321.7243 829,-84.7243 725,-84.7243"/>
<text text-anchor="middle" x="777" y="-306.5243" font-family="Times,serif" font-size="14.00" fill="#000000">fields</text>
</g>
<!-- _node0 -->
<g id="node1" class="node">
<title>_node0</title>
<polygon fill="none" stroke="#000000" points="100,-374.7243 16,-374.7243 16,-338.7243 100,-338.7243 100,-374.7243"/>
<text text-anchor="middle" x="58" y="-353.0243" font-family="Times,serif" font-size="14.00" fill="#000000">GraphParser</text>
</g>
<!-- _node9 -->
<g id="node10" class="node">
<title>_node9</title>
<polygon fill="none" stroke="#000000" points="219.5,-374.7243 145.5,-374.7243 145.5,-338.7243 219.5,-338.7243 219.5,-374.7243"/>
<text text-anchor="middle" x="182.5" y="-353.0243" font-family="Times,serif" font-size="14.00" fill="#000000">parseClass</text>
</g>
<!-- _node0&#45;&gt;_node9 -->
<g id="edge5" class="edge">
<title>_node0&#45;&gt;_node9</title>
<path fill="none" stroke="#000000" d="M100.15,-356.7243C111.3841,-356.7243 123.5966,-356.7243 135.092,-356.7243"/>
<polygon fill="#000000" stroke="#000000" points="135.3988,-360.2244 145.3988,-356.7243 135.3987,-353.2244 135.3988,-360.2244"/>
</g>
<!-- _node10 -->
<g id="node11" class="node">
<title>_node10</title>
<polygon fill="none" stroke="#000000" points="227.5,-320.7243 137.5,-320.7243 137.5,-284.7243 227.5,-284.7243 227.5,-320.7243"/>
<text text-anchor="middle" x="182.5" y="-299.0243" font-family="Times,serif" font-size="14.00" fill="#000000">parsePackage</text>
</g>
<!-- _node0&#45;&gt;_node10 -->
<g id="edge6" class="edge">
<title>_node0&#45;&gt;_node10</title>
<path fill="none" stroke="#000000" d="M99.803,-338.5929C109.8629,-334.2296 120.7241,-329.5187 131.1628,-324.991"/>
<polygon fill="#000000" stroke="#000000" points="132.8139,-328.09 140.5954,-320.8998 130.0284,-321.6681 132.8139,-328.09"/>
</g>
<!-- _node11 -->
<g id="node12" class="node">
<title>_node11</title>
<polygon fill="none" stroke="#000000" points="229,-446.7243 136,-446.7243 136,-410.7243 229,-410.7243 229,-446.7243"/>
<text text-anchor="middle" x="182.5" y="-425.0243" font-family="Times,serif" font-size="14.00" fill="#000000">parseFunction</text>
</g>
<!-- _node0&#45;&gt;_node11 -->
<g id="edge7" class="edge">
<title>_node0&#45;&gt;_node11</title>
<path fill="none" stroke="#000000" d="M89.4166,-374.8929C105.4884,-384.1875 125.2286,-395.6035 142.3883,-405.5272"/>
<polygon fill="#000000" stroke="#000000" points="140.6846,-408.585 151.0934,-410.5615 144.189,-402.5253 140.6846,-408.585"/>
</g>
<!-- _node12 -->
<g id="node13" class="node">
<title>_node12</title>
<polygon fill="none" stroke="#000000" points="228.5,-500.7243 136.5,-500.7243 136.5,-464.7243 228.5,-464.7243 228.5,-500.7243"/>
<text text-anchor="middle" x="182.5" y="-479.0243" font-family="Times,serif" font-size="14.00" fill="#000000">parseVariable</text>
</g>
<!-- _node0&#45;&gt;_node12 -->
<g id="edge8" class="edge">
<title>_node0&#45;&gt;_node12</title>
<path fill="none" stroke="#000000" d="M69.226,-374.8565C83.0247,-396.1052 108.0719,-431.4863 136,-455.7243 137.1457,-456.7186 138.3332,-457.6954 139.5528,-458.6531"/>
<polygon fill="#000000" stroke="#000000" points="137.7926,-461.6974 147.9604,-464.6751 141.8687,-456.0066 137.7926,-461.6974"/>
</g>
<!-- _node14 -->
<g id="node15" class="node">
<title>_node14</title>
<polygon fill="none" stroke="#000000" points="804,-128.7243 750,-128.7243 750,-92.7243 804,-92.7243 804,-128.7243"/>
<text text-anchor="middle" x="777" y="-107.0243" font-family="Times,serif" font-size="14.00" fill="#000000">logger</text>
</g>
<!-- _node0&#45;&gt;_node14 -->
<g id="edge1" class="edge">
<title>_node0&#45;&gt;_node14</title>
<path fill="none" stroke="#000000" d="M91.7962,-338.6161C94.8869,-335.9516 97.71,-332.9886 100,-329.7243 141.3618,-270.7636 88.9084,-226.2178 136,-171.7243 189.9124,-109.3378 226.5463,-104.7243 309,-104.7243 309,-104.7243 309,-104.7243 472,-104.7243 568.476,-104.7243 682.0846,-107.7623 739.5946,-109.5148"/>
<polygon fill="#000000" stroke="#000000" points="739.56,-113.0153 749.6634,-109.826 739.7764,-106.0186 739.56,-113.0153"/>
</g>
<!-- _node15 -->
<g id="node16" class="node">
<title>_node15</title>
<polygon fill="none" stroke="#000000" points="804,-290.7243 750,-290.7243 750,-254.7243 804,-254.7243 804,-290.7243"/>
<text text-anchor="middle" x="777" y="-269.0243" font-family="Times,serif" font-size="14.00" fill="#000000">Parser</text>
</g>
<!-- _node0&#45;&gt;_node15 -->
<g id="edge2" class="edge">
<title>_node0&#45;&gt;_node15</title>
<path fill="none" stroke="#000000" d="M89.3829,-338.6349C93.1451,-335.8756 96.7862,-332.885 100,-329.7243 120.5653,-309.4989 111.3507,-290.7047 136,-275.7243 202.1013,-235.5519 231.6488,-256.7243 309,-256.7243 309,-256.7243 309,-256.7243 472,-256.7243 568.59,-256.7243 682.1503,-264.8256 739.6231,-269.4989"/>
<polygon fill="#000000" stroke="#000000" points="739.4311,-272.9949 749.6851,-270.3289 740.0067,-266.0186 739.4311,-272.9949"/>
</g>
<!-- _node16 -->
<g id="node17" class="node">
<title>_node16</title>
<polygon fill="none" stroke="#000000" points="821,-236.7243 733,-236.7243 733,-200.7243 821,-200.7243 821,-236.7243"/>
<text text-anchor="middle" x="777" y="-215.0243" font-family="Times,serif" font-size="14.00" fill="#000000">idToElement</text>
</g>
<!-- _node0&#45;&gt;_node16 -->
<g id="edge3" class="edge">
<title>_node0&#45;&gt;_node16</title>
<path fill="none" stroke="#000000" d="M90.788,-338.4954C94.1452,-335.8259 97.3057,-332.895 100,-329.7243 126.0372,-299.0835 104.2597,-271.4092 136,-246.7243 197.4841,-198.9072 231.1106,-218.7243 309,-218.7243 309,-218.7243 309,-218.7243 472,-218.7243 559.7225,-218.7243 661.6369,-218.7243 722.6387,-218.7243"/>
<polygon fill="#000000" stroke="#000000" points="722.8044,-222.2244 732.8043,-218.7243 722.8043,-215.2244 722.8044,-222.2244"/>
</g>
<!-- _node17 -->
<g id="node18" class="node">
<title>_node17</title>
<polygon fill="none" stroke="#000000" points="804,-182.7243 750,-182.7243 750,-146.7243 804,-146.7243 804,-182.7243"/>
<text text-anchor="middle" x="777" y="-161.0243" font-family="Times,serif" font-size="14.00" fill="#000000">edges</text>
</g>
<!-- _node0&#45;&gt;_node17 -->
<g id="edge4" class="edge">
<title>_node0&#45;&gt;_node17</title>
<path fill="none" stroke="#000000" d="M91.5767,-338.4566C94.7085,-335.8219 97.6013,-332.9096 100,-329.7243 133.4961,-285.2444 94.238,-246.5533 136,-209.7243 194.4724,-158.1587 231.0383,-180.7243 309,-180.7243 309,-180.7243 309,-180.7243 472,-180.7243 568.59,-180.7243 682.1503,-172.623 739.6231,-167.9497"/>
<polygon fill="#000000" stroke="#000000" points="740.0067,-171.43 749.6851,-167.1197 739.4311,-164.4537 740.0067,-171.43"/>
</g>
<!-- _node1 -->
<g id="node2" class="node">
<title>_node1</title>
<polygon fill="none" stroke="#000000" points="85,-320.7243 31,-320.7243 31,-284.7243 85,-284.7243 85,-320.7243"/>
<text text-anchor="middle" x="58" y="-299.0243" font-family="Times,serif" font-size="14.00" fill="#000000">parse</text>
</g>
<!-- _node1&#45;&gt;_node10 -->
<g id="edge10" class="edge">
<title>_node1&#45;&gt;_node10</title>
<path fill="none" stroke="#000000" d="M85.0146,-302.7243C97.4496,-302.7243 112.6815,-302.7243 127.3766,-302.7243"/>
<polygon fill="#000000" stroke="#000000" points="127.4234,-306.2244 137.4234,-302.7243 127.4234,-299.2244 127.4234,-306.2244"/>
</g>
<!-- _node1&#45;&gt;_node14 -->
<g id="edge9" class="edge">
<title>_node1&#45;&gt;_node14</title>
<path fill="none" stroke="#000000" d="M61.1814,-284.646C70.6428,-232.9929 100.1878,-86.4977 136,-55.7243 195.0221,-5.0065 231.1803,-28.7243 309,-28.7243 309,-28.7243 309,-28.7243 472,-28.7243 572.0379,-28.7243 684.3985,-70.3728 740.7074,-94.3059"/>
<polygon fill="#000000" stroke="#000000" points="739.3354,-97.5258 749.9041,-98.2703 742.1064,-91.0976 739.3354,-97.5258"/>
</g>
<!-- _node1&#45;&gt;_node16 -->
<g id="edge12" class="edge">
<title>_node1&#45;&gt;_node16</title>
<path fill="none" stroke="#000000" d="M62.7517,-284.6184C71.6418,-254.6472 93.8183,-195.2098 136,-166.7243 200.3305,-123.2817 231.3748,-142.7243 309,-142.7243 309,-142.7243 309,-142.7243 472,-142.7243 562.4624,-142.7243 663.6587,-174.5922 723.7554,-197.0562"/>
<polygon fill="#000000" stroke="#000000" points="722.8098,-200.4407 733.4011,-200.7134 725.2915,-193.8954 722.8098,-200.4407"/>
</g>
<!-- _node1&#45;&gt;_node17 -->
<g id="edge11" class="edge">
<title>_node1&#45;&gt;_node17</title>
<path fill="none" stroke="#000000" d="M62.1639,-284.5216C73.2046,-237.8967 104.541,-116.0625 136,-90.7243 196.4545,-42.0321 231.3748,-66.7243 309,-66.7243 309,-66.7243 309,-66.7243 472,-66.7243 525.6732,-66.7243 671.7823,-122.4295 740.4367,-149.8435"/>
<polygon fill="#000000" stroke="#000000" points="739.3996,-153.1986 749.9838,-153.673 742.0056,-146.7017 739.3996,-153.1986"/>
</g>
<!-- _node2 -->
<g id="node3" class="node">
<title>_node2</title>
<polygon fill="none" stroke="#000000" points="693,-413.7243 595,-413.7243 595,-377.7243 693,-377.7243 693,-413.7243"/>
<text text-anchor="middle" x="644" y="-392.0243" font-family="Times,serif" font-size="14.00" fill="#000000">storeReference</text>
</g>
<!-- _node2&#45;&gt;_node17 -->
<g id="edge13" class="edge">
<title>_node2&#45;&gt;_node17</title>
<path fill="none" stroke="#000000" d="M693.1631,-379.0784C697.6985,-375.9106 701.7875,-372.1599 705,-367.7243 751.1777,-303.9642 680.3848,-256.5873 725,-191.7243 728.9894,-185.9244 734.6218,-181.2872 740.7175,-177.6078"/>
<polygon fill="#000000" stroke="#000000" points="742.5744,-180.5877 749.8424,-172.8788 739.3534,-174.3727 742.5744,-180.5877"/>
</g>
<!-- _node3 -->
<g id="node4" class="node">
<title>_node3</title>
<polygon fill="none" stroke="#000000" points="671,-467.7243 617,-467.7243 617,-431.7243 671,-431.7243 671,-467.7243"/>
<text text-anchor="middle" x="644" y="-446.0243" font-family="Times,serif" font-size="14.00" fill="#000000">storeId</text>
</g>
<!-- _node3&#45;&gt;_node16 -->
<g id="edge14" class="edge">
<title>_node3&#45;&gt;_node16</title>
<path fill="none" stroke="#000000" d="M671.0164,-444.2487C683.3202,-440.3372 696.9123,-433.7401 705,-422.7243 751.8522,-358.9095 680.1552,-310.9654 725,-245.7243 725.3601,-245.2004 725.7337,-244.6859 726.1198,-244.1808"/>
<polygon fill="#000000" stroke="#000000" points="728.8528,-246.3917 733.3344,-236.7913 723.8441,-241.5015 728.8528,-246.3917"/>
</g>
<!-- _node4 -->
<g id="node5" class="node">
<title>_node4</title>
<polygon fill="none" stroke="#000000" points="697,-358.7243 591,-358.7243 591,-322.7243 697,-322.7243 697,-358.7243"/>
<text text-anchor="middle" x="644" y="-337.0243" font-family="Times,serif" font-size="14.00" fill="#000000">handleUnknown</text>
</g>
<!-- _node4&#45;&gt;_node14 -->
<g id="edge15" class="edge">
<title>_node4&#45;&gt;_node14</title>
<path fill="none" stroke="#000000" d="M646.8766,-322.4706C653.8022,-283.9379 674.7024,-193.2795 725,-137.7243 729.4355,-132.8251 734.9688,-128.6737 740.7571,-125.2059"/>
<polygon fill="#000000" stroke="#000000" points="742.7633,-128.1027 749.9416,-120.3102 739.4706,-121.9255 742.7633,-128.1027"/>
</g>
<!-- _node5 -->
<g id="node6" class="node">
<title>_node5</title>
<polygon fill="none" stroke="#000000" points="518,-320.7243 426,-320.7243 426,-284.7243 518,-284.7243 518,-320.7243"/>
<text text-anchor="middle" x="472" y="-299.0243" font-family="Times,serif" font-size="14.00" fill="#000000">parseChildren</text>
</g>
<!-- _node5&#45;&gt;_node4 -->
<g id="edge17" class="edge">
<title>_node5&#45;&gt;_node4</title>
<path fill="none" stroke="#000000" d="M518.0928,-312.9076C537.3338,-317.1585 559.9992,-322.166 580.7582,-326.7523"/>
<polygon fill="#000000" stroke="#000000" points="580.2529,-330.225 590.7726,-328.9647 581.7631,-323.3898 580.2529,-330.225"/>
</g>
<!-- _node5&#45;&gt;_node15 -->
<g id="edge16" class="edge">
<title>_node5&#45;&gt;_node15</title>
<path fill="none" stroke="#000000" d="M518.3229,-298.1679C578.9102,-292.2085 683.8859,-281.8831 739.6599,-276.3971"/>
<polygon fill="#000000" stroke="#000000" points="740.1962,-279.8613 749.8055,-275.3992 739.5109,-272.8949 740.1962,-279.8613"/>
</g>
<!-- _node6 -->
<g id="node7" class="node">
<title>_node6</title>
<polygon fill="none" stroke="#000000" points="345.5,-386.7243 272.5,-386.7243 272.5,-350.7243 345.5,-350.7243 345.5,-386.7243"/>
<text text-anchor="middle" x="309" y="-365.0243" font-family="Times,serif" font-size="14.00" fill="#000000">parseField</text>
</g>
<!-- _node8 -->
<g id="node9" class="node">
<title>_node8</title>
<polygon fill="none" stroke="#000000" points="539.5,-414.7243 404.5,-414.7243 404.5,-378.7243 539.5,-378.7243 539.5,-414.7243"/>
<text text-anchor="middle" x="472" y="-393.0243" font-family="Times,serif" font-size="14.00" fill="#000000">parseMemberContent</text>
</g>
<!-- _node6&#45;&gt;_node8 -->
<g id="edge18" class="edge">
<title>_node6&#45;&gt;_node8</title>
<path fill="none" stroke="#000000" d="M345.5804,-375.008C360.0961,-377.5015 377.3766,-380.47 394.4273,-383.3989"/>
<polygon fill="#000000" stroke="#000000" points="393.9691,-386.8714 404.4174,-385.115 395.1543,-379.9725 393.9691,-386.8714"/>
</g>
<!-- _node7 -->
<g id="node8" class="node">
<title>_node7</title>
<polygon fill="none" stroke="#000000" points="353,-440.7243 265,-440.7243 265,-404.7243 353,-404.7243 353,-440.7243"/>
<text text-anchor="middle" x="309" y="-419.0243" font-family="Times,serif" font-size="14.00" fill="#000000">parseMethod</text>
</g>
<!-- _node7&#45;&gt;_node8 -->
<g id="edge19" class="edge">
<title>_node7&#45;&gt;_node8</title>
<path fill="none" stroke="#000000" d="M353.1101,-415.6883C365.7802,-413.6673 379.9895,-411.4008 394.0572,-409.1569"/>
<polygon fill="#000000" stroke="#000000" points="394.9278,-412.5624 404.2516,-407.5308 393.8251,-405.6497 394.9278,-412.5624"/>
</g>
<!-- _node8&#45;&gt;_node2 -->
<g id="edge20" class="edge">
<title>_node8&#45;&gt;_node2</title>
<path fill="none" stroke="#000000" d="M539.979,-396.3291C554.7132,-396.2434 570.1864,-396.1534 584.5617,-396.0699"/>
<polygon fill="#000000" stroke="#000000" points="584.8294,-399.5685 594.8088,-396.0103 584.7886,-392.5686 584.8294,-399.5685"/>
</g>
<!-- _node8&#45;&gt;_node3 -->
<g id="edge22" class="edge">
<title>_node8&#45;&gt;_node3</title>
<path fill="none" stroke="#000000" d="M530.7116,-414.8157C556.0296,-422.6171 584.8678,-431.5033 607.1121,-438.3577"/>
<polygon fill="#000000" stroke="#000000" points="606.2448,-441.7528 616.8321,-441.3528 608.3062,-435.0632 606.2448,-441.7528"/>
</g>
<!-- _node8&#45;&gt;_node4 -->
<g id="edge21" class="edge">
<title>_node8&#45;&gt;_node4</title>
<path fill="none" stroke="#000000" d="M527.3686,-378.6973C544.5208,-373.1129 563.5429,-366.9196 581.1632,-361.1828"/>
<polygon fill="#000000" stroke="#000000" points="582.3621,-364.4734 590.7872,-358.0494 580.1949,-357.8173 582.3621,-364.4734"/>
</g>
<!-- _node9&#45;&gt;_node2 -->
<g id="edge27" class="edge">
<title>_node9&#45;&gt;_node2</title>
<path fill="none" stroke="#000000" d="M219.6785,-348.4979C233.7942,-345.7621 250.0661,-343.0709 265,-341.7243 393.965,-330.0955 428.383,-342.607 555,-369.7243 564.7983,-371.8228 575.0939,-374.4381 585.0656,-377.1947"/>
<polygon fill="#000000" stroke="#000000" points="584.3232,-380.6222 594.8988,-379.9846 586.2339,-373.888 584.3232,-380.6222"/>
</g>
<!-- _node9&#45;&gt;_node3 -->
<g id="edge23" class="edge">
<title>_node9&#45;&gt;_node3</title>
<path fill="none" stroke="#000000" d="M202.647,-374.8948C211.0923,-382.8435 220.827,-392.4554 229,-401.7243 246.6366,-421.7259 242.617,-435.229 265,-449.7243 373.6875,-520.1107 427.0126,-497.3822 555,-477.7243 572.6338,-475.0159 591.5684,-469.4551 607.4205,-463.9976"/>
<polygon fill="#000000" stroke="#000000" points="608.6062,-467.2907 616.853,-460.6394 606.2583,-460.6962 608.6062,-467.2907"/>
</g>
<!-- _node9&#45;&gt;_node4 -->
<g id="edge28" class="edge">
<title>_node9&#45;&gt;_node4</title>
<path fill="none" stroke="#000000" d="M219.525,-340.145C233.4836,-334.7319 249.6905,-329.4215 265,-326.7243 303.5179,-319.9384 313.9227,-325.0989 353,-326.7243 369.0416,-327.3915 372.9765,-328.7115 389,-329.7243 454.2991,-333.8518 529.1043,-336.8775 580.7262,-338.6991"/>
<polygon fill="#000000" stroke="#000000" points="580.616,-342.1973 590.7317,-339.0474 580.8596,-335.2016 580.616,-342.1973"/>
</g>
<!-- _node9&#45;&gt;_node6 -->
<g id="edge24" class="edge">
<title>_node9&#45;&gt;_node6</title>
<path fill="none" stroke="#000000" d="M219.77,-360.2598C233.1411,-361.5282 248.3871,-362.9745 262.4474,-364.3082"/>
<polygon fill="#000000" stroke="#000000" points="262.1463,-367.7953 272.4322,-365.2554 262.8074,-360.8266 262.1463,-367.7953"/>
</g>
<!-- _node9&#45;&gt;_node7 -->
<g id="edge25" class="edge">
<title>_node9&#45;&gt;_node7</title>
<path fill="none" stroke="#000000" d="M217.0667,-374.7591C231.9876,-382.5439 249.6104,-391.7384 265.4143,-399.984"/>
<polygon fill="#000000" stroke="#000000" points="263.9903,-403.1887 274.4751,-404.7113 267.2283,-396.9826 263.9903,-403.1887"/>
</g>
<!-- _node9&#45;&gt;_node9 -->
<g id="edge26" class="edge">
<title>_node9&#45;&gt;_node9</title>
<path fill="none" stroke="#000000" d="M160.0674,-374.877C156.6162,-384.2634 164.0938,-392.7243 182.5,-392.7243 193.7163,-392.7243 200.8744,-389.5824 203.9742,-385.0039"/>
<polygon fill="#000000" stroke="#000000" points="207.4747,-385.1623 204.9326,-374.877 200.5059,-384.5027 207.4747,-385.1623"/>
</g>
<!-- _node10&#45;&gt;_node5 -->
<g id="edge29" class="edge">
<title>_node10&#45;&gt;_node5</title>
<path fill="none" stroke="#000000" d="M227.7344,-302.7243C278.3805,-302.7243 360.5295,-302.7243 415.395,-302.7243"/>
<polygon fill="#000000" stroke="#000000" points="415.6474,-306.2244 425.6474,-302.7243 415.6474,-299.2244 415.6474,-306.2244"/>
</g>
<!-- _node13 -->
<g id="node14" class="node">
<title>_node13</title>
<polygon fill="none" stroke="#000000" points="555,-468.7243 389,-468.7243 389,-432.7243 555,-432.7243 555,-468.7243"/>
<text text-anchor="middle" x="472" y="-447.0243" font-family="Times,serif" font-size="14.00" fill="#000000">parseNodeWithNoChildren</text>
</g>
<!-- _node11&#45;&gt;_node13 -->
<g id="edge30" class="edge">
<title>_node11&#45;&gt;_node13</title>
<path fill="none" stroke="#000000" d="M229.2349,-442.7295C240.8168,-445.6137 253.2716,-448.2262 265,-449.7243 301.9068,-454.4384 342.8174,-455.5031 378.4573,-455.0992"/>
<polygon fill="#000000" stroke="#000000" points="378.9039,-458.5928 388.8486,-454.9388 378.7957,-451.5937 378.9039,-458.5928"/>
</g>
<!-- _node12&#45;&gt;_node13 -->
<g id="edge31" class="edge">
<title>_node12&#45;&gt;_node13</title>
<path fill="none" stroke="#000000" d="M228.6923,-477.6184C268.9413,-473.1695 328.5515,-466.5804 378.6941,-461.0379"/>
<polygon fill="#000000" stroke="#000000" points="379.3584,-464.4859 388.9133,-459.9083 378.5893,-457.5283 379.3584,-464.4859"/>
</g>
<!-- _node13&#45;&gt;_node2 -->
<g id="edge33" class="edge">
<title>_node13&#45;&gt;_node2</title>
<path fill="none" stroke="#000000" d="M528.3192,-432.7152C546.5067,-426.8995 566.7129,-420.4382 585.0829,-414.5641"/>
<polygon fill="#000000" stroke="#000000" points="586.3284,-417.8405 594.7873,-411.4609 584.1963,-411.173 586.3284,-417.8405"/>
</g>
<!-- _node13&#45;&gt;_node3 -->
<g id="edge32" class="edge">
<title>_node13&#45;&gt;_node3</title>
<path fill="none" stroke="#000000" d="M555.2289,-450.2404C573.3434,-450.1351 591.622,-450.0288 606.8456,-449.9403"/>
<polygon fill="#000000" stroke="#000000" points="606.8779,-453.4403 616.8573,-449.8821 606.8371,-446.4404 606.8779,-453.4403"/>
</g>
<!-- _node13&#45;&gt;_node4 -->
<g id="edge34" class="edge">
<title>_node13&#45;&gt;_node4</title>
<path fill="none" stroke="#000000" d="M540.937,-432.5179C545.9109,-429.9538 550.6668,-427.0381 555,-423.7243 578.207,-405.977 569.3985,-388.3943 591,-368.7243 592.5004,-367.358 594.0798,-366.0375 595.7173,-364.7635"/>
<polygon fill="#000000" stroke="#000000" points="598.0906,-367.3758 604.2942,-358.7871 594.0886,-361.6325 598.0906,-367.3758"/>
</g>
</g>
</svg>
