digraph {
    rankdir=LR
    subgraph cluster_0 {
        label="graph"
        URL="../index.html"
        _node0 [
            shape="box"
            style="bold"
            label="GraphParser"
            URL="index.html"
        ]
        _node1 [
            shape="box"
            label="parse"
            URL="../parse/index.html"
        ]
    }
    subgraph cluster_1 {
        label="logger"
        URL="../../logger/index.html"
        _node2 [
            shape="box"
            label="Logger"
            URL="../../logger/Logger/index.html"
        ]
    }
    subgraph cluster_2 {
        label="ast"
        URL="../../ast/index.html"
        _node3 [
            shape="box"
            label="Project"
            URL="../../ast/Project/index.html"
        ]
        _node4 [
            shape="box"
            label="Node"
            URL="../../ast/Node/index.html"
        ]
        _node5 [
            shape="box"
            label="Package"
            URL="../../ast/Package/index.html"
        ]
        _node6 [
            shape="box"
            label="Field"
            URL="../../ast/Field/index.html"
        ]
        _node7 [
            shape="box"
            label="Method"
            URL="../../ast/Method/index.html"
        ]
        _node8 [
            shape="box"
            label="Class"
            URL="../../ast/Class/index.html"
        ]
        _node9 [
            shape="box"
            label="Function"
            URL="../../ast/Function/index.html"
        ]
        _node10 [
            shape="box"
            label="Variable"
            URL="../../ast/Variable/index.html"
        ]
    }
    _node0 -> _node2 [
        URL="../../../dependencies-between-packages/-~graph,-~logger.svg"
    ]
    _node0 -> _node3 [
        URL="../../../dependencies-between-packages/-~graph,-~ast.svg"
    ]
    _node0 -> _node4 [
        URL="../../../dependencies-between-packages/-~graph,-~ast.svg"
    ]
    _node0 -> _node5 [
        URL="../../../dependencies-between-packages/-~graph,-~ast.svg"
    ]
    _node0 -> _node6 [
        URL="../../../dependencies-between-packages/-~graph,-~ast.svg"
    ]
    _node0 -> _node7 [
        URL="../../../dependencies-between-packages/-~graph,-~ast.svg"
    ]
    _node0 -> _node8 [
        URL="../../../dependencies-between-packages/-~graph,-~ast.svg"
    ]
    _node0 -> _node9 [
        URL="../../../dependencies-between-packages/-~graph,-~ast.svg"
    ]
    _node0 -> _node10 [
        URL="../../../dependencies-between-packages/-~graph,-~ast.svg"
    ]
    _node1 -> _node0
}
