digraph {
    rankdir=LR
    subgraph cluster_0 {
        label="artefact::intra_class_dependencies"
        URL="../index.html"
        _node0 [
            shape="box"
            style="bold"
            label="hasDirectChildren"
            URL="index.html"
        ]
        _node1 [
            shape="box"
            label="printChildrenIfAny"
            URL="../printChildrenIfAny/index.html"
        ]
    }
    subgraph cluster_1 {
        label="ast"
        URL="../../../ast/index.html"
        _node2 [
            shape="box"
            label="Node"
            URL="../../../ast/Node/index.html"
        ]
    }
    subgraph cluster_2 {
        label="ast::query"
        URL="../../../ast/query/index.html"
        _node3 [
            shape="box"
            label="isOfType"
            URL="../../../ast/query/isOfType/index.html"
        ]
    }
    _node0 -> _node2 [
        URL="../../../../dependencies-between-packages/-~artefact~intra_class_dependencies,-~ast.svg"
    ]
    _node0 -> _node3 [
        URL="../../../../dependencies-between-packages/-~artefact~intra_class_dependencies,-~ast~query.svg"
    ]
    _node1 -> _node0
}
