<?xml version="1.0" encoding="UTF-8" standalone="no"?>
<!DOCTYPE svg PUBLIC "-//W3C//DTD SVG 1.1//EN"
 "http://www.w3.org/Graphics/SVG/1.1/DTD/svg11.dtd">
<!-- Generated by graphviz version 2.40.1 (20161225.0304)
 -->
<!-- Title: %3 Pages: 1 -->
<svg width="418pt" height="182pt"
 viewBox="0.00 0.00 418.00 182.00" xmlns="http://www.w3.org/2000/svg" xmlns:xlink="http://www.w3.org/1999/xlink">
<g id="graph0" class="graph" transform="scale(1 1) rotate(0) translate(4 178)">
<title>%3</title>
<polygon fill="#ffffff" stroke="transparent" points="-4,4 -4,-178 414,-178 414,4 -4,4"/>
<g id="clust1" class="cluster">
<title>cluster_0</title>
<g id="a_clust1"><a xlink:href="../index.html" xlink:title="artefact::intra_class_dependencies">
<polygon fill="none" stroke="#000000" points="8,-49 8,-124 298,-124 298,-49 8,-49"/>
<text text-anchor="middle" x="153" y="-108.8" font-family="Times,serif" font-size="14.00" fill="#000000">artefact::intra_class_dependencies</text>
</a>
</g>
</g>
<g id="clust2" class="cluster">
<title>cluster_1</title>
<g id="a_clust2"><a xlink:href="../../../ast/index.html" xlink:title="ast">
<polygon fill="none" stroke="#000000" points="325,-91 325,-166 395,-166 395,-91 325,-91"/>
<text text-anchor="middle" x="360" y="-150.8" font-family="Times,serif" font-size="14.00" fill="#000000">ast</text>
</a>
</g>
</g>
<g id="clust3" class="cluster">
<title>cluster_2</title>
<g id="a_clust3"><a xlink:href="../../../ast/query/index.html" xlink:title="ast::query">
<polygon fill="none" stroke="#000000" points="318,-8 318,-83 402,-83 402,-8 318,-8"/>
<text text-anchor="middle" x="360" y="-67.8" font-family="Times,serif" font-size="14.00" fill="#000000">ast::query</text>
</a>
</g>
</g>
<!-- _node0 -->
<g id="node1" class="node">
<title>_node0</title>
<g id="a_node1"><a xlink:href="index.html" xlink:title="hasDirectChildren">
<polygon fill="none" stroke="#000000" stroke-width="2" points="290,-93 174,-93 174,-57 290,-57 290,-93"/>
<text text-anchor="middle" x="232" y="-71.3" font-family="Times,serif" font-size="14.00" fill="#000000">hasDirectChildren</text>
</a>
</g>
</g>
<!-- _node2 -->
<g id="node3" class="node">
<title>_node2</title>
<g id="a_node3"><a xlink:href="../../../ast/Node/index.html" xlink:title="Node">
<polygon fill="none" stroke="#000000" points="387,-135 333,-135 333,-99 387,-99 387,-135"/>
<text text-anchor="middle" x="360" y="-113.3" font-family="Times,serif" font-size="14.00" fill="#000000">Node</text>
</a>
</g>
</g>
<!-- _node0&#45;&gt;_node2 -->
<g id="edge1" class="edge">
<title>_node0&#45;&gt;_node2</title>
<g id="a_edge1"><a xlink:href="../../../../dependencies-between-packages/-~artefact~intra_class_dependencies,-~ast.svg">
<path fill="none" stroke="#000000" d="M287.0264,-93.0555C299.2896,-97.0794 312.0013,-101.2504 323.3121,-104.9618"/>
<polygon fill="#000000" stroke="#000000" points="322.2519,-108.2974 332.8447,-108.0897 324.4343,-101.6463 322.2519,-108.2974"/>
</a>
</g>
</g>
<!-- _node3 -->
<g id="node4" class="node">
<title>_node3</title>
<g id="a_node4"><a xlink:href="../../../ast/query/isOfType/index.html" xlink:title="isOfType">
<polygon fill="none" stroke="#000000" points="394,-52 326,-52 326,-16 394,-16 394,-52"/>
<text text-anchor="middle" x="360" y="-30.3" font-family="Times,serif" font-size="14.00" fill="#000000">isOfType</text>
</a>
</g>
</g>
<!-- _node0&#45;&gt;_node3 -->
<g id="edge2" class="edge">
<title>_node0&#45;&gt;_node3</title>
<g id="a_edge2"><a xlink:href="../../../../dependencies-between-packages/-~artefact~intra_class_dependencies,-~ast~query.svg">
<path fill="none" stroke="#000000" d="M288.5153,-56.8975C297.7605,-53.9361 307.2169,-50.9071 316.0986,-48.0622"/>
<polygon fill="#000000" stroke="#000000" points="317.3845,-51.3255 325.8402,-44.9418 315.2492,-44.6591 317.3845,-51.3255"/>
</a>
</g>
</g>
<!-- _node1 -->
<g id="node2" class="node">
<title>_node1</title>
<g id="a_node2"><a xlink:href="../printChildrenIfAny/index.html" xlink:title="printChildrenIfAny">
<polygon fill="none" stroke="#000000" points="138,-93 16,-93 16,-57 138,-57 138,-93"/>
<text text-anchor="middle" x="77" y="-71.3" font-family="Times,serif" font-size="14.00" fill="#000000">printChildrenIfAny</text>
</a>
</g>
</g>
<!-- _node1&#45;&gt;_node0 -->
<g id="edge3" class="edge">
<title>_node1&#45;&gt;_node0</title>
<path fill="none" stroke="#000000" d="M138.2601,-75C146.6222,-75 155.2484,-75 163.7253,-75"/>
<polygon fill="#000000" stroke="#000000" points="163.9634,-78.5001 173.9634,-75 163.9633,-71.5001 163.9634,-78.5001"/>
</g>
</g>
</svg>
