digraph {
    rankdir=LR
    _node0 [
        shape="box"
        label="OrderedSet"
        URL="OrderedSet/index.html"
    ]
    _node1 [
        shape="box"
        label="Set"
        URL="Set/index.html"
    ]
    _node2 [
        shape="box"
        label="join"
        URL="join/index.html"
    ]
    _node3 [
        shape="box"
        label="split"
        URL="split/index.html"
    ]
    _node4 [
        shape="box"
        label="toString"
        URL="toString/index.html"
    ]
}
