digraph {
    rankdir=LR
    subgraph cluster_0 {
        label="metric::packageelement"
        URL="../index.html"
        _node0 [
            shape="box"
            style="bold"
            label="FanIn"
            URL="index.html"
        ]
    }
    subgraph cluster_1 {
        label="metric::generic"
        URL="../../generic/index.html"
        _node1 [
            shape="box"
            label="Fan"
            URL="../../generic/Fan/index.html"
        ]
    }
    subgraph cluster_2 {
        label="ast::repository"
        URL="../../../ast/repository/index.html"
        _node2 [
            shape="box"
            label="Neighbor"
            URL="../../../ast/repository/Neighbor/index.html"
        ]
    }
    subgraph cluster_3 {
        label="metric"
        URL="../../index.html"
        _node3 [
            shape="box"
            label="AllRepository"
            URL="../../AllRepository/index.html"
        ]
    }
    subgraph cluster_4 {
        label="feature_test::metric"
        URL="../../../feature_test/metric/index.html"
        _node4 [
            shape="box"
            label="CukeObject2"
            URL="../../../feature_test/metric/CukeObject2/index.html"
        ]
        _node5 [
            shape="box"
            label="CukeObject4"
            URL="../../../feature_test/metric/CukeObject4/index.html"
        ]
    }
    _node0 -> _node1 [
        URL="../../../../dependencies-between-packages/-~metric~packageelement,-~metric~generic.svg"
    ]
    _node0 -> _node2 [
        URL="../../../../dependencies-between-packages/-~metric~packageelement,-~ast~repository.svg"
    ]
    _node3 -> _node0 [
        URL="../../../../dependencies-between-packages/-~metric,-~metric~packageelement.svg"
    ]
    _node4 -> _node0 [
        URL="../../../../dependencies-between-packages/-~feature_test~metric,-~metric~packageelement.svg"
    ]
    _node5 -> _node0 [
        URL="../../../../dependencies-between-packages/-~feature_test~metric,-~metric~packageelement.svg"
    ]
}
