<?xml version="1.0" encoding="UTF-8" standalone="no"?>
<!DOCTYPE svg PUBLIC "-//W3C//DTD SVG 1.1//EN"
 "http://www.w3.org/Graphics/SVG/1.1/DTD/svg11.dtd">
<!-- Generated by graphviz version 2.40.1 (20161225.0304)
 -->
<!-- Title: %3 Pages: 1 -->
<svg width="426pt" height="99pt"
 viewBox="0.00 0.00 426.00 99.00" xmlns="http://www.w3.org/2000/svg" xmlns:xlink="http://www.w3.org/1999/xlink">
<g id="graph0" class="graph" transform="scale(1 1) rotate(0) translate(4 95)">
<title>%3</title>
<polygon fill="#ffffff" stroke="transparent" points="-4,4 -4,-95 422,-95 422,4 -4,4"/>
<g id="clust1" class="cluster">
<title>cluster_0</title>
<g id="a_clust1"><a xlink:href="../index.html" xlink:title="metric::generic::Fan">
<polygon fill="none" stroke="#000000" points="119,-8 119,-83 246,-83 246,-8 119,-8"/>
<text text-anchor="middle" x="182.5" y="-67.8" font-family="Times,serif" font-size="14.00" fill="#000000">metric::generic::Fan</text>
</a>
</g>
</g>
<g id="clust2" class="cluster">
<title>cluster_1</title>
<g id="a_clust2"><a xlink:href="../../../../ast/repository/Neighbor/index.html" xlink:title="ast::repository::Neighbor">
<polygon fill="none" stroke="#000000" points="266,-8 266,-83 418,-83 418,-8 266,-8"/>
<text text-anchor="middle" x="342" y="-67.8" font-family="Times,serif" font-size="14.00" fill="#000000">ast::repository::Neighbor</text>
</a>
</g>
</g>
<g id="clust3" class="cluster">
<title>cluster_2</title>
<g id="a_clust3"><a xlink:href="../../index.html" xlink:title="metric::generic">
<polygon fill="none" stroke="#000000" points="0,-8 0,-83 99,-83 99,-8 0,-8"/>
<text text-anchor="middle" x="49.5" y="-67.8" font-family="Times,serif" font-size="14.00" fill="#000000">metric::generic</text>
</a>
</g>
</g>
<!-- _node0 -->
<g id="node1" class="node">
<title>_node0</title>
<g id="a_node1"><a xlink:href="index.html" xlink:title="NeigborSpec">
<polygon fill="none" stroke="#000000" stroke-width="2" points="226,-52 139,-52 139,-16 226,-16 226,-52"/>
<text text-anchor="middle" x="182.5" y="-30.3" font-family="Times,serif" font-size="14.00" fill="#000000">NeigborSpec</text>
</a>
</g>
</g>
<!-- _node1 -->
<g id="node2" class="node">
<title>_node1</title>
<g id="a_node2"><a xlink:href="../../../../ast/repository/Neighbor/Specification/index.html" xlink:title="Specification">
<polygon fill="none" stroke="#000000" points="386,-52 298,-52 298,-16 386,-16 386,-52"/>
<text text-anchor="middle" x="342" y="-30.3" font-family="Times,serif" font-size="14.00" fill="#000000">Specification</text>
</a>
</g>
</g>
<!-- _node0&#45;&gt;_node1 -->
<g id="edge1" class="edge">
<title>_node0&#45;&gt;_node1</title>
<g id="a_edge1"><a xlink:href="../../../../../dependencies-between-packages/-~metric~generic,-~ast~repository.svg">
<path fill="none" stroke="#000000" d="M226.0841,-34C245.092,-34 267.5774,-34 287.6617,-34"/>
<polygon fill="#000000" stroke="#000000" points="287.9144,-37.5001 297.9144,-34 287.9144,-30.5001 287.9144,-37.5001"/>
</a>
</g>
</g>
<!-- _node2 -->
<g id="node3" class="node">
<title>_node2</title>
<g id="a_node3"><a xlink:href="../index.html" xlink:title="Fan">
<polygon fill="none" stroke="#000000" points="76,-52 22,-52 22,-16 76,-16 76,-52"/>
<text text-anchor="middle" x="49" y="-30.3" font-family="Times,serif" font-size="14.00" fill="#000000">Fan</text>
</a>
</g>
</g>
<!-- _node2&#45;&gt;_node0 -->
<g id="edge2" class="edge">
<title>_node2&#45;&gt;_node0</title>
<path fill="none" stroke="#000000" d="M76.0157,-34C91.1807,-34 110.6479,-34 128.7802,-34"/>
<polygon fill="#000000" stroke="#000000" points="128.969,-37.5001 138.9689,-34 128.9689,-30.5001 128.969,-37.5001"/>
</g>
</g>
</svg>
