<?xml version="1.0" encoding="UTF-8" standalone="no"?>
<!DOCTYPE svg PUBLIC "-//W3C//DTD SVG 1.1//EN"
 "http://www.w3.org/Graphics/SVG/1.1/DTD/svg11.dtd">
<!-- Generated by graphviz version 2.40.1 (20161225.0304)
 -->
<!-- Title: %3 Pages: 1 -->
<svg width="225pt" height="614pt"
 viewBox="0.00 0.00 225.00 614.00" xmlns="http://www.w3.org/2000/svg" xmlns:xlink="http://www.w3.org/1999/xlink">
<g id="graph0" class="graph" transform="scale(1 1) rotate(0) translate(4 610)">
<title>%3</title>
<polygon fill="#ffffff" stroke="transparent" points="-4,4 -4,-610 221,-610 221,4 -4,4"/>
<g id="clust1" class="cluster">
<title>cluster_0</title>
<g id="a_clust1"><a xlink:href="../index.html" xlink:title="ast">
<polygon fill="none" stroke="#000000" points="8,-145 8,-598 209,-598 209,-145 8,-145"/>
<text text-anchor="middle" x="108.5" y="-582.8" font-family="Times,serif" font-size="14.00" fill="#000000">ast</text>
</a>
</g>
</g>
<g id="clust2" class="cluster">
<title>cluster_1</title>
<g id="a_clust2"><a xlink:href="../traverse/index.html" xlink:title="ast::traverse">
<polygon fill="none" stroke="#000000" points="22.5,-8 22.5,-137 104.5,-137 104.5,-8 22.5,-8"/>
<text text-anchor="middle" x="63.5" y="-121.8" font-family="Times,serif" font-size="14.00" fill="#000000">ast::traverse</text>
</a>
</g>
</g>
<!-- _node0 -->
<g id="node1" class="node">
<title>_node0</title>
<g id="a_node1"><a xlink:href="index.html" xlink:title="Visitor">
<polygon fill="none" stroke="#000000" stroke-width="2" points="201,-324 147,-324 147,-288 201,-288 201,-324"/>
<text text-anchor="middle" x="174" y="-302.3" font-family="Times,serif" font-size="14.00" fill="#000000">Visitor</text>
</a>
</g>
</g>
<!-- _node1 -->
<g id="node2" class="node">
<title>_node1</title>
<g id="a_node2"><a xlink:href="../Class/index.html" xlink:title="Class">
<polygon fill="none" stroke="#000000" points="90.5,-567 36.5,-567 36.5,-531 90.5,-531 90.5,-567"/>
<text text-anchor="middle" x="63.5" y="-545.3" font-family="Times,serif" font-size="14.00" fill="#000000">Class</text>
</a>
</g>
</g>
<!-- _node1&#45;&gt;_node0 -->
<g id="edge3" class="edge">
<title>_node1&#45;&gt;_node0</title>
<path fill="none" stroke="#000000" d="M90.8378,-538.1134C98.2638,-534.0231 105.7062,-528.6976 111,-522 155.5306,-465.6603 168.5935,-378.8452 172.4195,-334.3805"/>
<polygon fill="#000000" stroke="#000000" points="175.9187,-334.5238 173.19,-324.2864 168.939,-333.991 175.9187,-334.5238"/>
</g>
<!-- _node2 -->
<g id="node3" class="node">
<title>_node2</title>
<g id="a_node3"><a xlink:href="../Project/index.html" xlink:title="Project">
<polygon fill="none" stroke="#000000" points="91,-513 36,-513 36,-477 91,-477 91,-513"/>
<text text-anchor="middle" x="63.5" y="-491.3" font-family="Times,serif" font-size="14.00" fill="#000000">Project</text>
</a>
</g>
</g>
<!-- _node2&#45;&gt;_node0 -->
<g id="edge4" class="edge">
<title>_node2&#45;&gt;_node0</title>
<path fill="none" stroke="#000000" d="M91.4656,-483.2613C98.5575,-479.2464 105.6677,-474.1737 111,-468 144.9645,-428.6765 161.7407,-368.9626 169.085,-334.0778"/>
<polygon fill="#000000" stroke="#000000" points="172.5517,-334.5894 171.07,-324.0987 165.6862,-333.2236 172.5517,-334.5894"/>
</g>
<!-- _node3 -->
<g id="node4" class="node">
<title>_node3</title>
<g id="a_node4"><a xlink:href="../Package/index.html" xlink:title="Package">
<polygon fill="none" stroke="#000000" points="94.5,-459 32.5,-459 32.5,-423 94.5,-423 94.5,-459"/>
<text text-anchor="middle" x="63.5" y="-437.3" font-family="Times,serif" font-size="14.00" fill="#000000">Package</text>
</a>
</g>
</g>
<!-- _node3&#45;&gt;_node0 -->
<g id="edge5" class="edge">
<title>_node3&#45;&gt;_node0</title>
<path fill="none" stroke="#000000" d="M94.8106,-426.3461C100.5878,-422.8031 106.2786,-418.6688 111,-414 134.3645,-390.8957 152.1254,-357.3532 162.7404,-333.7952"/>
<polygon fill="#000000" stroke="#000000" points="166.0613,-334.9354 166.8476,-324.3698 159.6441,-332.139 166.0613,-334.9354"/>
</g>
<!-- _node4 -->
<g id="node5" class="node">
<title>_node4</title>
<g id="a_node5"><a xlink:href="../Variable/index.html" xlink:title="Variable">
<polygon fill="none" stroke="#000000" points="95,-405 32,-405 32,-369 95,-369 95,-405"/>
<text text-anchor="middle" x="63.5" y="-383.3" font-family="Times,serif" font-size="14.00" fill="#000000">Variable</text>
</a>
</g>
</g>
<!-- _node4&#45;&gt;_node0 -->
<g id="edge6" class="edge">
<title>_node4&#45;&gt;_node0</title>
<path fill="none" stroke="#000000" d="M95.1974,-370.1106C100.5817,-366.9247 106.0336,-363.4915 111,-360 123.5176,-351.1999 136.4935,-340.406 147.3924,-330.7878"/>
<polygon fill="#000000" stroke="#000000" points="149.8138,-333.3177 154.9252,-324.0373 145.1421,-328.1046 149.8138,-333.3177"/>
</g>
<!-- _node5 -->
<g id="node6" class="node">
<title>_node5</title>
<g id="a_node6"><a xlink:href="../Function/index.html" xlink:title="Function">
<polygon fill="none" stroke="#000000" points="96,-351 31,-351 31,-315 96,-315 96,-351"/>
<text text-anchor="middle" x="63.5" y="-329.3" font-family="Times,serif" font-size="14.00" fill="#000000">Function</text>
</a>
</g>
</g>
<!-- _node5&#45;&gt;_node0 -->
<g id="edge7" class="edge">
<title>_node5&#45;&gt;_node0</title>
<path fill="none" stroke="#000000" d="M96.056,-325.0451C108.9415,-321.8966 123.8203,-318.2611 137.1026,-315.0156"/>
<polygon fill="#000000" stroke="#000000" points="138.0057,-318.398 146.8891,-312.6244 136.3441,-311.5981 138.0057,-318.398"/>
</g>
<!-- _node6 -->
<g id="node7" class="node">
<title>_node6</title>
<g id="a_node7"><a xlink:href="../Field/index.html" xlink:title="Field">
<polygon fill="none" stroke="#000000" points="90.5,-297 36.5,-297 36.5,-261 90.5,-261 90.5,-297"/>
<text text-anchor="middle" x="63.5" y="-275.3" font-family="Times,serif" font-size="14.00" fill="#000000">Field</text>
</a>
</g>
</g>
<!-- _node6&#45;&gt;_node0 -->
<g id="edge8" class="edge">
<title>_node6&#45;&gt;_node0</title>
<path fill="none" stroke="#000000" d="M90.5313,-285.6049C104.4441,-289.0044 121.6202,-293.2013 136.7674,-296.9024"/>
<polygon fill="#000000" stroke="#000000" points="136.3197,-300.396 146.8647,-299.3697 137.9813,-293.596 136.3197,-300.396"/>
</g>
<!-- _node7 -->
<g id="node8" class="node">
<title>_node7</title>
<g id="a_node8"><a xlink:href="../Method/index.html" xlink:title="Method">
<polygon fill="none" stroke="#000000" points="93,-243 34,-243 34,-207 93,-207 93,-243"/>
<text text-anchor="middle" x="63.5" y="-221.3" font-family="Times,serif" font-size="14.00" fill="#000000">Method</text>
</a>
</g>
</g>
<!-- _node7&#45;&gt;_node0 -->
<g id="edge9" class="edge">
<title>_node7&#45;&gt;_node0</title>
<path fill="none" stroke="#000000" d="M93.1825,-240.7067C99.2111,-244.2179 105.4129,-248.0721 111,-252 123.5176,-260.8001 136.4935,-271.594 147.3924,-281.2122"/>
<polygon fill="#000000" stroke="#000000" points="145.1421,-283.8954 154.9252,-287.9627 149.8138,-278.6823 145.1421,-283.8954"/>
</g>
<!-- _node8 -->
<g id="node9" class="node">
<title>_node8</title>
<g id="a_node9"><a xlink:href="../DefaultVisitor/index.html" xlink:title="DefaultVisitor">
<polygon fill="none" stroke="#000000" points="111,-189 16,-189 16,-153 111,-153 111,-189"/>
<text text-anchor="middle" x="63.5" y="-167.3" font-family="Times,serif" font-size="14.00" fill="#000000">DefaultVisitor</text>
</a>
</g>
</g>
<!-- _node8&#45;&gt;_node0 -->
<g id="edge10" class="edge">
<title>_node8&#45;&gt;_node0</title>
<path fill="none" stroke="#000000" d="M100.2047,-189.1679C104.0691,-191.8484 107.7625,-194.7985 111,-198 134.3645,-221.1043 152.1254,-254.6468 162.7404,-278.2048"/>
<polygon fill="#000000" stroke="#000000" points="159.6441,-279.861 166.8476,-287.6302 166.0613,-277.0646 159.6441,-279.861"/>
</g>
<!-- _node9 -->
<g id="node10" class="node">
<title>_node9</title>
<g id="a_node10"><a xlink:href="../traverse/recursive/index.html" xlink:title="recursive">
<polygon fill="none" stroke="#000000" points="96.5,-106 30.5,-106 30.5,-70 96.5,-70 96.5,-106"/>
<text text-anchor="middle" x="63.5" y="-84.3" font-family="Times,serif" font-size="14.00" fill="#000000">recursive</text>
</a>
</g>
</g>
<!-- _node9&#45;&gt;_node0 -->
<g id="edge1" class="edge">
<title>_node9&#45;&gt;_node0</title>
<g id="a_edge1"><a xlink:href="../../../dependencies-between-packages/-~ast~traverse,-~ast.svg">
<path fill="none" stroke="#000000" d="M82.9362,-106.2638C92.3591,-115.9053 103.2787,-128.3419 111,-141 138.205,-185.5994 157.1031,-243.9174 166.7013,-277.9396"/>
<polygon fill="#000000" stroke="#000000" points="163.3528,-278.963 169.3804,-287.6761 170.1019,-277.1059 163.3528,-278.963"/>
</a>
</g>
</g>
<!-- _node10 -->
<g id="node11" class="node">
<title>_node10</title>
<g id="a_node11"><a xlink:href="../traverse/children/index.html" xlink:title="children">
<polygon fill="none" stroke="#000000" points="94,-52 33,-52 33,-16 94,-16 94,-52"/>
<text text-anchor="middle" x="63.5" y="-30.3" font-family="Times,serif" font-size="14.00" fill="#000000">children</text>
</a>
</g>
</g>
<!-- _node10&#45;&gt;_node0 -->
<g id="edge2" class="edge">
<title>_node10&#45;&gt;_node0</title>
<g id="a_edge2"><a xlink:href="../../../dependencies-between-packages/-~ast~traverse,-~ast.svg">
<path fill="none" stroke="#000000" d="M94.4318,-46.7803C100.6557,-50.5671 106.6211,-55.2732 111,-61 137.1894,-95.2506 160.2654,-221.084 169.5978,-277.8688"/>
<polygon fill="#000000" stroke="#000000" points="166.1757,-278.632 171.2281,-287.9445 173.0858,-277.5138 166.1757,-278.632"/>
</a>
</g>
</g>
</g>
</svg>
