digraph {
    rankdir=LR
    subgraph cluster_0 {
        label="metric::Description"
        URL="../index.html"
        _node0 [
            shape="box"
            style="bold"
            label="Calculation"
            URL="index.html"
        ]
    }
    subgraph cluster_1 {
        label="ast"
        URL="../../../ast/index.html"
        _node1 [
            shape="box"
            label="Node"
            URL="../../../ast/Node/index.html"
        ]
    }
    subgraph cluster_2 {
        label="metric"
        URL="../../index.html"
        _node2 [
            shape="box"
            label="Description"
            URL="../index.html"
        ]
    }
    _node0 -> _node1 [
        URL="../../../../dependencies-between-packages/-~metric,-~ast.svg"
    ]
    _node2 -> _node0
}
