digraph {
    rankdir=LR
    subgraph cluster_0 {
        label="artefact::overviewfactory"
        URL="../index.html"
        _node0 [
            shape="box"
            style="bold"
            label="ArtefactFactory"
            URL="index.html"
        ]
        _node1 [
            shape="box"
            label="Factory"
            URL="../Factory/index.html"
        ]
        _node2 [
            shape="box"
            label="OverviewArtefactVisitor"
            URL="../OverviewArtefactVisitor/index.html"
        ]
    }
    subgraph cluster_1 {
        label="artefact::factory"
        URL="../../factory/index.html"
        _node3 [
            shape="box"
            label="Factory"
            URL="../../factory/Factory/index.html"
        ]
    }
    _node1 -> _node0
    _node2 -> _node0
    _node3 -> _node0 [
        URL="../../../../dependencies-between-packages/-~artefact~factory,-~artefact~overviewfactory.svg"
    ]
}
