digraph {
    rankdir=LR
    subgraph cluster_0 {
        label="ast::parents"
        URL="../index.html"
        _node0 [
            shape="box"
            style="bold"
            label="lowestAnchestor"
            URL="index.html"
        ]
        _node1 [
            shape="box"
            label="Parents"
            URL="../Parents/index.html"
        ]
    }
    subgraph cluster_1 {
        label="ast"
        URL="../../index.html"
        _node2 [
            shape="box"
            label="Node"
            URL="../../Node/index.html"
        ]
        _node3 [
            shape="box"
            label="NodeSpecification"
            URL="../../NodeSpecification/index.html"
        ]
    }
    subgraph cluster_2 {
        label="ast::graph"
        URL="../../graph/index.html"
        _node4 [
            shape="box"
            label="buildGraph"
            URL="../../graph/buildGraph/index.html"
        ]
    }
    _node0 -> _node2 [
        URL="../../../../dependencies-between-packages/-~ast~parents,-~ast.svg"
    ]
    _node0 -> _node1
    _node0 -> _node3 [
        URL="../../../../dependencies-between-packages/-~ast~parents,-~ast.svg"
    ]
    _node4 -> _node0 [
        URL="../../../../dependencies-between-packages/-~ast~graph,-~ast~parents.svg"
    ]
}
