<?xml version="1.0" encoding="UTF-8" standalone="no"?>
<!DOCTYPE svg PUBLIC "-//W3C//DTD SVG 1.1//EN"
 "http://www.w3.org/Graphics/SVG/1.1/DTD/svg11.dtd">
<!-- Generated by graphviz version 2.40.1 (20161225.0304)
 -->
<!-- Title: %3 Pages: 1 -->
<svg width="414pt" height="236pt"
 viewBox="0.00 0.00 414.00 236.00" xmlns="http://www.w3.org/2000/svg" xmlns:xlink="http://www.w3.org/1999/xlink">
<g id="graph0" class="graph" transform="scale(1 1) rotate(0) translate(4 232)">
<title>%3</title>
<polygon fill="#ffffff" stroke="transparent" points="-4,4 -4,-232 410,-232 410,4 -4,4"/>
<g id="clust1" class="cluster">
<title>cluster_0</title>
<g id="a_clust1"><a xlink:href="../index.html" xlink:title="ast::parents">
<polygon fill="none" stroke="#000000" points="122,-145 122,-220 367.5,-220 367.5,-145 122,-145"/>
<text text-anchor="middle" x="244.75" y="-204.8" font-family="Times,serif" font-size="14.00" fill="#000000">ast::parents</text>
</a>
</g>
</g>
<g id="clust2" class="cluster">
<title>cluster_1</title>
<g id="a_clust2"><a xlink:href="../../index.html" xlink:title="ast">
<polygon fill="none" stroke="#000000" points="265,-8 265,-137 398,-137 398,-8 265,-8"/>
<text text-anchor="middle" x="331.5" y="-121.8" font-family="Times,serif" font-size="14.00" fill="#000000">ast</text>
</a>
</g>
</g>
<g id="clust3" class="cluster">
<title>cluster_2</title>
<g id="a_clust3"><a xlink:href="../../graph/index.html" xlink:title="ast::graph">
<polygon fill="none" stroke="#000000" points="8,-145 8,-220 102,-220 102,-145 8,-145"/>
<text text-anchor="middle" x="55" y="-204.8" font-family="Times,serif" font-size="14.00" fill="#000000">ast::graph</text>
</a>
</g>
</g>
<!-- _node0 -->
<g id="node1" class="node">
<title>_node0</title>
<g id="a_node1"><a xlink:href="index.html" xlink:title="lowestAnchestor">
<polygon fill="none" stroke="#000000" stroke-width="2" points="237,-189 130,-189 130,-153 237,-153 237,-189"/>
<text text-anchor="middle" x="183.5" y="-167.3" font-family="Times,serif" font-size="14.00" fill="#000000">lowestAnchestor</text>
</a>
</g>
</g>
<!-- _node1 -->
<g id="node2" class="node">
<title>_node1</title>
<g id="a_node2"><a xlink:href="../Parents/index.html" xlink:title="Parents">
<polygon fill="none" stroke="#000000" points="359.5,-189 303.5,-189 303.5,-153 359.5,-153 359.5,-189"/>
<text text-anchor="middle" x="331.5" y="-167.3" font-family="Times,serif" font-size="14.00" fill="#000000">Parents</text>
</a>
</g>
</g>
<!-- _node0&#45;&gt;_node1 -->
<g id="edge2" class="edge">
<title>_node0&#45;&gt;_node1</title>
<path fill="none" stroke="#000000" d="M237.3501,-171C255.8301,-171 276.125,-171 293.1253,-171"/>
<polygon fill="#000000" stroke="#000000" points="293.239,-174.5001 303.2389,-171 293.2389,-167.5001 293.239,-174.5001"/>
</g>
<!-- _node2 -->
<g id="node3" class="node">
<title>_node2</title>
<g id="a_node3"><a xlink:href="../../Node/index.html" xlink:title="Node">
<polygon fill="none" stroke="#000000" points="358.5,-106 304.5,-106 304.5,-70 358.5,-70 358.5,-106"/>
<text text-anchor="middle" x="331.5" y="-84.3" font-family="Times,serif" font-size="14.00" fill="#000000">Node</text>
</a>
</g>
</g>
<!-- _node0&#45;&gt;_node2 -->
<g id="edge1" class="edge">
<title>_node0&#45;&gt;_node2</title>
<g id="a_edge1"><a xlink:href="../../../../dependencies-between-packages/-~ast~parents,-~ast.svg">
<path fill="none" stroke="#000000" d="M215.6138,-152.9902C239.1339,-139.7999 271.0716,-121.8889 295.4629,-108.21"/>
<polygon fill="#000000" stroke="#000000" points="297.3983,-111.1375 304.4083,-103.1933 293.9743,-105.032 297.3983,-111.1375"/>
</a>
</g>
</g>
<!-- _node3 -->
<g id="node4" class="node">
<title>_node3</title>
<g id="a_node4"><a xlink:href="../../NodeSpecification/index.html" xlink:title="NodeSpecification">
<polygon fill="none" stroke="#000000" points="390,-52 273,-52 273,-16 390,-16 390,-52"/>
<text text-anchor="middle" x="331.5" y="-30.3" font-family="Times,serif" font-size="14.00" fill="#000000">NodeSpecification</text>
</a>
</g>
</g>
<!-- _node0&#45;&gt;_node3 -->
<g id="edge3" class="edge">
<title>_node0&#45;&gt;_node3</title>
<g id="a_edge3"><a xlink:href="../../../../dependencies-between-packages/-~ast~parents,-~ast.svg">
<path fill="none" stroke="#000000" d="M192.7166,-152.9955C205.8151,-129.0097 231.9385,-86.628 265,-61 266.588,-59.769 268.2398,-58.586 269.9411,-57.4498"/>
<polygon fill="#000000" stroke="#000000" points="272.009,-60.2912 278.7931,-52.1533 268.4148,-54.2844 272.009,-60.2912"/>
</a>
</g>
</g>
<!-- _node4 -->
<g id="node5" class="node">
<title>_node4</title>
<g id="a_node5"><a xlink:href="../../graph/buildGraph/index.html" xlink:title="buildGraph">
<polygon fill="none" stroke="#000000" points="94,-189 16,-189 16,-153 94,-153 94,-189"/>
<text text-anchor="middle" x="55" y="-167.3" font-family="Times,serif" font-size="14.00" fill="#000000">buildGraph</text>
</a>
</g>
</g>
<!-- _node4&#45;&gt;_node0 -->
<g id="edge4" class="edge">
<title>_node4&#45;&gt;_node0</title>
<g id="a_edge4"><a xlink:href="../../../../dependencies-between-packages/-~ast~graph,-~ast~parents.svg">
<path fill="none" stroke="#000000" d="M94.2525,-171C102.3159,-171 111.0018,-171 119.6772,-171"/>
<polygon fill="#000000" stroke="#000000" points="119.8188,-174.5001 129.8187,-171 119.8187,-167.5001 119.8188,-174.5001"/>
</a>
</g>
</g>
</g>
</svg>
