<?xml version="1.0" encoding="UTF-8" standalone="no"?>
<!DOCTYPE svg PUBLIC "-//W3C//DTD SVG 1.1//EN"
 "http://www.w3.org/Graphics/SVG/1.1/DTD/svg11.dtd">
<!-- Generated by graphviz version 2.40.1 (20161225.0304)
 -->
<!-- Title: %3 Pages: 1 -->
<svg width="474pt" height="122pt"
 viewBox="0.00 0.00 474.00 122.00" xmlns="http://www.w3.org/2000/svg" xmlns:xlink="http://www.w3.org/1999/xlink">
<g id="graph0" class="graph" transform="scale(1 1) rotate(0) translate(4 118)">
<title>%3</title>
<polygon fill="#ffffff" stroke="transparent" points="-4,4 -4,-118 470,-118 470,4 -4,4"/>
<text text-anchor="middle" x="233" y="-7.8" font-family="Times,serif" font-size="14.00" fill="#000000">Namer</text>
<g id="clust1" class="cluster">
<title>cluster_0</title>
<polygon fill="none" stroke="#000000" points="8,-31 8,-106 310,-106 310,-31 8,-31"/>
<text text-anchor="middle" x="159" y="-90.8" font-family="Times,serif" font-size="14.00" fill="#000000">methods</text>
</g>
<g id="clust2" class="cluster">
<title>cluster_1</title>
<polygon fill="none" stroke="#000000" points="330,-31 330,-106 458,-106 458,-31 330,-31"/>
<text text-anchor="middle" x="394" y="-90.8" font-family="Times,serif" font-size="14.00" fill="#000000">fields</text>
</g>
<!-- _node0 -->
<g id="node1" class="node">
<title>_node0</title>
<polygon fill="none" stroke="#000000" points="70,-75 16,-75 16,-39 70,-39 70,-75"/>
<text text-anchor="middle" x="43" y="-53.3" font-family="Times,serif" font-size="14.00" fill="#000000">name</text>
</g>
<!-- _node2 -->
<g id="node3" class="node">
<title>_node2</title>
<polygon fill="none" stroke="#000000" points="200,-75 106,-75 106,-39 200,-39 200,-75"/>
<text text-anchor="middle" x="153" y="-53.3" font-family="Times,serif" font-size="14.00" fill="#000000">nameChildren</text>
</g>
<!-- _node0&#45;&gt;_node2 -->
<g id="edge1" class="edge">
<title>_node0&#45;&gt;_node2</title>
<path fill="none" stroke="#000000" d="M70.191,-57C78.0493,-57 86.9353,-57 95.8959,-57"/>
<polygon fill="#000000" stroke="#000000" points="95.9937,-60.5001 105.9936,-57 95.9936,-53.5001 95.9937,-60.5001"/>
</g>
<!-- _node1 -->
<g id="node2" class="node">
<title>_node1</title>
<polygon fill="none" stroke="#000000" points="302,-75 236,-75 236,-39 302,-39 302,-75"/>
<text text-anchor="middle" x="269" y="-53.3" font-family="Times,serif" font-size="14.00" fill="#000000">recursive</text>
</g>
<!-- _node1&#45;&gt;_node2 -->
<g id="edge3" class="edge">
<title>_node1&#45;&gt;_node2</title>
<path fill="none" stroke="#000000" d="M235.7202,-63.1726C227.7628,-63.5675 219.0416,-63.7599 210.3402,-63.7496"/>
<polygon fill="#000000" stroke="#000000" points="210.2173,-60.2483 200.1816,-63.6445 210.1449,-67.2479 210.2173,-60.2483"/>
</g>
<!-- _node3 -->
<g id="node4" class="node">
<title>_node3</title>
<polygon fill="none" stroke="#000000" points="450,-75 338,-75 338,-39 450,-39 450,-75"/>
<text text-anchor="middle" x="394" y="-53.3" font-family="Times,serif" font-size="14.00" fill="#000000">unnamedNumber</text>
</g>
<!-- _node1&#45;&gt;_node3 -->
<g id="edge2" class="edge">
<title>_node1&#45;&gt;_node3</title>
<path fill="none" stroke="#000000" d="M302.1695,-57C310.1572,-57 318.9716,-57 327.8843,-57"/>
<polygon fill="#000000" stroke="#000000" points="327.95,-60.5001 337.95,-57 327.9499,-53.5001 327.95,-60.5001"/>
</g>
<!-- _node2&#45;&gt;_node1 -->
<g id="edge4" class="edge">
<title>_node2&#45;&gt;_node1</title>
<path fill="none" stroke="#000000" d="M200.1816,-50.3555C208.5613,-50.1904 217.2533,-50.2191 225.5242,-50.4417"/>
<polygon fill="#000000" stroke="#000000" points="225.595,-53.9468 235.7202,-50.8274 225.8597,-46.9518 225.595,-53.9468"/>
</g>
</g>
</svg>
