digraph {
    rankdir=LR
    subgraph cluster_0 {
        label="ast::query"
        URL="../index.html"
        _node0 [
            shape="box"
            style="bold"
            label="find"
            URL="index.html"
        ]
        _node1 [
            shape="box"
            label="find"
            URL="index.html"
        ]
    }
    subgraph cluster_1 {
        label="ast"
        URL="../../index.html"
        _node2 [
            shape="box"
            label="Node"
            URL="../../Node/index.html"
        ]
    }
    _node0 -> _node2 [
        URL="../../../../dependencies-between-packages/-~ast~query,-~ast.svg"
    ]
    _node1 -> _node0
}
