digraph {
    rankdir=LR
    subgraph cluster_0 {
        label="ast::traverse"
        URL="../index.html"
        _node0 [
            shape="box"
            style="bold"
            label="recursiveFor"
            URL="index.html"
        ]
        _node1 [
            shape="box"
            label="Visitor"
            URL="../Visitor/index.html"
        ]
        _node2 [
            shape="box"
            label="recursive"
            URL="../recursive/index.html"
        ]
    }
    subgraph cluster_1 {
        label="ast"
        URL="../../index.html"
        _node3 [
            shape="box"
            label="Node"
            URL="../../Node/index.html"
        ]
        _node4 [
            shape="box"
            label="NodeSpecification"
            URL="../../NodeSpecification/index.html"
        ]
    }
    _node0 -> _node3 [
        URL="../../../../dependencies-between-packages/-~ast~traverse,-~ast.svg"
    ]
    _node0 -> _node4 [
        URL="../../../../dependencies-between-packages/-~ast~traverse,-~ast.svg"
    ]
    _node0 -> _node1
    _node0 -> _node2
    _node2 -> _node0
}
