<?xml version="1.0" encoding="UTF-8" standalone="no"?>
<!DOCTYPE svg PUBLIC "-//W3C//DTD SVG 1.1//EN"
 "http://www.w3.org/Graphics/SVG/1.1/DTD/svg11.dtd">
<!-- Generated by graphviz version 2.40.1 (20161225.0304)
 -->
<!-- Title: %3 Pages: 1 -->
<svg width="186pt" height="230pt"
 viewBox="0.00 0.00 186.00 230.00" xmlns="http://www.w3.org/2000/svg" xmlns:xlink="http://www.w3.org/1999/xlink">
<g id="graph0" class="graph" transform="scale(1 1) rotate(0) translate(4 226)">
<title>%3</title>
<polygon fill="#ffffff" stroke="transparent" points="-4,4 -4,-226 182,-226 182,4 -4,4"/>
<text text-anchor="middle" x="89" y="-7.8" font-family="Times,serif" font-size="14.00" fill="#000000">ArtefactFactory</text>
<g id="clust1" class="cluster">
<title>cluster_0</title>
<polygon fill="none" stroke="#000000" points="8,-31 8,-214 170,-214 170,-31 8,-31"/>
<text text-anchor="middle" x="89" y="-198.8" font-family="Times,serif" font-size="14.00" fill="#000000">methods</text>
</g>
<!-- _node0 -->
<g id="node1" class="node">
<title>_node0</title>
<polygon fill="none" stroke="#000000" points="144,-183 34,-183 34,-147 144,-147 144,-183"/>
<text text-anchor="middle" x="89" y="-161.3" font-family="Times,serif" font-size="14.00" fill="#000000">~ArtefactFactory</text>
</g>
<!-- _node1 -->
<g id="node2" class="node">
<title>_node1</title>
<polygon fill="none" stroke="#000000" points="162,-129 16,-129 16,-93 162,-93 162,-129"/>
<text text-anchor="middle" x="89" y="-107.3" font-family="Times,serif" font-size="14.00" fill="#000000">intraClassDependencies</text>
</g>
<!-- _node2 -->
<g id="node3" class="node">
<title>_node2</title>
<polygon fill="none" stroke="#000000" points="138.5,-75 39.5,-75 39.5,-39 138.5,-39 138.5,-75"/>
<text text-anchor="middle" x="89" y="-53.3" font-family="Times,serif" font-size="14.00" fill="#000000">classNeighbors</text>
</g>
</g>
</svg>
