<?xml version="1.0" encoding="UTF-8" standalone="no"?>
<!DOCTYPE svg PUBLIC "-//W3C//DTD SVG 1.1//EN"
 "http://www.w3.org/Graphics/SVG/1.1/DTD/svg11.dtd">
<!-- Generated by graphviz version 2.40.1 (20161225.0304)
 -->
<!-- Title: %3 Pages: 1 -->
<svg width="259pt" height="182pt"
 viewBox="0.00 0.00 258.50 182.00" xmlns="http://www.w3.org/2000/svg" xmlns:xlink="http://www.w3.org/1999/xlink">
<g id="graph0" class="graph" transform="scale(1 1) rotate(0) translate(4 178)">
<title>%3</title>
<polygon fill="#ffffff" stroke="transparent" points="-4,4 -4,-178 254.5,-178 254.5,4 -4,4"/>
<g id="clust1" class="cluster">
<title>cluster_0</title>
<g id="a_clust1"><a xlink:href="../index.html" xlink:title="artefact::pakageelement_neighbors">
<polygon fill="none" stroke="#000000" points="12.5,-91 12.5,-166 242.5,-166 242.5,-91 12.5,-91"/>
<text text-anchor="middle" x="127.5" y="-150.8" font-family="Times,serif" font-size="14.00" fill="#000000">artefact::pakageelement_neighbors</text>
</a>
</g>
</g>
<g id="clust2" class="cluster">
<title>cluster_1</title>
<g id="a_clust2"><a xlink:href="../../factory/index.html" xlink:title="artefact::factory">
<polygon fill="none" stroke="#000000" points="0,-8 0,-83 103,-83 103,-8 0,-8"/>
<text text-anchor="middle" x="51.5" y="-67.8" font-family="Times,serif" font-size="14.00" fill="#000000">artefact::factory</text>
</a>
</g>
</g>
<!-- _node0 -->
<g id="node1" class="node">
<title>_node0</title>
<g id="a_node1"><a xlink:href="index.html" xlink:title="ArtefactFactory">
<polygon fill="none" stroke="#000000" stroke-width="2" points="234.5,-135 132.5,-135 132.5,-99 234.5,-99 234.5,-135"/>
<text text-anchor="middle" x="183.5" y="-113.3" font-family="Times,serif" font-size="14.00" fill="#000000">ArtefactFactory</text>
</a>
</g>
</g>
<!-- _node1 -->
<g id="node2" class="node">
<title>_node1</title>
<g id="a_node2"><a xlink:href="../Artefact/index.html" xlink:title="Artefact">
<polygon fill="none" stroke="#000000" points="81.5,-135 20.5,-135 20.5,-99 81.5,-99 81.5,-135"/>
<text text-anchor="middle" x="51" y="-113.3" font-family="Times,serif" font-size="14.00" fill="#000000">Artefact</text>
</a>
</g>
</g>
<!-- _node1&#45;&gt;_node0 -->
<g id="edge1" class="edge">
<title>_node1&#45;&gt;_node0</title>
<path fill="none" stroke="#000000" d="M81.7312,-117C93.8501,-117 108.2204,-117 122.2862,-117"/>
<polygon fill="#000000" stroke="#000000" points="122.4379,-120.5001 132.4379,-117 122.4379,-113.5001 122.4379,-120.5001"/>
</g>
<!-- _node2 -->
<g id="node3" class="node">
<title>_node2</title>
<g id="a_node3"><a xlink:href="../../factory/Factory/index.html" xlink:title="Factory">
<polygon fill="none" stroke="#000000" points="80,-52 22,-52 22,-16 80,-16 80,-52"/>
<text text-anchor="middle" x="51" y="-30.3" font-family="Times,serif" font-size="14.00" fill="#000000">Factory</text>
</a>
</g>
</g>
<!-- _node2&#45;&gt;_node0 -->
<g id="edge2" class="edge">
<title>_node2&#45;&gt;_node0</title>
<g id="a_edge2"><a xlink:href="../../../../dependencies-between-packages/-~artefact~factory,-~artefact~pakageelement_neighbors.svg">
<path fill="none" stroke="#000000" d="M79.7505,-52.0098C99.0639,-64.108 124.7171,-80.1775 145.6822,-93.3103"/>
<polygon fill="#000000" stroke="#000000" points="144.0154,-96.3962 154.348,-98.7388 147.7314,-90.464 144.0154,-96.3962"/>
</a>
</g>
</g>
</g>
</svg>
