<?xml version="1.0" encoding="UTF-8" standalone="no"?>
<!DOCTYPE svg PUBLIC "-//W3C//DTD SVG 1.1//EN"
 "http://www.w3.org/Graphics/SVG/1.1/DTD/svg11.dtd">
<!-- Generated by graphviz version 2.40.1 (20161225.0304)
 -->
<!-- Title: %3 Pages: 1 -->
<svg width="75pt" height="31pt"
 viewBox="0.00 0.00 75.00 31.00" xmlns="http://www.w3.org/2000/svg" xmlns:xlink="http://www.w3.org/1999/xlink">
<g id="graph0" class="graph" transform="scale(1 1) rotate(0) translate(4 27)">
<title>%3</title>
<polygon fill="#ffffff" stroke="transparent" points="-4,4 -4,-27 71,-27 71,4 -4,4"/>
<text text-anchor="middle" x="33.5" y="-7.8" font-family="Times,serif" font-size="14.00" fill="#000000">NodeList</text>
</g>
</svg>
