<?xml version="1.0" encoding="UTF-8" standalone="no"?>
<!DOCTYPE svg PUBLIC "-//W3C//DTD SVG 1.1//EN"
 "http://www.w3.org/Graphics/SVG/1.1/DTD/svg11.dtd">
<!-- Generated by graphviz version 2.40.1 (20161225.0304)
 -->
<!-- Title: %3 Pages: 1 -->
<svg width="466pt" height="512pt"
 viewBox="0.00 0.00 466.00 512.00" xmlns="http://www.w3.org/2000/svg" xmlns:xlink="http://www.w3.org/1999/xlink">
<g id="graph0" class="graph" transform="scale(1 1) rotate(0) translate(4 508.0001)">
<title>%3</title>
<polygon fill="#ffffff" stroke="transparent" points="-4,4 -4,-508.0001 462,-508.0001 462,4 -4,4"/>
<text text-anchor="middle" x="229" y="-7.8" font-family="Times,serif" font-size="14.00" fill="#000000">Queue</text>
<g id="clust1" class="cluster">
<title>cluster_0</title>
<polygon fill="none" stroke="#000000" points="8,-313.0001 8,-496.0001 345,-496.0001 345,-313.0001 8,-313.0001"/>
<text text-anchor="middle" x="176.5" y="-480.8001" font-family="Times,serif" font-size="14.00" fill="#000000">methods</text>
</g>
<g id="clust2" class="cluster">
<title>cluster_1</title>
<polygon fill="none" stroke="#000000" points="365,-80.0001 365,-371.0001 450,-371.0001 450,-80.0001 365,-80.0001"/>
<text text-anchor="middle" x="407.5" y="-355.8001" font-family="Times,serif" font-size="14.00" fill="#000000">fields</text>
</g>
<!-- _node0 -->
<g id="node1" class="node">
<title>_node0</title>
<polygon fill="none" stroke="#000000" points="80,-411.0001 26,-411.0001 26,-375.0001 80,-375.0001 80,-411.0001"/>
<text text-anchor="middle" x="53" y="-389.3001" font-family="Times,serif" font-size="14.00" fill="#000000">Queue</text>
</g>
<!-- _node7 -->
<g id="node8" class="node">
<title>_node7</title>
<polygon fill="none" stroke="#000000" points="434.5,-124.0001 380.5,-124.0001 380.5,-88.0001 434.5,-88.0001 434.5,-124.0001"/>
<text text-anchor="middle" x="407.5" y="-102.3001" font-family="Times,serif" font-size="14.00" fill="#000000">pg</text>
</g>
<!-- _node0&#45;&gt;_node7 -->
<g id="edge1" class="edge">
<title>_node0&#45;&gt;_node7</title>
<path fill="none" stroke="#000000" d="M80.1165,-377.2351C83.9379,-373.9627 87.4321,-370.2089 90,-366.0001 143.8891,-277.6749 55.6637,-211.8828 126,-136.0001 188.3777,-68.7036 309.4933,-83.6088 370.4956,-96.6104"/>
<polygon fill="#000000" stroke="#000000" points="369.9342,-100.0711 380.4563,-98.8314 371.4577,-93.2388 369.9342,-100.0711"/>
</g>
<!-- _node8 -->
<g id="node9" class="node">
<title>_node8</title>
<polygon fill="none" stroke="#000000" points="434.5,-232.0001 380.5,-232.0001 380.5,-196.0001 434.5,-196.0001 434.5,-232.0001"/>
<text text-anchor="middle" x="407.5" y="-210.3001" font-family="Times,serif" font-size="14.00" fill="#000000">env</text>
</g>
<!-- _node0&#45;&gt;_node8 -->
<g id="edge2" class="edge">
<title>_node0&#45;&gt;_node8</title>
<path fill="none" stroke="#000000" d="M80.0474,-375.4065C83.6081,-372.4938 87.0423,-369.3292 90,-366.0001 111.6759,-341.6025 103.4356,-325.5784 126,-302.0001 169.0612,-257.004 185.903,-247.6587 245,-228.0001 286.2162,-214.2895 336.3844,-211.9833 369.9774,-212.337"/>
<polygon fill="#000000" stroke="#000000" points="370.2042,-215.8419 380.2695,-212.5342 370.3384,-208.8431 370.2042,-215.8419"/>
</g>
<!-- _node9 -->
<g id="node10" class="node">
<title>_node9</title>
<polygon fill="none" stroke="#000000" points="434.5,-286.0001 380.5,-286.0001 380.5,-250.0001 434.5,-250.0001 434.5,-286.0001"/>
<text text-anchor="middle" x="407.5" y="-264.3001" font-family="Times,serif" font-size="14.00" fill="#000000">logger</text>
</g>
<!-- _node0&#45;&gt;_node9 -->
<g id="edge3" class="edge">
<title>_node0&#45;&gt;_node9</title>
<path fill="none" stroke="#000000" d="M77.2336,-374.9398C91.0893,-365.0783 109.0384,-353.0664 126,-344.0001 176.4431,-317.0372 189.9931,-310.6764 245,-295.0001 287.0658,-283.0118 336.871,-275.7108 370.1526,-271.7754"/>
<polygon fill="#000000" stroke="#000000" points="370.8073,-275.2235 380.3469,-270.6142 370.015,-268.2685 370.8073,-275.2235"/>
</g>
<!-- _node10 -->
<g id="node11" class="node">
<title>_node10</title>
<polygon fill="none" stroke="#000000" points="434.5,-178.0001 380.5,-178.0001 380.5,-142.0001 434.5,-142.0001 434.5,-178.0001"/>
<text text-anchor="middle" x="407.5" y="-156.3001" font-family="Times,serif" font-size="14.00" fill="#000000">queue</text>
</g>
<!-- _node0&#45;&gt;_node10 -->
<g id="edge4" class="edge">
<title>_node0&#45;&gt;_node10</title>
<path fill="none" stroke="#000000" d="M80.0744,-376.6494C83.8045,-373.4871 87.2813,-369.921 90,-366.0001 123.9172,-317.0845 95.4221,-288.0697 126,-237.0001 163.6248,-174.1612 177.0367,-150.301 245,-123.0001 286.2414,-106.4334 302.1334,-111.2629 345,-123.0001 348.2051,-123.8777 359.368,-130.3062 371.3916,-137.5653"/>
<polygon fill="#000000" stroke="#000000" points="369.8364,-140.7162 380.1973,-142.9304 373.4786,-134.7384 369.8364,-140.7162"/>
</g>
<!-- _node11 -->
<g id="node12" class="node">
<title>_node11</title>
<polygon fill="none" stroke="#000000" points="442,-340.0001 373,-340.0001 373,-304.0001 442,-304.0001 442,-340.0001"/>
<text text-anchor="middle" x="407.5" y="-318.3001" font-family="Times,serif" font-size="14.00" fill="#000000">generated</text>
</g>
<!-- _node0&#45;&gt;_node11 -->
<g id="edge5" class="edge">
<title>_node0&#45;&gt;_node11</title>
<path fill="none" stroke="#000000" d="M80.3166,-381.4229C93.8539,-376.0671 110.5692,-370.0168 126,-366.0001 208.0727,-344.636 306.4752,-332.1526 362.5221,-326.2372"/>
<polygon fill="#000000" stroke="#000000" points="363.2274,-329.6831 372.8151,-325.1747 362.5085,-322.7201 363.2274,-329.6831"/>
</g>
<!-- _node1 -->
<g id="node2" class="node">
<title>_node1</title>
<polygon fill="none" stroke="#000000" points="80,-357.0001 26,-357.0001 26,-321.0001 80,-321.0001 80,-357.0001"/>
<text text-anchor="middle" x="53" y="-335.3001" font-family="Times,serif" font-size="14.00" fill="#000000">push</text>
</g>
<!-- _node1&#45;&gt;_node10 -->
<g id="edge6" class="edge">
<title>_node1&#45;&gt;_node10</title>
<path fill="none" stroke="#000000" d="M55.0364,-320.847C61.6923,-265.1608 84.7796,-98.6164 126,-67.0001 203.2317,-7.7629 266.8295,-9.0074 345,-67.0001 369.6161,-85.2622 346.4621,-108.591 365,-133.0001 367.0619,-135.7151 369.482,-138.2295 372.1032,-140.5414"/>
<polygon fill="#000000" stroke="#000000" points="370.3365,-143.5952 380.4133,-146.8678 374.5767,-138.0255 370.3365,-143.5952"/>
</g>
<!-- _node2 -->
<g id="node3" class="node">
<title>_node2</title>
<polygon fill="none" stroke="#000000" points="90,-465.0001 16,-465.0001 16,-429.0001 90,-429.0001 90,-465.0001"/>
<text text-anchor="middle" x="53" y="-443.3001" font-family="Times,serif" font-size="14.00" fill="#000000">processAll</text>
</g>
<!-- _node3 -->
<g id="node4" class="node">
<title>_node3</title>
<polygon fill="none" stroke="#000000" points="209,-465.0001 126,-465.0001 126,-429.0001 209,-429.0001 209,-465.0001"/>
<text text-anchor="middle" x="167.5" y="-443.3001" font-family="Times,serif" font-size="14.00" fill="#000000">processNext</text>
</g>
<!-- _node2&#45;&gt;_node3 -->
<g id="edge8" class="edge">
<title>_node2&#45;&gt;_node3</title>
<path fill="none" stroke="#000000" d="M90.1749,-447.0001C98.2526,-447.0001 106.9408,-447.0001 115.4731,-447.0001"/>
<polygon fill="#000000" stroke="#000000" points="115.7516,-450.5002 125.7516,-447.0001 115.7516,-443.5002 115.7516,-450.5002"/>
</g>
<!-- _node4 -->
<g id="node5" class="node">
<title>_node4</title>
<polygon fill="none" stroke="#000000" points="200.5,-411.0001 134.5,-411.0001 134.5,-375.0001 200.5,-375.0001 200.5,-411.0001"/>
<text text-anchor="middle" x="167.5" y="-389.3001" font-family="Times,serif" font-size="14.00" fill="#000000">hasWork</text>
</g>
<!-- _node2&#45;&gt;_node4 -->
<g id="edge7" class="edge">
<title>_node2&#45;&gt;_node4</title>
<path fill="none" stroke="#000000" d="M90.1749,-429.4678C101.2962,-424.2229 113.5747,-418.4321 125.01,-413.039"/>
<polygon fill="#000000" stroke="#000000" points="126.8218,-416.0544 134.3734,-408.6231 123.8359,-409.7231 126.8218,-416.0544"/>
</g>
<!-- _node5 -->
<g id="node6" class="node">
<title>_node5</title>
<polygon fill="none" stroke="#000000" points="331.5,-411.0001 250.5,-411.0001 250.5,-375.0001 331.5,-375.0001 331.5,-411.0001"/>
<text text-anchor="middle" x="291" y="-389.3001" font-family="Times,serif" font-size="14.00" fill="#000000">isGenerated</text>
</g>
<!-- _node3&#45;&gt;_node5 -->
<g id="edge11" class="edge">
<title>_node3&#45;&gt;_node5</title>
<path fill="none" stroke="#000000" d="M208.9673,-428.8687C219.2649,-424.3661 230.4091,-419.4933 241.0657,-414.8337"/>
<polygon fill="#000000" stroke="#000000" points="242.5112,-418.0217 250.2714,-410.8086 239.7068,-411.608 242.5112,-418.0217"/>
</g>
<!-- _node6 -->
<g id="node7" class="node">
<title>_node6</title>
<polygon fill="none" stroke="#000000" points="337,-465.0001 245,-465.0001 245,-429.0001 337,-429.0001 337,-465.0001"/>
<text text-anchor="middle" x="291" y="-443.3001" font-family="Times,serif" font-size="14.00" fill="#000000">addGenerated</text>
</g>
<!-- _node3&#45;&gt;_node6 -->
<g id="edge13" class="edge">
<title>_node3&#45;&gt;_node6</title>
<path fill="none" stroke="#000000" d="M209.3115,-447.0001C217.56,-447.0001 226.3403,-447.0001 234.9703,-447.0001"/>
<polygon fill="#000000" stroke="#000000" points="234.9912,-450.5002 244.9912,-447.0001 234.9912,-443.5002 234.9912,-450.5002"/>
</g>
<!-- _node3&#45;&gt;_node8 -->
<g id="edge10" class="edge">
<title>_node3&#45;&gt;_node8</title>
<path fill="none" stroke="#000000" d="M200.7129,-428.7177C203.8007,-426.0858 206.6476,-423.1781 209,-420.0001 243.3963,-373.5317 208.0038,-339.4265 245,-295.0001 277.4514,-256.0312 333.2895,-234.0522 370.3056,-223.0987"/>
<polygon fill="#000000" stroke="#000000" points="371.5421,-226.3864 380.2119,-220.2967 369.6368,-219.6507 371.5421,-226.3864"/>
</g>
<!-- _node3&#45;&gt;_node9 -->
<g id="edge12" class="edge">
<title>_node3&#45;&gt;_node9</title>
<path fill="none" stroke="#000000" d="M198.5042,-428.8766C202.2225,-426.1229 205.8218,-423.1429 209,-420.0001 229.51,-399.7186 224.147,-385.9288 245,-366.0001 282.6634,-330.0062 335.8007,-301.0866 370.9243,-284.2355"/>
<polygon fill="#000000" stroke="#000000" points="372.7705,-287.2348 380.3254,-279.8069 369.7873,-280.9022 372.7705,-287.2348"/>
</g>
<!-- _node3&#45;&gt;_node10 -->
<g id="edge9" class="edge">
<title>_node3&#45;&gt;_node10</title>
<path fill="none" stroke="#000000" d="M201.0231,-428.9361C204.0528,-426.2633 206.8013,-423.2863 209,-420.0001 257.2799,-347.8417 190.4139,-295.514 245,-228.0001 276.1086,-189.524 332.8007,-172.521 370.3142,-165.2172"/>
<polygon fill="#000000" stroke="#000000" points="371.1306,-168.6265 380.3492,-163.4046 369.8863,-161.738 371.1306,-168.6265"/>
</g>
<!-- _node4&#45;&gt;_node10 -->
<g id="edge14" class="edge">
<title>_node4&#45;&gt;_node10</title>
<path fill="none" stroke="#000000" d="M170.3257,-374.8041C178.9148,-322.116 206.4993,-171.3731 245,-143.0001 281.3181,-116.2355 335.2316,-129.2891 370.859,-143.0154"/>
<polygon fill="#000000" stroke="#000000" points="369.8102,-146.3666 380.393,-146.8722 372.4354,-139.8775 369.8102,-146.3666"/>
</g>
<!-- _node5&#45;&gt;_node11 -->
<g id="edge15" class="edge">
<title>_node5&#45;&gt;_node11</title>
<path fill="none" stroke="#000000" d="M321.9138,-374.8455C329.4848,-370.354 337.5514,-365.5302 345,-361.0001 353.2725,-355.9689 362.1179,-350.5028 370.4739,-345.299"/>
<polygon fill="#000000" stroke="#000000" points="372.3315,-348.2655 378.9601,-340.0004 368.624,-342.3279 372.3315,-348.2655"/>
</g>
<!-- _node6&#45;&gt;_node11 -->
<g id="edge16" class="edge">
<title>_node6&#45;&gt;_node11</title>
<path fill="none" stroke="#000000" d="M332.8897,-428.9898C337.2039,-426.2945 341.3401,-423.2977 345,-420.0001 366.9713,-400.2042 384.2696,-370.956 395.0447,-349.5657"/>
<polygon fill="#000000" stroke="#000000" points="398.2994,-350.8761 399.5297,-340.3529 392.0056,-347.8121 398.2994,-350.8761"/>
</g>
</g>
</svg>
