digraph {
    rankdir=LR
    subgraph cluster_0 {
        label="artefact::stable_dependency_principle_violations"
        URL="../index.html"
        _node0 [
            shape="box"
            style="bold"
            label="Artefact"
            URL="index.html"
        ]
        _node1 [
            shape="box"
            label="ArtefactFactory"
            URL="../ArtefactFactory/index.html"
        ]
    }
    subgraph cluster_1 {
        label="artefact"
        URL="../../index.html"
        _node2 [
            shape="box"
            label="Artefact"
            URL="../../Artefact/index.html"
        ]
        _node3 [
            shape="box"
            label="Environment"
            URL="../../Environment/index.html"
        ]
        _node4 [
            shape="box"
            label="Url"
            URL="../../Url/index.html"
        ]
        _node5 [
            shape="box"
            label="Os"
            URL="../../Os/index.html"
        ]
        _node6 [
            shape="box"
            label="PathForNode"
            URL="../../PathForNode/index.html"
        ]
        _node7 [
            shape="box"
            label="Path"
            URL="../../Path/index.html"
        ]
    }
    subgraph cluster_2 {
        label="ast"
        URL="../../../ast/index.html"
        _node8 [
            shape="box"
            label="Project"
            URL="../../../ast/Project/index.html"
        ]
        _node9 [
            shape="box"
            label="Node"
            URL="../../../ast/Node/index.html"
        ]
        _node10 [
            shape="box"
            label="Package"
            URL="../../../ast/Package/index.html"
        ]
    }
    subgraph cluster_3 {
        label="artefact::stable_dependency_principle_violations::Artefact"
        URL="index.html"
        _node11 [
            shape="box"
            label="StabilityCalculator"
            URL="StabilityCalculator/index.html"
        ]
        _node12 [
            shape="box"
            label="DependencyInfo"
            URL="DependencyInfo/index.html"
        ]
        _node13 [
            shape="box"
            label="Packages"
            URL="Packages/index.html"
        ]
    }
    subgraph cluster_4 {
        label="ast::repository"
        URL="../../../ast/repository/index.html"
        _node14 [
            shape="box"
            label="Neighbor"
            URL="../../../ast/repository/Neighbor/index.html"
        ]
    }
    subgraph cluster_5 {
        label="library"
        URL="../../../library/index.html"
        _node15 [
            shape="box"
            label="Set"
            URL="../../../library/Set/index.html"
        ]
        _node16 [
            shape="box"
            label="OrderedSet"
            URL="../../../library/OrderedSet/index.html"
        ]
        _node17 [
            shape="box"
            label="toString"
            URL="../../../library/toString/index.html"
        ]
    }
    subgraph cluster_6 {
        label="ast::traverse"
        URL="../../../ast/traverse/index.html"
        _node18 [
            shape="box"
            label="recursive"
            URL="../../../ast/traverse/recursive/index.html"
        ]
    }
    subgraph cluster_7 {
        label="html"
        URL="../../../html/index.html"
        _node19 [
            shape="box"
            label="XmlWriter"
            URL="../../../html/XmlWriter/index.html"
        ]
        _node20 [
            shape="box"
            label="printHeader"
            URL="../../../html/printHeader/index.html"
        ]
        _node21 [
            shape="box"
            label="tableStart"
            URL="../../../html/tableStart/index.html"
        ]
        _node22 [
            shape="box"
            label="tableHead"
            URL="../../../html/tableHead/index.html"
        ]
        _node23 [
            shape="box"
            label="tableData"
            URL="../../../html/tableData/index.html"
        ]
        _node24 [
            shape="box"
            label="tableEnd"
            URL="../../../html/tableEnd/index.html"
        ]
        _node25 [
            shape="box"
            label="tableData"
            URL="../../../html/tableData/index.html"
        ]
        _node26 [
            shape="box"
            label="printLink"
            URL="../../../html/printLink/index.html"
        ]
    }
    subgraph cluster_8 {
        label="artefact::factory"
        URL="../../factory/index.html"
        _node27 [
            shape="box"
            label="Factory"
            URL="../../factory/Factory/index.html"
        ]
    }
    _node0 -> _node2 [
        URL="../../../../dependencies-between-packages/-~artefact~stable_dependency_principle_violations,-~artefact.svg"
    ]
    _node0 -> _node8 [
        URL="../../../../dependencies-between-packages/-~artefact~stable_dependency_principle_violations,-~ast.svg"
    ]
    _node0 -> _node1
    _node0 -> _node11
    _node0 -> _node14 [
        URL="../../../../dependencies-between-packages/-~artefact~stable_dependency_principle_violations,-~ast~repository.svg"
    ]
    _node0 -> _node3 [
        URL="../../../../dependencies-between-packages/-~artefact~stable_dependency_principle_violations,-~artefact.svg"
    ]
    _node0 -> _node12
    _node0 -> _node9 [
        URL="../../../../dependencies-between-packages/-~artefact~stable_dependency_principle_violations,-~ast.svg"
    ]
    _node0 -> _node15 [
        URL="../../../../dependencies-between-packages/-~artefact~stable_dependency_principle_violations,-~library.svg"
    ]
    _node0 -> _node18 [
        URL="../../../../dependencies-between-packages/-~artefact~stable_dependency_principle_violations,-~ast~traverse.svg"
    ]
    _node0 -> _node10 [
        URL="../../../../dependencies-between-packages/-~artefact~stable_dependency_principle_violations,-~ast.svg"
    ]
    _node0 -> _node16 [
        URL="../../../../dependencies-between-packages/-~artefact~stable_dependency_principle_violations,-~library.svg"
    ]
    _node0 -> _node13
    _node0 -> _node19 [
        URL="../../../../dependencies-between-packages/-~artefact~stable_dependency_principle_violations,-~html.svg"
    ]
    _node0 -> _node20 [
        URL="../../../../dependencies-between-packages/-~artefact~stable_dependency_principle_violations,-~html.svg"
    ]
    _node0 -> _node4 [
        URL="../../../../dependencies-between-packages/-~artefact~stable_dependency_principle_violations,-~artefact.svg"
    ]
    _node0 -> _node5 [
        URL="../../../../dependencies-between-packages/-~artefact~stable_dependency_principle_violations,-~artefact.svg"
    ]
    _node0 -> _node6 [
        URL="../../../../dependencies-between-packages/-~artefact~stable_dependency_principle_violations,-~artefact.svg"
    ]
    _node0 -> _node21 [
        URL="../../../../dependencies-between-packages/-~artefact~stable_dependency_principle_violations,-~html.svg"
    ]
    _node0 -> _node22 [
        URL="../../../../dependencies-between-packages/-~artefact~stable_dependency_principle_violations,-~html.svg"
    ]
    _node0 -> _node23 [
        URL="../../../../dependencies-between-packages/-~artefact~stable_dependency_principle_violations,-~html.svg"
    ]
    _node0 -> _node17 [
        URL="../../../../dependencies-between-packages/-~artefact~stable_dependency_principle_violations,-~library.svg"
    ]
    _node0 -> _node24 [
        URL="../../../../dependencies-between-packages/-~artefact~stable_dependency_principle_violations,-~html.svg"
    ]
    _node0 -> _node7 [
        URL="../../../../dependencies-between-packages/-~artefact~stable_dependency_principle_violations,-~artefact.svg"
    ]
    _node0 -> _node25 [
        URL="../../../../dependencies-between-packages/-~artefact~stable_dependency_principle_violations,-~html.svg"
    ]
    _node0 -> _node26 [
        URL="../../../../dependencies-between-packages/-~artefact~stable_dependency_principle_violations,-~html.svg"
    ]
    _node27 -> _node0 [
        URL="../../../../dependencies-between-packages/-~artefact~factory,-~artefact~stable_dependency_principle_violations.svg"
    ]
}
