<?xml version="1.0" encoding="UTF-8" standalone="no"?>
<!DOCTYPE svg PUBLIC "-//W3C//DTD SVG 1.1//EN"
 "http://www.w3.org/Graphics/SVG/1.1/DTD/svg11.dtd">
<!-- Generated by graphviz version 2.40.1 (20161225.0304)
 -->
<!-- Title: %3 Pages: 1 -->
<svg width="560pt" height="348pt"
 viewBox="0.00 0.00 559.50 348.00" xmlns="http://www.w3.org/2000/svg" xmlns:xlink="http://www.w3.org/1999/xlink">
<g id="graph0" class="graph" transform="scale(1 1) rotate(0) translate(4 344)">
<title>%3</title>
<polygon fill="#ffffff" stroke="transparent" points="-4,4 -4,-344 555.5,-344 555.5,4 -4,4"/>
<g id="clust1" class="cluster">
<title>cluster_0</title>
<g id="a_clust1"><a xlink:href="../index.html" xlink:title="ast::specification">
<polygon fill="none" stroke="#000000" points="282.5,-91 282.5,-166 390.5,-166 390.5,-91 282.5,-91"/>
<text text-anchor="middle" x="336.5" y="-150.8" font-family="Times,serif" font-size="14.00" fill="#000000">ast::specification</text>
</a>
</g>
</g>
<g id="clust2" class="cluster">
<title>cluster_1</title>
<g id="a_clust2"><a xlink:href="../../index.html" xlink:title="ast">
<polygon fill="none" stroke="#000000" points="410.5,-91 410.5,-220 543.5,-220 543.5,-91 410.5,-91"/>
<text text-anchor="middle" x="477" y="-204.8" font-family="Times,serif" font-size="14.00" fill="#000000">ast</text>
</a>
</g>
</g>
<g id="clust3" class="cluster">
<title>cluster_2</title>
<g id="a_clust3"><a xlink:href="../../query/index.html" xlink:title="ast::query">
<polygon fill="none" stroke="#000000" points="435,-8 435,-83 519,-83 519,-8 435,-8"/>
<text text-anchor="middle" x="477" y="-67.8" font-family="Times,serif" font-size="14.00" fill="#000000">ast::query</text>
</a>
</g>
</g>
<g id="clust4" class="cluster">
<title>cluster_3</title>
<g id="a_clust4"><a xlink:href="../../repository/index.html" xlink:title="ast::repository">
<polygon fill="none" stroke="#000000" points="84.5,-257 84.5,-332 178.5,-332 178.5,-257 84.5,-257"/>
<text text-anchor="middle" x="131.5" y="-316.8" font-family="Times,serif" font-size="14.00" fill="#000000">ast::repository</text>
</a>
</g>
</g>
<g id="clust5" class="cluster">
<title>cluster_4</title>
<g id="a_clust5"><a xlink:href="../../../artefact/package_dependencies/index.html" xlink:title="artefact::package_dependencies">
<polygon fill="none" stroke="#000000" points="38,-174 38,-249 226,-249 226,-174 38,-174"/>
<text text-anchor="middle" x="132" y="-233.8" font-family="Times,serif" font-size="14.00" fill="#000000">artefact::package_dependencies</text>
</a>
</g>
</g>
<g id="clust6" class="cluster">
<title>cluster_5</title>
<g id="a_clust6"><a xlink:href="../../../artefact/packages_with_cyclic_dependencies/index.html" xlink:title="artefact::packages_with_cyclic_dependencies">
<polygon fill="none" stroke="#000000" points="0,-91 0,-166 263,-166 263,-91 0,-91"/>
<text text-anchor="middle" x="131.5" y="-150.8" font-family="Times,serif" font-size="14.00" fill="#000000">artefact::packages_with_cyclic_dependencies</text>
</a>
</g>
</g>
<g id="clust7" class="cluster">
<title>cluster_6</title>
<g id="a_clust7"><a xlink:href="../../../artefact/pakageelement_neighbors/index.html" xlink:title="artefact::pakageelement_neighbors">
<polygon fill="none" stroke="#000000" points="29,-8 29,-83 235,-83 235,-8 29,-8"/>
<text text-anchor="middle" x="132" y="-67.8" font-family="Times,serif" font-size="14.00" fill="#000000">artefact::pakageelement_neighbors</text>
</a>
</g>
</g>
<!-- _node0 -->
<g id="node1" class="node">
<title>_node0</title>
<g id="a_node1"><a xlink:href="index.html" xlink:title="PackageNode">
<polygon fill="none" stroke="#000000" stroke-width="2" points="381.5,-135 290.5,-135 290.5,-99 381.5,-99 381.5,-135"/>
<text text-anchor="middle" x="336" y="-113.3" font-family="Times,serif" font-size="14.00" fill="#000000">PackageNode</text>
</a>
</g>
</g>
<!-- _node1 -->
<g id="node2" class="node">
<title>_node1</title>
<g id="a_node2"><a xlink:href="../../NodeSpecification/index.html" xlink:title="NodeSpecification">
<polygon fill="none" stroke="#000000" points="535.5,-189 418.5,-189 418.5,-153 535.5,-153 535.5,-189"/>
<text text-anchor="middle" x="477" y="-167.3" font-family="Times,serif" font-size="14.00" fill="#000000">NodeSpecification</text>
</a>
</g>
</g>
<!-- _node0&#45;&gt;_node1 -->
<g id="edge1" class="edge">
<title>_node0&#45;&gt;_node1</title>
<g id="a_edge1"><a xlink:href="../../../../dependencies-between-packages/-~ast~specification,-~ast.svg">
<path fill="none" stroke="#000000" d="M381.7787,-134.5323C393.9536,-139.195 407.2548,-144.2891 419.9514,-149.1516"/>
<polygon fill="#000000" stroke="#000000" points="418.9238,-152.5059 429.5141,-152.8139 421.4273,-145.9689 418.9238,-152.5059"/>
</a>
</g>
</g>
<!-- _node2 -->
<g id="node3" class="node">
<title>_node2</title>
<g id="a_node3"><a xlink:href="../../Package/index.html" xlink:title="Package">
<polygon fill="none" stroke="#000000" points="508,-135 446,-135 446,-99 508,-99 508,-135"/>
<text text-anchor="middle" x="477" y="-113.3" font-family="Times,serif" font-size="14.00" fill="#000000">Package</text>
</a>
</g>
</g>
<!-- _node0&#45;&gt;_node2 -->
<g id="edge3" class="edge">
<title>_node0&#45;&gt;_node2</title>
<g id="a_edge3"><a xlink:href="../../../../dependencies-between-packages/-~ast~specification,-~ast.svg">
<path fill="none" stroke="#000000" d="M381.7787,-117C399.0924,-117 418.6838,-117 435.5754,-117"/>
<polygon fill="#000000" stroke="#000000" points="435.6994,-120.5001 445.6993,-117 435.6993,-113.5001 435.6994,-120.5001"/>
</a>
</g>
</g>
<!-- _node3 -->
<g id="node4" class="node">
<title>_node3</title>
<g id="a_node4"><a xlink:href="../../query/isOfType/index.html" xlink:title="isOfType">
<polygon fill="none" stroke="#000000" points="511,-52 443,-52 443,-16 511,-16 511,-52"/>
<text text-anchor="middle" x="477" y="-30.3" font-family="Times,serif" font-size="14.00" fill="#000000">isOfType</text>
</a>
</g>
</g>
<!-- _node0&#45;&gt;_node3 -->
<g id="edge2" class="edge">
<title>_node0&#45;&gt;_node3</title>
<g id="a_edge2"><a xlink:href="../../../../dependencies-between-packages/-~ast~specification,-~ast~query.svg">
<path fill="none" stroke="#000000" d="M366.5949,-98.9902C387.3308,-86.784 414.9342,-70.5352 437.3525,-57.3386"/>
<polygon fill="#000000" stroke="#000000" points="439.1356,-60.3504 445.9779,-52.2612 435.5846,-54.3179 439.1356,-60.3504"/>
</a>
</g>
</g>
<!-- _node4 -->
<g id="node5" class="node">
<title>_node4</title>
<g id="a_node5"><a xlink:href="../../repository/Neighbor/index.html" xlink:title="Neighbor">
<polygon fill="none" stroke="#000000" points="165.5,-301 97.5,-301 97.5,-265 165.5,-265 165.5,-301"/>
<text text-anchor="middle" x="131.5" y="-279.3" font-family="Times,serif" font-size="14.00" fill="#000000">Neighbor</text>
</a>
</g>
</g>
<!-- _node4&#45;&gt;_node0 -->
<g id="edge4" class="edge">
<title>_node4&#45;&gt;_node0</title>
<g id="a_edge4"><a xlink:href="../../../../dependencies-between-packages/-~ast~repository,-~ast~specification.svg">
<path fill="none" stroke="#000000" d="M165.5262,-282.8166C194.1802,-281.0196 234.8779,-274.4334 263,-253 298.616,-225.8551 318.8399,-176.198 328.5903,-144.9861"/>
<polygon fill="#000000" stroke="#000000" points="332.0144,-145.75 331.5026,-135.1675 325.3034,-143.7594 332.0144,-145.75"/>
</a>
</g>
</g>
<!-- _node5 -->
<g id="node6" class="node">
<title>_node5</title>
<g id="a_node6"><a xlink:href="../../../artefact/package_dependencies/Artefact/index.html" xlink:title="Artefact">
<polygon fill="none" stroke="#000000" points="162,-218 101,-218 101,-182 162,-182 162,-218"/>
<text text-anchor="middle" x="131.5" y="-196.3" font-family="Times,serif" font-size="14.00" fill="#000000">Artefact</text>
</a>
</g>
</g>
<!-- _node5&#45;&gt;_node0 -->
<g id="edge5" class="edge">
<title>_node5&#45;&gt;_node0</title>
<g id="a_edge5"><a xlink:href="../../../../dependencies-between-packages/-~artefact~package_dependencies,-~ast~specification.svg">
<path fill="none" stroke="#000000" d="M162.121,-196.5688C189.5123,-192.6838 230.2703,-184.8579 263,-170 278.9099,-162.7776 294.8167,-151.7847 307.7016,-141.6792"/>
<polygon fill="#000000" stroke="#000000" points="310.1233,-144.2222 315.7021,-135.2151 305.7241,-138.7773 310.1233,-144.2222"/>
</a>
</g>
</g>
<!-- _node6 -->
<g id="node7" class="node">
<title>_node6</title>
<g id="a_node7"><a xlink:href="../../../artefact/packages_with_cyclic_dependencies/Artefact/index.html" xlink:title="Artefact">
<polygon fill="none" stroke="#000000" points="162,-135 101,-135 101,-99 162,-99 162,-135"/>
<text text-anchor="middle" x="131.5" y="-113.3" font-family="Times,serif" font-size="14.00" fill="#000000">Artefact</text>
</a>
</g>
</g>
<!-- _node6&#45;&gt;_node0 -->
<g id="edge6" class="edge">
<title>_node6&#45;&gt;_node0</title>
<g id="a_edge6"><a xlink:href="../../../../dependencies-between-packages/-~artefact~packages_with_cyclic_dependencies,-~ast~specification.svg">
<path fill="none" stroke="#000000" d="M162.1157,-117C193.1793,-117 241.9691,-117 279.9709,-117"/>
<polygon fill="#000000" stroke="#000000" points="280.3796,-120.5001 290.3796,-117 280.3796,-113.5001 280.3796,-120.5001"/>
</a>
</g>
</g>
<!-- _node7 -->
<g id="node8" class="node">
<title>_node7</title>
<g id="a_node8"><a xlink:href="../../../artefact/pakageelement_neighbors/Artefact/index.html" xlink:title="Artefact">
<polygon fill="none" stroke="#000000" points="162,-52 101,-52 101,-16 162,-16 162,-52"/>
<text text-anchor="middle" x="131.5" y="-30.3" font-family="Times,serif" font-size="14.00" fill="#000000">Artefact</text>
</a>
</g>
</g>
<!-- _node7&#45;&gt;_node0 -->
<g id="edge7" class="edge">
<title>_node7&#45;&gt;_node0</title>
<g id="a_edge7"><a xlink:href="../../../../dependencies-between-packages/-~artefact~pakageelement_neighbors,-~ast~specification.svg">
<path fill="none" stroke="#000000" d="M162.0805,-46.257C188.7472,-56.9615 228.4603,-72.9425 263,-87 269.3099,-89.5681 275.9224,-92.2703 282.4819,-94.9575"/>
<polygon fill="#000000" stroke="#000000" points="281.4327,-98.3101 292.0129,-98.8667 284.0891,-91.8337 281.4327,-98.3101"/>
</a>
</g>
</g>
</g>
</svg>
