digraph {
    rankdir=LR
    subgraph cluster_0 {
        label="ast::repository::Neighbor"
        URL="../index.html"
        _node0 [
            shape="box"
            style="bold"
            label="Vertices"
            URL="index.html"
        ]
        _node1 [
            shape="box"
            label="Specification"
            URL="../Specification/index.html"
        ]
    }
    subgraph cluster_1 {
        label="ast"
        URL="../../../index.html"
        _node2 [
            shape="box"
            label="Node"
            URL="../../../Node/index.html"
        ]
    }
    subgraph cluster_2 {
        label="ast::repository"
        URL="../../index.html"
        _node3 [
            shape="box"
            label="Neighbor"
            URL="../index.html"
        ]
    }
    _node0 -> _node2 [
        URL="../../../../../dependencies-between-packages/-~ast~repository,-~ast.svg"
    ]
    _node1 -> _node0
    _node3 -> _node0
}
