<?xml version="1.0" encoding="UTF-8" standalone="no"?>
<!DOCTYPE svg PUBLIC "-//W3C//DTD SVG 1.1//EN"
 "http://www.w3.org/Graphics/SVG/1.1/DTD/svg11.dtd">
<!-- Generated by graphviz version 2.40.1 (20161225.0304)
 -->
<!-- Title: %3 Pages: 1 -->
<svg width="396pt" height="1174pt"
 viewBox="0.00 0.00 395.50 1174.00" xmlns="http://www.w3.org/2000/svg" xmlns:xlink="http://www.w3.org/1999/xlink">
<g id="graph0" class="graph" transform="scale(1 1) rotate(0) translate(4 1170)">
<title>%3</title>
<polygon fill="#ffffff" stroke="transparent" points="-4,4 -4,-1170 391.5,-1170 391.5,4 -4,4"/>
<g id="clust1" class="cluster">
<title>cluster_0</title>
<g id="a_clust1"><a xlink:href="../index.html" xlink:title="artefact">
<polygon fill="none" stroke="#000000" points="65.5,-975 65.5,-1158 379.5,-1158 379.5,-975 65.5,-975"/>
<text text-anchor="middle" x="222.5" y="-1142.8" font-family="Times,serif" font-size="14.00" fill="#000000">artefact</text>
</a>
</g>
</g>
<g id="clust2" class="cluster">
<title>cluster_1</title>
<g id="a_clust2"><a xlink:href="../../graph/index.html" xlink:title="graph">
<polygon fill="none" stroke="#000000" points="97,-838 97,-967 184,-967 184,-838 97,-838"/>
<text text-anchor="middle" x="140.5" y="-951.8" font-family="Times,serif" font-size="14.00" fill="#000000">graph</text>
</a>
</g>
</g>
<g id="clust3" class="cluster">
<title>cluster_2</title>
<g id="a_clust3"><a xlink:href="../../driver/index.html" xlink:title="driver">
<polygon fill="none" stroke="#000000" points="104,-755 104,-830 177,-830 177,-755 104,-755"/>
<text text-anchor="middle" x="140.5" y="-814.8" font-family="Times,serif" font-size="14.00" fill="#000000">driver</text>
</a>
</g>
</g>
<g id="clust4" class="cluster">
<title>cluster_3</title>
<g id="a_clust4"><a xlink:href="../../feature_test/filesystem/index.html" xlink:title="feature_test::filesystem">
<polygon fill="none" stroke="#000000" points="69.5,-672 69.5,-747 212.5,-747 212.5,-672 69.5,-672"/>
<text text-anchor="middle" x="141" y="-731.8" font-family="Times,serif" font-size="14.00" fill="#000000">feature_test::filesystem</text>
</a>
</g>
</g>
<g id="clust5" class="cluster">
<title>cluster_4</title>
<g id="a_clust5"><a xlink:href="../../index.html" xlink:title="::">
<polygon fill="none" stroke="#000000" points="105.5,-589 105.5,-664 175.5,-664 175.5,-589 105.5,-589"/>
<text text-anchor="middle" x="140.5" y="-648.8" font-family="Times,serif" font-size="14.00" fill="#000000">::</text>
</a>
</g>
</g>
<g id="clust6" class="cluster">
<title>cluster_5</title>
<g id="a_clust6"><a xlink:href="../class_overview/index.html" xlink:title="artefact::class_overview">
<polygon fill="none" stroke="#000000" points="67,-506 67,-581 215,-581 215,-506 67,-506"/>
<text text-anchor="middle" x="141" y="-565.8" font-family="Times,serif" font-size="14.00" fill="#000000">artefact::class_overview</text>
</a>
</g>
</g>
<g id="clust7" class="cluster">
<title>cluster_6</title>
<g id="a_clust7"><a xlink:href="../overview/index.html" xlink:title="artefact::overview">
<polygon fill="none" stroke="#000000" points="83,-423 83,-498 198,-498 198,-423 83,-423"/>
<text text-anchor="middle" x="140.5" y="-482.8" font-family="Times,serif" font-size="14.00" fill="#000000">artefact::overview</text>
</a>
</g>
</g>
<g id="clust8" class="cluster">
<title>cluster_7</title>
<g id="a_clust8"><a xlink:href="../package_overview/index.html" xlink:title="artefact::package_overview">
<polygon fill="none" stroke="#000000" points="58,-340 58,-415 224,-415 224,-340 58,-340"/>
<text text-anchor="middle" x="141" y="-399.8" font-family="Times,serif" font-size="14.00" fill="#000000">artefact::package_overview</text>
</a>
</g>
</g>
<g id="clust9" class="cluster">
<title>cluster_8</title>
<g id="a_clust9"><a xlink:href="../packages_with_cyclic_dependencies/index.html" xlink:title="artefact::packages_with_cyclic_dependencies">
<polygon fill="none" stroke="#000000" points="9,-257 9,-332 272,-332 272,-257 9,-257"/>
<text text-anchor="middle" x="140.5" y="-316.8" font-family="Times,serif" font-size="14.00" fill="#000000">artefact::packages_with_cyclic_dependencies</text>
</a>
</g>
</g>
<g id="clust10" class="cluster">
<title>cluster_9</title>
<g id="a_clust10"><a xlink:href="../stable_dependency_principle_violations/index.html" xlink:title="artefact::stable_dependency_principle_violations">
<polygon fill="none" stroke="#000000" points="0,-174 0,-249 282,-249 282,-174 0,-174"/>
<text text-anchor="middle" x="141" y="-233.8" font-family="Times,serif" font-size="14.00" fill="#000000">artefact::stable_dependency_principle_violations</text>
</a>
</g>
</g>
<g id="clust11" class="cluster">
<title>cluster_10</title>
<g id="a_clust11"><a xlink:href="../function_overview/index.html" xlink:title="artefact::function_overview">
<polygon fill="none" stroke="#000000" points="57,-91 57,-166 224,-166 224,-91 57,-91"/>
<text text-anchor="middle" x="140.5" y="-150.8" font-family="Times,serif" font-size="14.00" fill="#000000">artefact::function_overview</text>
</a>
</g>
</g>
<g id="clust12" class="cluster">
<title>cluster_11</title>
<g id="a_clust12"><a xlink:href="../variable_overview/index.html" xlink:title="artefact::variable_overview">
<polygon fill="none" stroke="#000000" points="58,-8 58,-83 223,-83 223,-8 58,-8"/>
<text text-anchor="middle" x="140.5" y="-67.8" font-family="Times,serif" font-size="14.00" fill="#000000">artefact::variable_overview</text>
</a>
</g>
</g>
<!-- _node0 -->
<g id="node1" class="node">
<title>_node0</title>
<g id="a_node1"><a xlink:href="index.html" xlink:title="Os">
<polygon fill="none" stroke="#000000" stroke-width="2" points="371.5,-1019 317.5,-1019 317.5,-983 371.5,-983 371.5,-1019"/>
<text text-anchor="middle" x="344.5" y="-997.3" font-family="Times,serif" font-size="14.00" fill="#000000">Os</text>
</a>
</g>
</g>
<!-- _node1 -->
<g id="node2" class="node">
<title>_node1</title>
<g id="a_node2"><a xlink:href="../Environment/index.html" xlink:title="Environment">
<polygon fill="none" stroke="#000000" points="184.5,-1127 96.5,-1127 96.5,-1091 184.5,-1091 184.5,-1127"/>
<text text-anchor="middle" x="140.5" y="-1105.3" font-family="Times,serif" font-size="14.00" fill="#000000">Environment</text>
</a>
</g>
</g>
<!-- _node1&#45;&gt;_node0 -->
<g id="edge1" class="edge">
<title>_node1&#45;&gt;_node0</title>
<path fill="none" stroke="#000000" d="M184.5559,-1108.5742C214.0566,-1106.4584 252.7031,-1100.0056 282,-1082 303.0047,-1069.0907 319.6059,-1046.3674 330.4036,-1028.2678"/>
<polygon fill="#000000" stroke="#000000" points="333.6034,-1029.7219 335.5137,-1019.3007 327.5216,-1026.256 333.6034,-1029.7219"/>
</g>
<!-- _node2 -->
<g id="node3" class="node">
<title>_node2</title>
<g id="a_node3"><a xlink:href="../generateGraphvizSvg/index.html" xlink:title="generateGraphvizSvg">
<polygon fill="none" stroke="#000000" points="207.5,-1073 73.5,-1073 73.5,-1037 207.5,-1037 207.5,-1073"/>
<text text-anchor="middle" x="140.5" y="-1051.3" font-family="Times,serif" font-size="14.00" fill="#000000">generateGraphvizSvg</text>
</a>
</g>
</g>
<!-- _node2&#45;&gt;_node0 -->
<g id="edge14" class="edge">
<title>_node2&#45;&gt;_node0</title>
<path fill="none" stroke="#000000" d="M207.8206,-1045.2616C231.5419,-1041.0166 258.2138,-1035.3101 282,-1028 290.6194,-1025.351 299.652,-1021.8831 308.086,-1018.3195"/>
<polygon fill="#000000" stroke="#000000" points="309.5376,-1021.5049 317.3001,-1014.2941 306.7352,-1015.0903 309.5376,-1021.5049"/>
</g>
<!-- _node3 -->
<g id="node4" class="node">
<title>_node3</title>
<g id="a_node4"><a xlink:href="../shouldGenerate/index.html" xlink:title="shouldGenerate">
<polygon fill="none" stroke="#000000" points="191,-1019 90,-1019 90,-983 191,-983 191,-1019"/>
<text text-anchor="middle" x="140.5" y="-997.3" font-family="Times,serif" font-size="14.00" fill="#000000">shouldGenerate</text>
</a>
</g>
</g>
<!-- _node3&#45;&gt;_node0 -->
<g id="edge15" class="edge">
<title>_node3&#45;&gt;_node0</title>
<path fill="none" stroke="#000000" d="M191.1891,-1001C227.1789,-1001 274.6928,-1001 307.2305,-1001"/>
<polygon fill="#000000" stroke="#000000" points="307.2349,-1004.5001 317.2348,-1001 307.2348,-997.5001 307.2349,-1004.5001"/>
</g>
<!-- _node4 -->
<g id="node5" class="node">
<title>_node4</title>
<g id="a_node5"><a xlink:href="../../graph/Queue/index.html" xlink:title="Queue">
<polygon fill="none" stroke="#000000" points="167.5,-936 113.5,-936 113.5,-900 167.5,-900 167.5,-936"/>
<text text-anchor="middle" x="140.5" y="-914.3" font-family="Times,serif" font-size="14.00" fill="#000000">Queue</text>
</a>
</g>
</g>
<!-- _node4&#45;&gt;_node0 -->
<g id="edge2" class="edge">
<title>_node4&#45;&gt;_node0</title>
<g id="a_edge2"><a xlink:href="../../../dependencies-between-packages/-~graph,-~artefact.svg">
<path fill="none" stroke="#000000" d="M167.6457,-927.356C196.3413,-937.4344 242.7861,-954.284 282,-971 290.6188,-974.674 299.775,-978.8875 308.3448,-982.9728"/>
<polygon fill="#000000" stroke="#000000" points="306.8334,-986.1296 317.3607,-987.3237 309.8758,-979.8253 306.8334,-986.1296"/>
</a>
</g>
</g>
<!-- _node5 -->
<g id="node6" class="node">
<title>_node5</title>
<g id="a_node6"><a xlink:href="../../graph/createEnv/index.html" xlink:title="createEnv">
<polygon fill="none" stroke="#000000" points="176,-882 105,-882 105,-846 176,-846 176,-882"/>
<text text-anchor="middle" x="140.5" y="-860.3" font-family="Times,serif" font-size="14.00" fill="#000000">createEnv</text>
</a>
</g>
</g>
<!-- _node5&#45;&gt;_node0 -->
<g id="edge3" class="edge">
<title>_node5&#45;&gt;_node0</title>
<g id="a_edge3"><a xlink:href="../../../dependencies-between-packages/-~graph,-~artefact.svg">
<path fill="none" stroke="#000000" d="M176.2809,-862.7915C207.0018,-863.5021 251.0905,-868.8716 282,-891 310.0646,-911.0917 327.2247,-947.9643 336.2928,-973.4462"/>
<polygon fill="#000000" stroke="#000000" points="332.9762,-974.5644 339.4829,-982.9258 339.6106,-972.3318 332.9762,-974.5644"/>
</a>
</g>
</g>
<!-- _node6 -->
<g id="node7" class="node">
<title>_node6</title>
<g id="a_node7"><a xlink:href="../../driver/process/index.html" xlink:title="process">
<polygon fill="none" stroke="#000000" points="169,-799 112,-799 112,-763 169,-763 169,-799"/>
<text text-anchor="middle" x="140.5" y="-777.3" font-family="Times,serif" font-size="14.00" fill="#000000">process</text>
</a>
</g>
</g>
<!-- _node6&#45;&gt;_node0 -->
<g id="edge4" class="edge">
<title>_node6&#45;&gt;_node0</title>
<g id="a_edge4"><a xlink:href="../../../dependencies-between-packages/-~driver,-~artefact.svg">
<path fill="none" stroke="#000000" d="M169.254,-784.6271C200.8557,-790.0616 251.2123,-803.204 282,-834 320.2474,-872.2577 335.401,-936.1011 341.1673,-972.7728"/>
<polygon fill="#000000" stroke="#000000" points="337.7201,-973.3907 342.6137,-982.7877 344.6483,-972.39 337.7201,-973.3907"/>
</a>
</g>
</g>
<!-- _node7 -->
<g id="node8" class="node">
<title>_node7</title>
<g id="a_node8"><a xlink:href="../../feature_test/filesystem/InMemory/index.html" xlink:title="InMemory">
<polygon fill="none" stroke="#000000" points="178.5,-716 102.5,-716 102.5,-680 178.5,-680 178.5,-716"/>
<text text-anchor="middle" x="140.5" y="-694.3" font-family="Times,serif" font-size="14.00" fill="#000000">InMemory</text>
</a>
</g>
</g>
<!-- _node7&#45;&gt;_node0 -->
<g id="edge5" class="edge">
<title>_node7&#45;&gt;_node0</title>
<g id="a_edge5"><a xlink:href="../../../dependencies-between-packages/-~feature_test~filesystem,-~artefact.svg">
<path fill="none" stroke="#000000" d="M178.7557,-702.4626C210.8377,-708.232 255.5356,-721.3504 282,-751 311.3779,-783.9137 332.5854,-914.4958 340.775,-972.7219"/>
<polygon fill="#000000" stroke="#000000" points="337.3192,-973.2835 342.1517,-982.712 344.2537,-972.3278 337.3192,-973.2835"/>
</a>
</g>
</g>
<!-- _node8 -->
<g id="node9" class="node">
<title>_node8</title>
<g id="a_node9"><a xlink:href="../../StdOs/index.html" xlink:title="StdOs">
<polygon fill="none" stroke="#000000" points="167.5,-633 113.5,-633 113.5,-597 167.5,-597 167.5,-633"/>
<text text-anchor="middle" x="140.5" y="-611.3" font-family="Times,serif" font-size="14.00" fill="#000000">StdOs</text>
</a>
</g>
</g>
<!-- _node8&#45;&gt;_node0 -->
<g id="edge6" class="edge">
<title>_node8&#45;&gt;_node0</title>
<g id="a_edge6"><a xlink:href="../../../dependencies-between-packages/-,-~artefact.svg">
<path fill="none" stroke="#000000" d="M167.6777,-617.3293C200.0107,-621.6202 253.2215,-633.7615 282,-668 320.8798,-714.2562 337.6091,-900.7479 342.6996,-972.5897"/>
<polygon fill="#000000" stroke="#000000" points="339.2178,-972.9753 343.393,-982.7128 346.2014,-972.4969 339.2178,-972.9753"/>
</a>
</g>
</g>
<!-- _node9 -->
<g id="node10" class="node">
<title>_node9</title>
<g id="a_node10"><a xlink:href="../class_overview/Artefact/index.html" xlink:title="Artefact">
<polygon fill="none" stroke="#000000" points="171,-550 110,-550 110,-514 171,-514 171,-550"/>
<text text-anchor="middle" x="140.5" y="-528.3" font-family="Times,serif" font-size="14.00" fill="#000000">Artefact</text>
</a>
</g>
</g>
<!-- _node9&#45;&gt;_node0 -->
<g id="edge7" class="edge">
<title>_node9&#45;&gt;_node0</title>
<g id="a_edge7"><a xlink:href="../../../dependencies-between-packages/-~artefact~class_overview,-~artefact.svg">
<path fill="none" stroke="#000000" d="M171.1007,-534.5795C203.8503,-539.07 254.7575,-551.3646 282,-585 330.5496,-644.9427 341.5324,-889.2101 343.8887,-972.7935"/>
<polygon fill="#000000" stroke="#000000" points="340.3909,-972.9244 344.1513,-982.8294 347.3885,-972.7412 340.3909,-972.9244"/>
</a>
</g>
</g>
<!-- _node10 -->
<g id="node11" class="node">
<title>_node10</title>
<g id="a_node11"><a xlink:href="../overview/Artefact/index.html" xlink:title="Artefact">
<polygon fill="none" stroke="#000000" points="171,-467 110,-467 110,-431 171,-431 171,-467"/>
<text text-anchor="middle" x="140.5" y="-445.3" font-family="Times,serif" font-size="14.00" fill="#000000">Artefact</text>
</a>
</g>
</g>
<!-- _node10&#45;&gt;_node0 -->
<g id="edge8" class="edge">
<title>_node10&#45;&gt;_node0</title>
<g id="a_edge8"><a xlink:href="../../../dependencies-between-packages/-~artefact~overview,-~artefact.svg">
<path fill="none" stroke="#000000" d="M171.2579,-451.4538C204.145,-455.8343 255.172,-468.0331 282,-502 311.3726,-539.1886 335.8775,-872.2079 342.6448,-972.5274"/>
<polygon fill="#000000" stroke="#000000" points="339.1722,-973.056 343.3304,-982.8007 346.1567,-972.5898 339.1722,-973.056"/>
</a>
</g>
</g>
<!-- _node11 -->
<g id="node12" class="node">
<title>_node11</title>
<g id="a_node12"><a xlink:href="../package_overview/Artefact/index.html" xlink:title="Artefact">
<polygon fill="none" stroke="#000000" points="171,-384 110,-384 110,-348 171,-348 171,-384"/>
<text text-anchor="middle" x="140.5" y="-362.3" font-family="Times,serif" font-size="14.00" fill="#000000">Artefact</text>
</a>
</g>
</g>
<!-- _node11&#45;&gt;_node0 -->
<g id="edge9" class="edge">
<title>_node11&#45;&gt;_node0</title>
<g id="a_edge9"><a xlink:href="../../../dependencies-between-packages/-~artefact~package_overview,-~artefact.svg">
<path fill="none" stroke="#000000" d="M171.0723,-368.3258C204.0485,-372.5939 255.3919,-384.6943 282,-419 316.3191,-463.2474 337.8724,-862.7296 343.2019,-972.948"/>
<polygon fill="#000000" stroke="#000000" points="339.7075,-973.1508 343.6802,-982.9726 346.6995,-972.8171 339.7075,-973.1508"/>
</a>
</g>
</g>
<!-- _node12 -->
<g id="node13" class="node">
<title>_node12</title>
<g id="a_node13"><a xlink:href="../packages_with_cyclic_dependencies/Artefact/index.html" xlink:title="Artefact">
<polygon fill="none" stroke="#000000" points="171,-301 110,-301 110,-265 171,-265 171,-301"/>
<text text-anchor="middle" x="140.5" y="-279.3" font-family="Times,serif" font-size="14.00" fill="#000000">Artefact</text>
</a>
</g>
</g>
<!-- _node12&#45;&gt;_node0 -->
<g id="edge10" class="edge">
<title>_node12&#45;&gt;_node0</title>
<g id="a_edge10"><a xlink:href="../../../dependencies-between-packages/-~artefact~packages_with_cyclic_dependencies,-~artefact.svg">
<path fill="none" stroke="#000000" d="M171.1579,-285.2599C204.2098,-289.4696 255.6201,-301.5186 282,-336 321.2025,-387.242 339.479,-851.9706 343.5857,-972.5344"/>
<polygon fill="#000000" stroke="#000000" points="340.0965,-972.9192 343.9291,-982.7965 347.0926,-972.6851 340.0965,-972.9192"/>
</a>
</g>
</g>
<!-- _node13 -->
<g id="node14" class="node">
<title>_node13</title>
<g id="a_node14"><a xlink:href="../stable_dependency_principle_violations/Artefact/index.html" xlink:title="Artefact">
<polygon fill="none" stroke="#000000" points="171,-218 110,-218 110,-182 171,-182 171,-218"/>
<text text-anchor="middle" x="140.5" y="-196.3" font-family="Times,serif" font-size="14.00" fill="#000000">Artefact</text>
</a>
</g>
</g>
<!-- _node13&#45;&gt;_node0 -->
<g id="edge11" class="edge">
<title>_node13&#45;&gt;_node0</title>
<g id="a_edge11"><a xlink:href="../../../dependencies-between-packages/-~artefact~stable_dependency_principle_violations,-~artefact.svg">
<path fill="none" stroke="#000000" d="M171.2249,-202.2089C204.3362,-206.3735 255.7989,-218.3826 282,-253 326.1311,-311.3069 340.9223,-842.3999 343.8972,-972.3877"/>
<polygon fill="#000000" stroke="#000000" points="340.4053,-972.7902 344.1277,-982.7096 347.4035,-972.6339 340.4053,-972.7902"/>
</a>
</g>
</g>
<!-- _node14 -->
<g id="node15" class="node">
<title>_node14</title>
<g id="a_node15"><a xlink:href="../function_overview/Artefact/index.html" xlink:title="Artefact">
<polygon fill="none" stroke="#000000" points="171,-135 110,-135 110,-99 171,-99 171,-135"/>
<text text-anchor="middle" x="140.5" y="-113.3" font-family="Times,serif" font-size="14.00" fill="#000000">Artefact</text>
</a>
</g>
</g>
<!-- _node14&#45;&gt;_node0 -->
<g id="edge12" class="edge">
<title>_node14&#45;&gt;_node0</title>
<g id="a_edge12"><a xlink:href="../../../dependencies-between-packages/-~artefact~function_overview,-~artefact.svg">
<path fill="none" stroke="#000000" d="M171.2788,-119.1683C204.4378,-123.2969 255.9426,-135.2742 282,-170 331.1419,-235.4898 342.2451,-834.9267 344.157,-972.8114"/>
<polygon fill="#000000" stroke="#000000" points="340.6594,-973.026 344.2926,-982.9784 347.6588,-972.9325 340.6594,-973.026"/>
</a>
</g>
</g>
<!-- _node15 -->
<g id="node16" class="node">
<title>_node15</title>
<g id="a_node16"><a xlink:href="../variable_overview/Artefact/index.html" xlink:title="Artefact">
<polygon fill="none" stroke="#000000" points="171,-52 110,-52 110,-16 171,-16 171,-52"/>
<text text-anchor="middle" x="140.5" y="-30.3" font-family="Times,serif" font-size="14.00" fill="#000000">Artefact</text>
</a>
</g>
</g>
<!-- _node15&#45;&gt;_node0 -->
<g id="edge13" class="edge">
<title>_node15&#45;&gt;_node0</title>
<g id="a_edge13"><a xlink:href="../../../dependencies-between-packages/-~artefact~variable_overview,-~artefact.svg">
<path fill="none" stroke="#000000" d="M171.0227,-36.0982C204.2097,-40.1624 255.9824,-52.0807 282,-87 336.0644,-159.562 343.3972,-825.3887 344.3591,-972.3735"/>
<polygon fill="#000000" stroke="#000000" points="340.8616,-972.8065 344.422,-982.7852 347.8614,-972.7642 340.8616,-972.8065"/>
</a>
</g>
</g>
</g>
</svg>
