digraph {
    rankdir=LR
    _node0 [
        shape="box"
        label="Parents"
        URL="Parents/index.html"
    ]
    _node1 [
        shape="box"
        label="lowestAnchestor"
        URL="lowestAnchestor/index.html"
    ]
    _node2 [
        shape="box"
        label="topAnchestorBelow"
        URL="topAnchestorBelow/index.html"
    ]
    _node3 [
        shape="box"
        label="sameParent"
        URL="sameParent/index.html"
    ]
    _node4 [
        shape="box"
        label="buildParents"
        URL="buildParents/index.html"
    ]
    _node1 -> _node0
    _node2 -> _node0
    _node3 -> _node0
    _node4 -> _node0
}
