digraph {
    rankdir=LR
    _node0 [
        shape="box"
        label="::"
        URL="index.html"
    ]
    _node1 [
        shape="box"
        label="ast"
        URL="ast/index.html"
    ]
    _node2 [
        shape="box"
        label="ast::graph"
        URL="ast/graph/index.html"
    ]
    _node3 [
        shape="box"
        label="ast::graph::cycle"
        URL="ast/graph/cycle/index.html"
    ]
    _node4 [
        shape="box"
        label="ast::repository"
        URL="ast/repository/index.html"
    ]
    _node5 [
        shape="box"
        label="ast::query"
        URL="ast/query/index.html"
    ]
    _node6 [
        shape="box"
        label="ast::specification"
        URL="ast/specification/index.html"
    ]
    _node7 [
        shape="box"
        label="ast::traverse"
        URL="ast/traverse/index.html"
    ]
    _node8 [
        shape="box"
        label="ast::parents"
        URL="ast/parents/index.html"
    ]
    _node9 [
        shape="box"
        label="artefact"
        URL="artefact/index.html"
    ]
    _node10 [
        shape="box"
        label="artefact::class_overview"
        URL="artefact/class_overview/index.html"
    ]
    _node11 [
        shape="box"
        label="artefact::overviewfactory"
        URL="artefact/overviewfactory/index.html"
    ]
    _node12 [
        shape="box"
        label="artefact::dependencies_between_packages"
        URL="artefact/dependencies_between_packages/index.html"
    ]
    _node13 [
        shape="box"
        label="artefact::package_dependencies"
        URL="artefact/package_dependencies/index.html"
    ]
    _node14 [
        shape="box"
        label="artefact::overview"
        URL="artefact/overview/index.html"
    ]
    _node15 [
        shape="box"
        label="artefact::package_overview"
        URL="artefact/package_overview/index.html"
    ]
    _node16 [
        shape="box"
        label="artefact::intra_class_dependencies"
        URL="artefact/intra_class_dependencies/index.html"
    ]
    _node17 [
        shape="box"
        label="artefact::packages_with_cyclic_dependencies"
        URL="artefact/packages_with_cyclic_dependencies/index.html"
    ]
    _node18 [
        shape="box"
        label="artefact::package_neighbors"
        URL="artefact/package_neighbors/index.html"
    ]
    _node19 [
        shape="box"
        label="artefact::stable_dependency_principle_violations"
        URL="artefact/stable_dependency_principle_violations/index.html"
    ]
    _node20 [
        shape="box"
        label="artefact::function_overview"
        URL="artefact/function_overview/index.html"
    ]
    _node21 [
        shape="box"
        label="artefact::variable_overview"
        URL="artefact/variable_overview/index.html"
    ]
    _node22 [
        shape="box"
        label="artefact::pakageelement_neighbors"
        URL="artefact/pakageelement_neighbors/index.html"
    ]
    _node23 [
        shape="box"
        label="artefact::factory"
        URL="artefact/factory/index.html"
    ]
    _node24 [
        shape="box"
        label="artefact::intra_package_dependencies"
        URL="artefact/intra_package_dependencies/index.html"
    ]
    _node25 [
        shape="box"
        label="artefact::unit_test"
        URL="artefact/unit_test/index.html"
    ]
    _node26 [
        shape="box"
        label="html"
        URL="html/index.html"
    ]
    _node27 [
        shape="box"
        label="graphviz"
        URL="graphviz/index.html"
    ]
    _node28 [
        shape="box"
        label="library"
        URL="library/index.html"
    ]
    _node29 [
        shape="box"
        label="metric"
        URL="metric/index.html"
    ]
    _node30 [
        shape="box"
        label="metric::generic"
        URL="metric/generic/index.html"
    ]
    _node31 [
        shape="box"
        label="metric::packageelement"
        URL="metric/packageelement/index.html"
    ]
    _node32 [
        shape="box"
        label="metric::package"
        URL="metric/package/index.html"
    ]
    _node33 [
        shape="box"
        label="graph"
        URL="graph/index.html"
    ]
    _node34 [
        shape="box"
        label="graph::unit_test"
        URL="graph/unit_test/index.html"
    ]
    _node35 [
        shape="box"
        label="logger"
        URL="logger/index.html"
    ]
    _node36 [
        shape="box"
        label="driver"
        URL="driver/index.html"
    ]
    _node37 [
        shape="box"
        label="feature_test"
        URL="feature_test/index.html"
    ]
    _node38 [
        shape="box"
        label="feature_test::filesystem"
        URL="feature_test/filesystem/index.html"
    ]
    _node39 [
        shape="box"
        label="feature_test::graph"
        URL="feature_test/graph/index.html"
    ]
    _node40 [
        shape="box"
        label="feature_test::logger"
        URL="feature_test/logger/index.html"
    ]
    _node41 [
        shape="box"
        label="feature_test::metric"
        URL="feature_test/metric/index.html"
    ]
    _node0 -> _node36 [
        URL="../dependencies-between-packages/-,-~driver.svg"
    ]
    _node0 -> _node9 [
        URL="../dependencies-between-packages/-,-~artefact.svg"
    ]
    _node0 -> _node35 [
        URL="../dependencies-between-packages/-,-~logger.svg"
    ]
    _node2 -> _node1 [
        URL="../dependencies-between-packages/-~ast~graph,-~ast.svg"
    ]
    _node2 -> _node28 [
        URL="../dependencies-between-packages/-~ast~graph,-~library.svg"
    ]
    _node2 -> _node8 [
        URL="../dependencies-between-packages/-~ast~graph,-~ast~parents.svg"
    ]
    _node2 -> _node7 [
        URL="../dependencies-between-packages/-~ast~graph,-~ast~traverse.svg"
    ]
    _node3 -> _node1 [
        URL="../dependencies-between-packages/-~ast~graph~cycle,-~ast.svg"
    ]
    _node3 -> _node2 [
        URL="../dependencies-between-packages/-~ast~graph~cycle,-~ast~graph.svg"
    ]
    _node4 -> _node1 [
        URL="../dependencies-between-packages/-~ast~repository,-~ast.svg"
    ]
    _node4 -> _node6 [
        URL="../dependencies-between-packages/-~ast~repository,-~ast~specification.svg"
    ]
    _node4 -> _node28 [
        URL="../dependencies-between-packages/-~ast~repository,-~library.svg"
    ]
    _node5 -> _node1 [
        URL="../dependencies-between-packages/-~ast~query,-~ast.svg"
    ]
    _node6 -> _node1 [
        URL="../dependencies-between-packages/-~ast~specification,-~ast.svg"
    ]
    _node6 -> _node5 [
        URL="../dependencies-between-packages/-~ast~specification,-~ast~query.svg"
    ]
    _node7 -> _node1 [
        URL="../dependencies-between-packages/-~ast~traverse,-~ast.svg"
    ]
    _node7 -> _node6 [
        URL="../dependencies-between-packages/-~ast~traverse,-~ast~specification.svg"
    ]
    _node8 -> _node1 [
        URL="../dependencies-between-packages/-~ast~parents,-~ast.svg"
    ]
    _node9 -> _node28 [
        URL="../dependencies-between-packages/-~artefact,-~library.svg"
    ]
    _node9 -> _node1 [
        URL="../dependencies-between-packages/-~artefact,-~ast.svg"
    ]
    _node9 -> _node26 [
        URL="../dependencies-between-packages/-~artefact,-~html.svg"
    ]
    _node10 -> _node9 [
        URL="../dependencies-between-packages/-~artefact~class_overview,-~artefact.svg"
    ]
    _node10 -> _node1 [
        URL="../dependencies-between-packages/-~artefact~class_overview,-~ast.svg"
    ]
    _node10 -> _node26 [
        URL="../dependencies-between-packages/-~artefact~class_overview,-~html.svg"
    ]
    _node11 -> _node9 [
        URL="../dependencies-between-packages/-~artefact~overviewfactory,-~artefact.svg"
    ]
    _node11 -> _node1 [
        URL="../dependencies-between-packages/-~artefact~overviewfactory,-~ast.svg"
    ]
    _node12 -> _node9 [
        URL="../dependencies-between-packages/-~artefact~dependencies_between_packages,-~artefact.svg"
    ]
    _node12 -> _node1 [
        URL="../dependencies-between-packages/-~artefact~dependencies_between_packages,-~ast.svg"
    ]
    _node12 -> _node11 [
        URL="../dependencies-between-packages/-~artefact~dependencies_between_packages,-~artefact~overviewfactory.svg"
    ]
    _node12 -> _node4 [
        URL="../dependencies-between-packages/-~artefact~dependencies_between_packages,-~ast~repository.svg"
    ]
    _node12 -> _node27 [
        URL="../dependencies-between-packages/-~artefact~dependencies_between_packages,-~graphviz.svg"
    ]
    _node12 -> _node28 [
        URL="../dependencies-between-packages/-~artefact~dependencies_between_packages,-~library.svg"
    ]
    _node12 -> _node6 [
        URL="../dependencies-between-packages/-~artefact~dependencies_between_packages,-~ast~specification.svg"
    ]
    _node12 -> _node5 [
        URL="../dependencies-between-packages/-~artefact~dependencies_between_packages,-~ast~query.svg"
    ]
    _node13 -> _node9 [
        URL="../dependencies-between-packages/-~artefact~package_dependencies,-~artefact.svg"
    ]
    _node13 -> _node1 [
        URL="../dependencies-between-packages/-~artefact~package_dependencies,-~ast.svg"
    ]
    _node13 -> _node2 [
        URL="../dependencies-between-packages/-~artefact~package_dependencies,-~ast~graph.svg"
    ]
    _node13 -> _node6 [
        URL="../dependencies-between-packages/-~artefact~package_dependencies,-~ast~specification.svg"
    ]
    _node13 -> _node27 [
        URL="../dependencies-between-packages/-~artefact~package_dependencies,-~graphviz.svg"
    ]
    _node14 -> _node9 [
        URL="../dependencies-between-packages/-~artefact~overview,-~artefact.svg"
    ]
    _node14 -> _node1 [
        URL="../dependencies-between-packages/-~artefact~overview,-~ast.svg"
    ]
    _node14 -> _node29 [
        URL="../dependencies-between-packages/-~artefact~overview,-~metric.svg"
    ]
    _node14 -> _node11 [
        URL="../dependencies-between-packages/-~artefact~overview,-~artefact~overviewfactory.svg"
    ]
    _node14 -> _node26 [
        URL="../dependencies-between-packages/-~artefact~overview,-~html.svg"
    ]
    _node14 -> _node7 [
        URL="../dependencies-between-packages/-~artefact~overview,-~ast~traverse.svg"
    ]
    _node15 -> _node9 [
        URL="../dependencies-between-packages/-~artefact~package_overview,-~artefact.svg"
    ]
    _node15 -> _node1 [
        URL="../dependencies-between-packages/-~artefact~package_overview,-~ast.svg"
    ]
    _node15 -> _node26 [
        URL="../dependencies-between-packages/-~artefact~package_overview,-~html.svg"
    ]
    _node16 -> _node9 [
        URL="../dependencies-between-packages/-~artefact~intra_class_dependencies,-~artefact.svg"
    ]
    _node16 -> _node1 [
        URL="../dependencies-between-packages/-~artefact~intra_class_dependencies,-~ast.svg"
    ]
    _node16 -> _node27 [
        URL="../dependencies-between-packages/-~artefact~intra_class_dependencies,-~graphviz.svg"
    ]
    _node16 -> _node28 [
        URL="../dependencies-between-packages/-~artefact~intra_class_dependencies,-~library.svg"
    ]
    _node16 -> _node5 [
        URL="../dependencies-between-packages/-~artefact~intra_class_dependencies,-~ast~query.svg"
    ]
    _node16 -> _node7 [
        URL="../dependencies-between-packages/-~artefact~intra_class_dependencies,-~ast~traverse.svg"
    ]
    _node17 -> _node9 [
        URL="../dependencies-between-packages/-~artefact~packages_with_cyclic_dependencies,-~artefact.svg"
    ]
    _node17 -> _node1 [
        URL="../dependencies-between-packages/-~artefact~packages_with_cyclic_dependencies,-~ast.svg"
    ]
    _node17 -> _node26 [
        URL="../dependencies-between-packages/-~artefact~packages_with_cyclic_dependencies,-~html.svg"
    ]
    _node17 -> _node3 [
        URL="../dependencies-between-packages/-~artefact~packages_with_cyclic_dependencies,-~ast~graph~cycle.svg"
    ]
    _node17 -> _node2 [
        URL="../dependencies-between-packages/-~artefact~packages_with_cyclic_dependencies,-~ast~graph.svg"
    ]
    _node17 -> _node6 [
        URL="../dependencies-between-packages/-~artefact~packages_with_cyclic_dependencies,-~ast~specification.svg"
    ]
    _node17 -> _node28 [
        URL="../dependencies-between-packages/-~artefact~packages_with_cyclic_dependencies,-~library.svg"
    ]
    _node18 -> _node9 [
        URL="../dependencies-between-packages/-~artefact~package_neighbors,-~artefact.svg"
    ]
    _node18 -> _node1 [
        URL="../dependencies-between-packages/-~artefact~package_neighbors,-~ast.svg"
    ]
    _node18 -> _node4 [
        URL="../dependencies-between-packages/-~artefact~package_neighbors,-~ast~repository.svg"
    ]
    _node18 -> _node27 [
        URL="../dependencies-between-packages/-~artefact~package_neighbors,-~graphviz.svg"
    ]
    _node18 -> _node28 [
        URL="../dependencies-between-packages/-~artefact~package_neighbors,-~library.svg"
    ]
    _node19 -> _node9 [
        URL="../dependencies-between-packages/-~artefact~stable_dependency_principle_violations,-~artefact.svg"
    ]
    _node19 -> _node1 [
        URL="../dependencies-between-packages/-~artefact~stable_dependency_principle_violations,-~ast.svg"
    ]
    _node19 -> _node4 [
        URL="../dependencies-between-packages/-~artefact~stable_dependency_principle_violations,-~ast~repository.svg"
    ]
    _node19 -> _node28 [
        URL="../dependencies-between-packages/-~artefact~stable_dependency_principle_violations,-~library.svg"
    ]
    _node19 -> _node7 [
        URL="../dependencies-between-packages/-~artefact~stable_dependency_principle_violations,-~ast~traverse.svg"
    ]
    _node19 -> _node26 [
        URL="../dependencies-between-packages/-~artefact~stable_dependency_principle_violations,-~html.svg"
    ]
    _node20 -> _node9 [
        URL="../dependencies-between-packages/-~artefact~function_overview,-~artefact.svg"
    ]
    _node20 -> _node1 [
        URL="../dependencies-between-packages/-~artefact~function_overview,-~ast.svg"
    ]
    _node20 -> _node26 [
        URL="../dependencies-between-packages/-~artefact~function_overview,-~html.svg"
    ]
    _node21 -> _node9 [
        URL="../dependencies-between-packages/-~artefact~variable_overview,-~artefact.svg"
    ]
    _node21 -> _node1 [
        URL="../dependencies-between-packages/-~artefact~variable_overview,-~ast.svg"
    ]
    _node21 -> _node26 [
        URL="../dependencies-between-packages/-~artefact~variable_overview,-~html.svg"
    ]
    _node22 -> _node9 [
        URL="../dependencies-between-packages/-~artefact~pakageelement_neighbors,-~artefact.svg"
    ]
    _node22 -> _node1 [
        URL="../dependencies-between-packages/-~artefact~pakageelement_neighbors,-~ast.svg"
    ]
    _node22 -> _node11 [
        URL="../dependencies-between-packages/-~artefact~pakageelement_neighbors,-~artefact~overviewfactory.svg"
    ]
    _node22 -> _node4 [
        URL="../dependencies-between-packages/-~artefact~pakageelement_neighbors,-~ast~repository.svg"
    ]
    _node22 -> _node27 [
        URL="../dependencies-between-packages/-~artefact~pakageelement_neighbors,-~graphviz.svg"
    ]
    _node22 -> _node6 [
        URL="../dependencies-between-packages/-~artefact~pakageelement_neighbors,-~ast~specification.svg"
    ]
    _node22 -> _node28 [
        URL="../dependencies-between-packages/-~artefact~pakageelement_neighbors,-~library.svg"
    ]
    _node23 -> _node14 [
        URL="../dependencies-between-packages/-~artefact~factory,-~artefact~overview.svg"
    ]
    _node23 -> _node13 [
        URL="../dependencies-between-packages/-~artefact~factory,-~artefact~package_dependencies.svg"
    ]
    _node23 -> _node10 [
        URL="../dependencies-between-packages/-~artefact~factory,-~artefact~class_overview.svg"
    ]
    _node23 -> _node15 [
        URL="../dependencies-between-packages/-~artefact~factory,-~artefact~package_overview.svg"
    ]
    _node23 -> _node11 [
        URL="../dependencies-between-packages/-~artefact~factory,-~artefact~overviewfactory.svg"
    ]
    _node23 -> _node16 [
        URL="../dependencies-between-packages/-~artefact~factory,-~artefact~intra_class_dependencies.svg"
    ]
    _node23 -> _node17 [
        URL="../dependencies-between-packages/-~artefact~factory,-~artefact~packages_with_cyclic_dependencies.svg"
    ]
    _node23 -> _node18 [
        URL="../dependencies-between-packages/-~artefact~factory,-~artefact~package_neighbors.svg"
    ]
    _node23 -> _node19 [
        URL="../dependencies-between-packages/-~artefact~factory,-~artefact~stable_dependency_principle_violations.svg"
    ]
    _node23 -> _node20 [
        URL="../dependencies-between-packages/-~artefact~factory,-~artefact~function_overview.svg"
    ]
    _node23 -> _node21 [
        URL="../dependencies-between-packages/-~artefact~factory,-~artefact~variable_overview.svg"
    ]
    _node23 -> _node22 [
        URL="../dependencies-between-packages/-~artefact~factory,-~artefact~pakageelement_neighbors.svg"
    ]
    _node23 -> _node4 [
        URL="../dependencies-between-packages/-~artefact~factory,-~ast~repository.svg"
    ]
    _node23 -> _node29 [
        URL="../dependencies-between-packages/-~artefact~factory,-~metric.svg"
    ]
    _node23 -> _node9 [
        URL="../dependencies-between-packages/-~artefact~factory,-~artefact.svg"
    ]
    _node23 -> _node1 [
        URL="../dependencies-between-packages/-~artefact~factory,-~ast.svg"
    ]
    _node23 -> _node24 [
        URL="../dependencies-between-packages/-~artefact~factory,-~artefact~intra_package_dependencies.svg"
    ]
    _node23 -> _node12 [
        URL="../dependencies-between-packages/-~artefact~factory,-~artefact~dependencies_between_packages.svg"
    ]
    _node24 -> _node9 [
        URL="../dependencies-between-packages/-~artefact~intra_package_dependencies,-~artefact.svg"
    ]
    _node24 -> _node1 [
        URL="../dependencies-between-packages/-~artefact~intra_package_dependencies,-~ast.svg"
    ]
    _node24 -> _node11 [
        URL="../dependencies-between-packages/-~artefact~intra_package_dependencies,-~artefact~overviewfactory.svg"
    ]
    _node24 -> _node2 [
        URL="../dependencies-between-packages/-~artefact~intra_package_dependencies,-~ast~graph.svg"
    ]
    _node24 -> _node6 [
        URL="../dependencies-between-packages/-~artefact~intra_package_dependencies,-~ast~specification.svg"
    ]
    _node24 -> _node27 [
        URL="../dependencies-between-packages/-~artefact~intra_package_dependencies,-~graphviz.svg"
    ]
    _node25 -> _node9 [
        URL="../dependencies-between-packages/-~artefact~unit_test,-~artefact.svg"
    ]
    _node29 -> _node1 [
        URL="../dependencies-between-packages/-~metric,-~ast.svg"
    ]
    _node29 -> _node4 [
        URL="../dependencies-between-packages/-~metric,-~ast~repository.svg"
    ]
    _node29 -> _node32 [
        URL="../dependencies-between-packages/-~metric,-~metric~package.svg"
    ]
    _node29 -> _node30 [
        URL="../dependencies-between-packages/-~metric,-~metric~generic.svg"
    ]
    _node29 -> _node31 [
        URL="../dependencies-between-packages/-~metric,-~metric~packageelement.svg"
    ]
    _node29 -> _node28 [
        URL="../dependencies-between-packages/-~metric,-~library.svg"
    ]
    _node30 -> _node1 [
        URL="../dependencies-between-packages/-~metric~generic,-~ast.svg"
    ]
    _node30 -> _node6 [
        URL="../dependencies-between-packages/-~metric~generic,-~ast~specification.svg"
    ]
    _node30 -> _node4 [
        URL="../dependencies-between-packages/-~metric~generic,-~ast~repository.svg"
    ]
    _node30 -> _node2 [
        URL="../dependencies-between-packages/-~metric~generic,-~ast~graph.svg"
    ]
    _node30 -> _node7 [
        URL="../dependencies-between-packages/-~metric~generic,-~ast~traverse.svg"
    ]
    _node31 -> _node30 [
        URL="../dependencies-between-packages/-~metric~packageelement,-~metric~generic.svg"
    ]
    _node31 -> _node4 [
        URL="../dependencies-between-packages/-~metric~packageelement,-~ast~repository.svg"
    ]
    _node32 -> _node30 [
        URL="../dependencies-between-packages/-~metric~package,-~metric~generic.svg"
    ]
    _node32 -> _node4 [
        URL="../dependencies-between-packages/-~metric~package,-~ast~repository.svg"
    ]
    _node33 -> _node1 [
        URL="../dependencies-between-packages/-~graph,-~ast.svg"
    ]
    _node33 -> _node9 [
        URL="../dependencies-between-packages/-~graph,-~artefact.svg"
    ]
    _node33 -> _node7 [
        URL="../dependencies-between-packages/-~graph,-~ast~traverse.svg"
    ]
    _node33 -> _node35 [
        URL="../dependencies-between-packages/-~graph,-~logger.svg"
    ]
    _node33 -> _node28 [
        URL="../dependencies-between-packages/-~graph,-~library.svg"
    ]
    _node33 -> _node27 [
        URL="../dependencies-between-packages/-~graph,-~graphviz.svg"
    ]
    _node34 -> _node1 [
        URL="../dependencies-between-packages/-~graph~unit_test,-~ast.svg"
    ]
    _node34 -> _node38 [
        URL="../dependencies-between-packages/-~graph~unit_test,-~feature_test~filesystem.svg"
    ]
    _node34 -> _node40 [
        URL="../dependencies-between-packages/-~graph~unit_test,-~feature_test~logger.svg"
    ]
    _node34 -> _node33 [
        URL="../dependencies-between-packages/-~graph~unit_test,-~graph.svg"
    ]
    _node34 -> _node25 [
        URL="../dependencies-between-packages/-~graph~unit_test,-~artefact~unit_test.svg"
    ]
    _node36 -> _node9 [
        URL="../dependencies-between-packages/-~driver,-~artefact.svg"
    ]
    _node36 -> _node35 [
        URL="../dependencies-between-packages/-~driver,-~logger.svg"
    ]
    _node36 -> _node1 [
        URL="../dependencies-between-packages/-~driver,-~ast.svg"
    ]
    _node36 -> _node33 [
        URL="../dependencies-between-packages/-~driver,-~graph.svg"
    ]
    _node36 -> _node4 [
        URL="../dependencies-between-packages/-~driver,-~ast~repository.svg"
    ]
    _node36 -> _node29 [
        URL="../dependencies-between-packages/-~driver,-~metric.svg"
    ]
    _node36 -> _node23 [
        URL="../dependencies-between-packages/-~driver,-~artefact~factory.svg"
    ]
    _node37 -> _node29 [
        URL="../dependencies-between-packages/-~feature_test,-~metric.svg"
    ]
    _node37 -> _node9 [
        URL="../dependencies-between-packages/-~feature_test,-~artefact.svg"
    ]
    _node37 -> _node1 [
        URL="../dependencies-between-packages/-~feature_test,-~ast.svg"
    ]
    _node37 -> _node23 [
        URL="../dependencies-between-packages/-~feature_test,-~artefact~factory.svg"
    ]
    _node37 -> _node4 [
        URL="../dependencies-between-packages/-~feature_test,-~ast~repository.svg"
    ]
    _node37 -> _node33 [
        URL="../dependencies-between-packages/-~feature_test,-~graph.svg"
    ]
    _node37 -> _node5 [
        URL="../dependencies-between-packages/-~feature_test,-~ast~query.svg"
    ]
    _node37 -> _node38 [
        URL="../dependencies-between-packages/-~feature_test,-~feature_test~filesystem.svg"
    ]
    _node37 -> _node40 [
        URL="../dependencies-between-packages/-~feature_test,-~feature_test~logger.svg"
    ]
    _node37 -> _node36 [
        URL="../dependencies-between-packages/-~feature_test,-~driver.svg"
    ]
    _node38 -> _node36 [
        URL="../dependencies-between-packages/-~feature_test~filesystem,-~driver.svg"
    ]
    _node38 -> _node9 [
        URL="../dependencies-between-packages/-~feature_test~filesystem,-~artefact.svg"
    ]
    _node39 -> _node1 [
        URL="../dependencies-between-packages/-~feature_test~graph,-~ast.svg"
    ]
    _node39 -> _node2 [
        URL="../dependencies-between-packages/-~feature_test~graph,-~ast~graph.svg"
    ]
    _node39 -> _node28 [
        URL="../dependencies-between-packages/-~feature_test~graph,-~library.svg"
    ]
    _node39 -> _node3 [
        URL="../dependencies-between-packages/-~feature_test~graph,-~ast~graph~cycle.svg"
    ]
    _node40 -> _node35 [
        URL="../dependencies-between-packages/-~feature_test~logger,-~logger.svg"
    ]
    _node41 -> _node28 [
        URL="../dependencies-between-packages/-~feature_test~metric,-~library.svg"
    ]
    _node41 -> _node1 [
        URL="../dependencies-between-packages/-~feature_test~metric,-~ast.svg"
    ]
    _node41 -> _node37 [
        URL="../dependencies-between-packages/-~feature_test~metric,-~feature_test.svg"
    ]
    _node41 -> _node5 [
        URL="../dependencies-between-packages/-~feature_test~metric,-~ast~query.svg"
    ]
    _node41 -> _node30 [
        URL="../dependencies-between-packages/-~feature_test~metric,-~metric~generic.svg"
    ]
    _node41 -> _node31 [
        URL="../dependencies-between-packages/-~feature_test~metric,-~metric~packageelement.svg"
    ]
    _node41 -> _node32 [
        URL="../dependencies-between-packages/-~feature_test~metric,-~metric~package.svg"
    ]
}
