<?xml version="1.0" encoding="UTF-8" standalone="no"?>
<!DOCTYPE svg PUBLIC "-//W3C//DTD SVG 1.1//EN"
 "http://www.w3.org/Graphics/SVG/1.1/DTD/svg11.dtd">
<!-- Generated by graphviz version 2.40.1 (20161225.0304)
 -->
<!-- Title: %3 Pages: 1 -->
<svg width="535pt" height="422pt"
 viewBox="0.00 0.00 535.00 422.00" xmlns="http://www.w3.org/2000/svg" xmlns:xlink="http://www.w3.org/1999/xlink">
<g id="graph0" class="graph" transform="scale(1 1) rotate(0) translate(4 418)">
<title>%3</title>
<polygon fill="#ffffff" stroke="transparent" points="-4,4 -4,-418 531,-418 531,4 -4,4"/>
<!-- _node0 -->
<g id="node1" class="node">
<title>_node0</title>
<g id="a_node1"><a xlink:href="index.html" xlink:title="ast::specification">
<polygon fill="none" stroke="#000000" stroke-width="2" points="414,-225 306,-225 306,-189 414,-189 414,-225"/>
<text text-anchor="middle" x="360" y="-203.3" font-family="Times,serif" font-size="14.00" fill="#000000">ast::specification</text>
</a>
</g>
</g>
<!-- _node1 -->
<g id="node2" class="node">
<title>_node1</title>
<g id="a_node2"><a xlink:href="../index.html" xlink:title="ast">
<polygon fill="none" stroke="#000000" points="519,-252 465,-252 465,-216 519,-216 519,-252"/>
<text text-anchor="middle" x="492" y="-230.3" font-family="Times,serif" font-size="14.00" fill="#000000">ast</text>
</a>
</g>
</g>
<!-- _node0&#45;&gt;_node1 -->
<g id="edge1" class="edge">
<title>_node0&#45;&gt;_node1</title>
<g id="a_edge1"><a xlink:href="../../../dependencies-between-packages/-~ast~specification,-~ast.svg" xlink:title="7">
<path fill="none" stroke="#000000" d="M414.0703,-218.0598C427.7538,-220.8587 442.1449,-223.8024 454.7844,-226.3877"/>
<polygon fill="#000000" stroke="#000000" points="454.4371,-229.8891 464.9356,-228.4641 455.8399,-223.0311 454.4371,-229.8891"/>
</a>
</g>
<g id="a_edge1&#45;label"><a xlink:href="../../../dependencies-between-packages/-~ast~specification,-~ast.svg" xlink:title="7">
<text text-anchor="middle" x="435.5" y="-225.8" font-family="Times,serif" font-size="14.00" fill="#000000">7</text>
</a>
</g>
</g>
<!-- _node2 -->
<g id="node3" class="node">
<title>_node2</title>
<g id="a_node3"><a xlink:href="../query/index.html" xlink:title="ast::query">
<polygon fill="none" stroke="#000000" points="527,-198 457,-198 457,-162 527,-162 527,-198"/>
<text text-anchor="middle" x="492" y="-176.3" font-family="Times,serif" font-size="14.00" fill="#000000">ast::query</text>
</a>
</g>
</g>
<!-- _node0&#45;&gt;_node2 -->
<g id="edge2" class="edge">
<title>_node0&#45;&gt;_node2</title>
<g id="a_edge2"><a xlink:href="../../../dependencies-between-packages/-~ast~specification,-~ast~query.svg" xlink:title="2">
<path fill="none" stroke="#000000" d="M414.0703,-195.9402C424.9692,-193.7108 436.3171,-191.3897 446.8712,-189.2309"/>
<polygon fill="#000000" stroke="#000000" points="447.6106,-192.6522 456.7064,-187.2191 446.2078,-185.7942 447.6106,-192.6522"/>
</a>
</g>
<g id="a_edge2&#45;label"><a xlink:href="../../../dependencies-between-packages/-~ast~specification,-~ast~query.svg" xlink:title="2">
<text text-anchor="middle" x="435.5" y="-194.8" font-family="Times,serif" font-size="14.00" fill="#000000">2</text>
</a>
</g>
</g>
<!-- _node3 -->
<g id="node4" class="node">
<title>_node3</title>
<g id="a_node4"><a xlink:href="../repository/index.html" xlink:title="ast::repository">
<polygon fill="none" stroke="#000000" points="178.5,-414 84.5,-414 84.5,-378 178.5,-378 178.5,-414"/>
<text text-anchor="middle" x="131.5" y="-392.3" font-family="Times,serif" font-size="14.00" fill="#000000">ast::repository</text>
</a>
</g>
</g>
<!-- _node3&#45;&gt;_node0 -->
<g id="edge3" class="edge">
<title>_node3&#45;&gt;_node0</title>
<g id="a_edge3"><a xlink:href="../../../dependencies-between-packages/-~ast~repository,-~ast~specification.svg" xlink:title="2">
<path fill="none" stroke="#000000" d="M178.6864,-395.4718C205.5349,-393.0605 238.5718,-386.3253 263,-369 310.049,-335.6312 338.2467,-271.6004 351.2802,-234.8218"/>
<polygon fill="#000000" stroke="#000000" points="354.6398,-235.8136 354.5572,-225.2191 348.015,-233.5528 354.6398,-235.8136"/>
</a>
</g>
<g id="a_edge3&#45;label"><a xlink:href="../../../dependencies-between-packages/-~ast~repository,-~ast~specification.svg" xlink:title="2">
<text text-anchor="middle" x="284.5" y="-355.8" font-family="Times,serif" font-size="14.00" fill="#000000">2</text>
</a>
</g>
</g>
<!-- _node4 -->
<g id="node5" class="node">
<title>_node4</title>
<g id="a_node5"><a xlink:href="../../artefact/dependencies_between_packages/index.html" xlink:title="artefact::dependencies_between_packages">
<polygon fill="none" stroke="#000000" points="254,-360 9,-360 9,-324 254,-324 254,-360"/>
<text text-anchor="middle" x="131.5" y="-338.3" font-family="Times,serif" font-size="14.00" fill="#000000">artefact::dependencies_between_packages</text>
</a>
</g>
</g>
<!-- _node4&#45;&gt;_node0 -->
<g id="edge4" class="edge">
<title>_node4&#45;&gt;_node0</title>
<g id="a_edge4"><a xlink:href="../../../dependencies-between-packages/-~artefact~dependencies_between_packages,-~ast~specification.svg" xlink:title="1">
<path fill="none" stroke="#000000" d="M244.4905,-323.893C250.9151,-321.3101 257.1371,-318.3627 263,-315 297.4627,-295.2333 326.2637,-258.8582 343.3078,-233.8243"/>
<polygon fill="#000000" stroke="#000000" points="346.4386,-235.4357 349.044,-225.1662 340.6031,-231.5695 346.4386,-235.4357"/>
</a>
</g>
<g id="a_edge4&#45;label"><a xlink:href="../../../dependencies-between-packages/-~artefact~dependencies_between_packages,-~ast~specification.svg" xlink:title="1">
<text text-anchor="middle" x="284.5" y="-304.8" font-family="Times,serif" font-size="14.00" fill="#000000">1</text>
</a>
</g>
</g>
<!-- _node5 -->
<g id="node6" class="node">
<title>_node5</title>
<g id="a_node6"><a xlink:href="../../artefact/intra_package_dependencies/index.html" xlink:title="artefact::intra_package_dependencies">
<polygon fill="none" stroke="#000000" points="241.5,-306 21.5,-306 21.5,-270 241.5,-270 241.5,-306"/>
<text text-anchor="middle" x="131.5" y="-284.3" font-family="Times,serif" font-size="14.00" fill="#000000">artefact::intra_package_dependencies</text>
</a>
</g>
</g>
<!-- _node5&#45;&gt;_node0 -->
<g id="edge5" class="edge">
<title>_node5&#45;&gt;_node0</title>
<g id="a_edge5"><a xlink:href="../../../dependencies-between-packages/-~artefact~intra_package_dependencies,-~ast~specification.svg" xlink:title="1">
<path fill="none" stroke="#000000" d="M234.654,-269.984C244.348,-267.347 253.9319,-264.3641 263,-261 284.0818,-253.1791 306.0938,-241.2717 323.8099,-230.6267"/>
<polygon fill="#000000" stroke="#000000" points="325.9594,-233.4144 332.655,-225.2035 322.3004,-227.4468 325.9594,-233.4144"/>
</a>
</g>
<g id="a_edge5&#45;label"><a xlink:href="../../../dependencies-between-packages/-~artefact~intra_package_dependencies,-~ast~specification.svg" xlink:title="1">
<text text-anchor="middle" x="284.5" y="-255.8" font-family="Times,serif" font-size="14.00" fill="#000000">1</text>
</a>
</g>
</g>
<!-- _node6 -->
<g id="node7" class="node">
<title>_node6</title>
<g id="a_node7"><a xlink:href="../../metric/generic/index.html" xlink:title="metric::generic">
<polygon fill="none" stroke="#000000" points="181,-252 82,-252 82,-216 181,-216 181,-252"/>
<text text-anchor="middle" x="131.5" y="-230.3" font-family="Times,serif" font-size="14.00" fill="#000000">metric::generic</text>
</a>
</g>
</g>
<!-- _node6&#45;&gt;_node0 -->
<g id="edge6" class="edge">
<title>_node6&#45;&gt;_node0</title>
<g id="a_edge6"><a xlink:href="../../../dependencies-between-packages/-~metric~generic,-~ast~specification.svg" xlink:title="2">
<path fill="none" stroke="#000000" d="M181.0811,-228.1414C214.6747,-224.1719 259.3908,-218.8882 295.7153,-214.596"/>
<polygon fill="#000000" stroke="#000000" points="296.2018,-218.063 305.7219,-213.4136 295.3803,-211.1113 296.2018,-218.063"/>
</a>
</g>
<g id="a_edge6&#45;label"><a xlink:href="../../../dependencies-between-packages/-~metric~generic,-~ast~specification.svg" xlink:title="2">
<text text-anchor="middle" x="284.5" y="-218.8" font-family="Times,serif" font-size="14.00" fill="#000000">2</text>
</a>
</g>
</g>
<!-- _node7 -->
<g id="node8" class="node">
<title>_node7</title>
<g id="a_node8"><a xlink:href="../../artefact/package_dependencies/index.html" xlink:title="artefact::package_dependencies">
<polygon fill="none" stroke="#000000" points="225.5,-198 37.5,-198 37.5,-162 225.5,-162 225.5,-198"/>
<text text-anchor="middle" x="131.5" y="-176.3" font-family="Times,serif" font-size="14.00" fill="#000000">artefact::package_dependencies</text>
</a>
</g>
</g>
<!-- _node7&#45;&gt;_node0 -->
<g id="edge7" class="edge">
<title>_node7&#45;&gt;_node0</title>
<g id="a_edge7"><a xlink:href="../../../dependencies-between-packages/-~artefact~package_dependencies,-~ast~specification.svg" xlink:title="1">
<path fill="none" stroke="#000000" d="M225.5152,-188.845C246.1256,-190.998 267.8159,-193.428 288,-196 290.5244,-196.3217 293.0969,-196.6608 295.6942,-197.0125"/>
<polygon fill="#000000" stroke="#000000" points="295.3989,-200.5052 305.7869,-198.4222 296.3672,-193.5725 295.3989,-200.5052"/>
</a>
</g>
<g id="a_edge7&#45;label"><a xlink:href="../../../dependencies-between-packages/-~artefact~package_dependencies,-~ast~specification.svg" xlink:title="1">
<text text-anchor="middle" x="284.5" y="-199.8" font-family="Times,serif" font-size="14.00" fill="#000000">1</text>
</a>
</g>
</g>
<!-- _node8 -->
<g id="node9" class="node">
<title>_node8</title>
<g id="a_node9"><a xlink:href="../../artefact/packages_with_cyclic_dependencies/index.html" xlink:title="artefact::packages_with_cyclic_dependencies">
<polygon fill="none" stroke="#000000" points="263,-144 0,-144 0,-108 263,-108 263,-144"/>
<text text-anchor="middle" x="131.5" y="-122.3" font-family="Times,serif" font-size="14.00" fill="#000000">artefact::packages_with_cyclic_dependencies</text>
</a>
</g>
</g>
<!-- _node8&#45;&gt;_node0 -->
<g id="edge8" class="edge">
<title>_node8&#45;&gt;_node0</title>
<g id="a_edge8"><a xlink:href="../../../dependencies-between-packages/-~artefact~packages_with_cyclic_dependencies,-~ast~specification.svg" xlink:title="1">
<path fill="none" stroke="#000000" d="M234.654,-144.016C244.348,-146.653 253.9319,-149.6359 263,-153 284.0818,-160.8209 306.0938,-172.7283 323.8099,-183.3733"/>
<polygon fill="#000000" stroke="#000000" points="322.3004,-186.5532 332.655,-188.7965 325.9594,-180.5856 322.3004,-186.5532"/>
</a>
</g>
<g id="a_edge8&#45;label"><a xlink:href="../../../dependencies-between-packages/-~artefact~packages_with_cyclic_dependencies,-~ast~specification.svg" xlink:title="1">
<text text-anchor="middle" x="284.5" y="-165.8" font-family="Times,serif" font-size="14.00" fill="#000000">1</text>
</a>
</g>
</g>
<!-- _node9 -->
<g id="node10" class="node">
<title>_node9</title>
<g id="a_node10"><a xlink:href="../../artefact/pakageelement_neighbors/index.html" xlink:title="artefact::pakageelement_neighbors">
<polygon fill="none" stroke="#000000" points="234.5,-90 28.5,-90 28.5,-54 234.5,-54 234.5,-90"/>
<text text-anchor="middle" x="131.5" y="-68.3" font-family="Times,serif" font-size="14.00" fill="#000000">artefact::pakageelement_neighbors</text>
</a>
</g>
</g>
<!-- _node9&#45;&gt;_node0 -->
<g id="edge9" class="edge">
<title>_node9&#45;&gt;_node0</title>
<g id="a_edge9"><a xlink:href="../../../dependencies-between-packages/-~artefact~pakageelement_neighbors,-~ast~specification.svg" xlink:title="1">
<path fill="none" stroke="#000000" d="M234.7212,-86.4996C244.6033,-89.8464 254.2057,-93.9559 263,-99 297.4627,-118.7667 326.2637,-155.1418 343.3078,-180.1757"/>
<polygon fill="#000000" stroke="#000000" points="340.6031,-182.4305 349.044,-188.8338 346.4386,-178.5643 340.6031,-182.4305"/>
</a>
</g>
<g id="a_edge9&#45;label"><a xlink:href="../../../dependencies-between-packages/-~artefact~pakageelement_neighbors,-~ast~specification.svg" xlink:title="1">
<text text-anchor="middle" x="284.5" y="-117.8" font-family="Times,serif" font-size="14.00" fill="#000000">1</text>
</a>
</g>
</g>
<!-- _node10 -->
<g id="node11" class="node">
<title>_node10</title>
<g id="a_node11"><a xlink:href="../traverse/index.html" xlink:title="ast::traverse">
<polygon fill="none" stroke="#000000" points="172.5,-36 90.5,-36 90.5,0 172.5,0 172.5,-36"/>
<text text-anchor="middle" x="131.5" y="-14.3" font-family="Times,serif" font-size="14.00" fill="#000000">ast::traverse</text>
</a>
</g>
</g>
<!-- _node10&#45;&gt;_node0 -->
<g id="edge10" class="edge">
<title>_node10&#45;&gt;_node0</title>
<g id="a_edge10"><a xlink:href="../../../dependencies-between-packages/-~ast~traverse,-~ast~specification.svg" xlink:title="1">
<path fill="none" stroke="#000000" d="M172.5377,-18.0409C200.3408,-19.9554 236.6708,-26.3264 263,-45 310.049,-78.3688 338.2467,-142.3996 351.2802,-179.1782"/>
<polygon fill="#000000" stroke="#000000" points="348.015,-180.4472 354.5572,-188.7809 354.6398,-178.1864 348.015,-180.4472"/>
</a>
</g>
<g id="a_edge10&#45;label"><a xlink:href="../../../dependencies-between-packages/-~ast~traverse,-~ast~specification.svg" xlink:title="1">
<text text-anchor="middle" x="284.5" y="-67.8" font-family="Times,serif" font-size="14.00" fill="#000000">1</text>
</a>
</g>
</g>
</g>
</svg>
