<?xml version="1.0" encoding="UTF-8" standalone="no"?>
<!DOCTYPE svg PUBLIC "-//W3C//DTD SVG 1.1//EN"
 "http://www.w3.org/Graphics/SVG/1.1/DTD/svg11.dtd">
<!-- Generated by graphviz version 2.40.1 (20161225.0304)
 -->
<!-- Title: %3 Pages: 1 -->
<svg width="421pt" height="152pt"
 viewBox="0.00 0.00 421.00 152.00" xmlns="http://www.w3.org/2000/svg" xmlns:xlink="http://www.w3.org/1999/xlink">
<g id="graph0" class="graph" transform="scale(1 1) rotate(0) translate(4 148)">
<title>%3</title>
<polygon fill="#ffffff" stroke="transparent" points="-4,4 -4,-148 417,-148 417,4 -4,4"/>
<!-- _node0 -->
<g id="node1" class="node">
<title>_node0</title>
<g id="a_node1"><a xlink:href="index.html" xlink:title="artefact::function_overview">
<polygon fill="none" stroke="#000000" stroke-width="2" points="313,-90 146,-90 146,-54 313,-54 313,-90"/>
<text text-anchor="middle" x="229.5" y="-68.3" font-family="Times,serif" font-size="14.00" fill="#000000">artefact::function_overview</text>
</a>
</g>
</g>
<!-- _node1 -->
<g id="node2" class="node">
<title>_node1</title>
<g id="a_node2"><a xlink:href="../index.html" xlink:title="artefact">
<polygon fill="none" stroke="#000000" points="413,-144 356,-144 356,-108 413,-108 413,-144"/>
<text text-anchor="middle" x="384.5" y="-122.3" font-family="Times,serif" font-size="14.00" fill="#000000">artefact</text>
</a>
</g>
</g>
<!-- _node0&#45;&gt;_node1 -->
<g id="edge1" class="edge">
<title>_node0&#45;&gt;_node1</title>
<g id="a_edge1"><a xlink:href="../../../dependencies-between-packages/-~artefact~function_overview,-~artefact.svg" xlink:title="8">
<path fill="none" stroke="#000000" d="M281.5439,-90.1314C302.7606,-97.523 326.8407,-105.9122 346.3755,-112.7179"/>
<polygon fill="#000000" stroke="#000000" points="345.257,-116.0345 355.8518,-116.0193 347.56,-109.4242 345.257,-116.0345"/>
</a>
</g>
<g id="a_edge1&#45;label"><a xlink:href="../../../dependencies-between-packages/-~artefact~function_overview,-~artefact.svg" xlink:title="8">
<text text-anchor="middle" x="334.5" y="-111.8" font-family="Times,serif" font-size="14.00" fill="#000000">8</text>
</a>
</g>
</g>
<!-- _node2 -->
<g id="node3" class="node">
<title>_node2</title>
<g id="a_node3"><a xlink:href="../../ast/index.html" xlink:title="ast">
<polygon fill="none" stroke="#000000" points="411.5,-90 357.5,-90 357.5,-54 411.5,-54 411.5,-90"/>
<text text-anchor="middle" x="384.5" y="-68.3" font-family="Times,serif" font-size="14.00" fill="#000000">ast</text>
</a>
</g>
</g>
<!-- _node0&#45;&gt;_node2 -->
<g id="edge2" class="edge">
<title>_node0&#45;&gt;_node2</title>
<g id="a_edge2"><a xlink:href="../../../dependencies-between-packages/-~artefact~function_overview,-~ast.svg" xlink:title="1">
<path fill="none" stroke="#000000" d="M313.3511,-72C325.2098,-72 336.8689,-72 347.2076,-72"/>
<polygon fill="#000000" stroke="#000000" points="347.4568,-75.5001 357.4568,-72 347.4567,-68.5001 347.4568,-75.5001"/>
</a>
</g>
<g id="a_edge2&#45;label"><a xlink:href="../../../dependencies-between-packages/-~artefact~function_overview,-~ast.svg" xlink:title="1">
<text text-anchor="middle" x="334.5" y="-75.8" font-family="Times,serif" font-size="14.00" fill="#000000">1</text>
</a>
</g>
</g>
<!-- _node3 -->
<g id="node4" class="node">
<title>_node3</title>
<g id="a_node4"><a xlink:href="../../html/index.html" xlink:title="html">
<polygon fill="none" stroke="#000000" points="411.5,-36 357.5,-36 357.5,0 411.5,0 411.5,-36"/>
<text text-anchor="middle" x="384.5" y="-14.3" font-family="Times,serif" font-size="14.00" fill="#000000">html</text>
</a>
</g>
</g>
<!-- _node0&#45;&gt;_node3 -->
<g id="edge3" class="edge">
<title>_node0&#45;&gt;_node3</title>
<g id="a_edge3"><a xlink:href="../../../dependencies-between-packages/-~artefact~function_overview,-~html.svg" xlink:title="2">
<path fill="none" stroke="#000000" d="M281.5439,-53.8686C303.212,-46.3197 327.8666,-37.7303 347.6162,-30.8498"/>
<polygon fill="#000000" stroke="#000000" points="348.8763,-34.1172 357.1682,-27.5221 346.5733,-27.5069 348.8763,-34.1172"/>
</a>
</g>
<g id="a_edge3&#45;label"><a xlink:href="../../../dependencies-between-packages/-~artefact~function_overview,-~html.svg" xlink:title="2">
<text text-anchor="middle" x="334.5" y="-39.8" font-family="Times,serif" font-size="14.00" fill="#000000">2</text>
</a>
</g>
</g>
<!-- _node4 -->
<g id="node5" class="node">
<title>_node4</title>
<g id="a_node5"><a xlink:href="../factory/index.html" xlink:title="artefact::factory">
<polygon fill="none" stroke="#000000" points="103,-90 0,-90 0,-54 103,-54 103,-90"/>
<text text-anchor="middle" x="51.5" y="-68.3" font-family="Times,serif" font-size="14.00" fill="#000000">artefact::factory</text>
</a>
</g>
</g>
<!-- _node4&#45;&gt;_node0 -->
<g id="edge4" class="edge">
<title>_node4&#45;&gt;_node0</title>
<g id="a_edge4"><a xlink:href="../../../dependencies-between-packages/-~artefact~factory,-~artefact~function_overview.svg" xlink:title="2">
<path fill="none" stroke="#000000" d="M103.4635,-72C113.6769,-72 124.6824,-72 135.786,-72"/>
<polygon fill="#000000" stroke="#000000" points="135.9909,-75.5001 145.9908,-72 135.9908,-68.5001 135.9909,-75.5001"/>
</a>
</g>
<g id="a_edge4&#45;label"><a xlink:href="../../../dependencies-between-packages/-~artefact~factory,-~artefact~function_overview.svg" xlink:title="2">
<text text-anchor="middle" x="124.5" y="-75.8" font-family="Times,serif" font-size="14.00" fill="#000000">2</text>
</a>
</g>
</g>
</g>
</svg>
