digraph {
    rankdir=LR
    label="Artefact"
    subgraph cluster_0 {
        label="methods"
        _node0 [
            shape="box"
            label="Artefact"
        ]
        _node1 [
            shape="box"
            label="generate"
        ]
        _node2 [
            shape="box"
            label="filename"
        ]
        _node3 [
            shape="box"
            label="printBody"
        ]
    }
    subgraph cluster_1 {
        label="fields"
        _node4 [
            shape="box"
            label="node"
        ]
        _node5 [
            shape="box"
            label="artefactFactory"
        ]
    }
    _node0 -> _node4
    _node0 -> _node5
    _node1 -> _node4
    _node1 -> _node3
    _node1 -> _node2
    _node2 -> _node4
    _node3 -> _node5
    _node3 -> _node4
    _node3 -> _node2
}
