digraph {
    rankdir=LR
    subgraph cluster_0 {
        label="artefact::intra_class_dependencies"
        URL="../index.html"
        _node0 [
            shape="box"
            style="bold"
            label="Visitor"
            URL="index.html"
        ]
        _node1 [
            shape="box"
            label="printChildrenIfAny"
            URL="../printChildrenIfAny/index.html"
        ]
    }
    _node1 -> _node0
}
