<?xml version="1.0" encoding="UTF-8" standalone="no"?>
<!DOCTYPE svg PUBLIC "-//W3C//DTD SVG 1.1//EN"
 "http://www.w3.org/Graphics/SVG/1.1/DTD/svg11.dtd">
<!-- Generated by graphviz version 2.40.1 (20161225.0304)
 -->
<!-- Title: %3 Pages: 1 -->
<svg width="394pt" height="265pt"
 viewBox="0.00 0.00 394.00 265.00" xmlns="http://www.w3.org/2000/svg" xmlns:xlink="http://www.w3.org/1999/xlink">
<g id="graph0" class="graph" transform="scale(1 1) rotate(0) translate(4 261)">
<title>%3</title>
<polygon fill="#ffffff" stroke="transparent" points="-4,4 -4,-261 390,-261 390,4 -4,4"/>
<g id="clust1" class="cluster">
<title>cluster_0</title>
<g id="a_clust1"><a xlink:href="../index.html" xlink:title="metric::Repository">
<polygon fill="none" stroke="#000000" points="168,-91 168,-166 288,-166 288,-91 168,-91"/>
<text text-anchor="middle" x="228" y="-150.8" font-family="Times,serif" font-size="14.00" fill="#000000">metric::Repository</text>
</a>
</g>
</g>
<g id="clust2" class="cluster">
<title>cluster_1</title>
<g id="a_clust2"><a xlink:href="../../../ast/index.html" xlink:title="ast">
<polygon fill="none" stroke="#000000" points="308,-91 308,-166 378,-166 378,-91 308,-91"/>
<text text-anchor="middle" x="343" y="-150.8" font-family="Times,serif" font-size="14.00" fill="#000000">ast</text>
</a>
</g>
</g>
<g id="clust3" class="cluster">
<title>cluster_2</title>
<g id="a_clust3"><a xlink:href="../../index.html" xlink:title="metric">
<polygon fill="none" stroke="#000000" points="23.5,-174 23.5,-249 132.5,-249 132.5,-174 23.5,-174"/>
<text text-anchor="middle" x="78" y="-233.8" font-family="Times,serif" font-size="14.00" fill="#000000">metric</text>
</a>
</g>
</g>
<g id="clust4" class="cluster">
<title>cluster_3</title>
<g id="a_clust4"><a xlink:href="../../AllRepository/index.html" xlink:title="metric::AllRepository">
<polygon fill="none" stroke="#000000" points="10,-91 10,-166 146,-166 146,-91 10,-91"/>
<text text-anchor="middle" x="78" y="-150.8" font-family="Times,serif" font-size="14.00" fill="#000000">metric::AllRepository</text>
</a>
</g>
</g>
<g id="clust5" class="cluster">
<title>cluster_4</title>
<g id="a_clust5"><a xlink:href="../../../feature_test/index.html" xlink:title="feature_test">
<polygon fill="none" stroke="#000000" points="8,-8 8,-83 148,-83 148,-8 8,-8"/>
<text text-anchor="middle" x="78" y="-67.8" font-family="Times,serif" font-size="14.00" fill="#000000">feature_test</text>
</a>
</g>
</g>
<!-- _node0 -->
<g id="node1" class="node">
<title>_node0</title>
<g id="a_node1"><a xlink:href="index.html" xlink:title="RealCalculation">
<polygon fill="none" stroke="#000000" stroke-width="2" points="280,-135 176,-135 176,-99 280,-99 280,-135"/>
<text text-anchor="middle" x="228" y="-113.3" font-family="Times,serif" font-size="14.00" fill="#000000">RealCalculation</text>
</a>
</g>
</g>
<!-- _node1 -->
<g id="node2" class="node">
<title>_node1</title>
<g id="a_node2"><a xlink:href="../../../ast/Node/index.html" xlink:title="Node">
<polygon fill="none" stroke="#000000" points="370,-135 316,-135 316,-99 370,-99 370,-135"/>
<text text-anchor="middle" x="343" y="-113.3" font-family="Times,serif" font-size="14.00" fill="#000000">Node</text>
</a>
</g>
</g>
<!-- _node0&#45;&gt;_node1 -->
<g id="edge1" class="edge">
<title>_node0&#45;&gt;_node1</title>
<g id="a_edge1"><a xlink:href="../../../../dependencies-between-packages/-~metric,-~ast.svg">
<path fill="none" stroke="#000000" d="M280.1164,-117C288.8079,-117 297.6648,-117 305.8836,-117"/>
<polygon fill="#000000" stroke="#000000" points="305.8923,-120.5001 315.8922,-117 305.8922,-113.5001 305.8923,-120.5001"/>
</a>
</g>
</g>
<!-- _node2 -->
<g id="node3" class="node">
<title>_node2</title>
<g id="a_node3"><a xlink:href="../../AllRepository/index.html" xlink:title="AllRepository">
<polygon fill="none" stroke="#000000" points="124.5,-218 31.5,-218 31.5,-182 124.5,-182 124.5,-218"/>
<text text-anchor="middle" x="78" y="-196.3" font-family="Times,serif" font-size="14.00" fill="#000000">AllRepository</text>
</a>
</g>
</g>
<!-- _node2&#45;&gt;_node0 -->
<g id="edge2" class="edge">
<title>_node2&#45;&gt;_node0</title>
<path fill="none" stroke="#000000" d="M123.3787,-181.9702C131.695,-178.2685 140.2047,-174.2081 148,-170 163.9044,-161.4143 180.6956,-150.5876 194.7658,-140.9611"/>
<polygon fill="#000000" stroke="#000000" points="196.919,-143.7272 203.1427,-135.153 192.9305,-137.9746 196.919,-143.7272"/>
</g>
<!-- _node3 -->
<g id="node4" class="node">
<title>_node3</title>
<g id="a_node4"><a xlink:href="../../AllRepository/Instabilty/index.html" xlink:title="Instabilty">
<polygon fill="none" stroke="#000000" points="112,-135 44,-135 44,-99 112,-99 112,-135"/>
<text text-anchor="middle" x="78" y="-113.3" font-family="Times,serif" font-size="14.00" fill="#000000">Instabilty</text>
</a>
</g>
</g>
<!-- _node3&#45;&gt;_node0 -->
<g id="edge3" class="edge">
<title>_node3&#45;&gt;_node0</title>
<path fill="none" stroke="#000000" d="M112.0373,-117C127.9365,-117 147.3785,-117 165.7658,-117"/>
<polygon fill="#000000" stroke="#000000" points="165.8432,-120.5001 175.8432,-117 165.8432,-113.5001 165.8432,-120.5001"/>
</g>
<!-- _node4 -->
<g id="node5" class="node">
<title>_node4</title>
<g id="a_node5"><a xlink:href="../../../feature_test/MinimalRepository/index.html" xlink:title="MinimalRepository">
<polygon fill="none" stroke="#000000" points="140,-52 16,-52 16,-16 140,-16 140,-52"/>
<text text-anchor="middle" x="78" y="-30.3" font-family="Times,serif" font-size="14.00" fill="#000000">MinimalRepository</text>
</a>
</g>
</g>
<!-- _node4&#45;&gt;_node0 -->
<g id="edge4" class="edge">
<title>_node4&#45;&gt;_node0</title>
<g id="a_edge4"><a xlink:href="../../../../dependencies-between-packages/-~feature_test,-~metric.svg">
<path fill="none" stroke="#000000" d="M110.5478,-52.0098C132.7812,-64.3123 162.4363,-80.7214 186.3852,-93.9731"/>
<polygon fill="#000000" stroke="#000000" points="184.8127,-97.1031 195.2571,-98.8823 188.2018,-90.9782 184.8127,-97.1031"/>
</a>
</g>
</g>
</g>
</svg>
