digraph {
    rankdir=LR
    subgraph cluster_0 {
        label="artefact::overviewfactory"
        URL="../index.html"
        _node0 [
            shape="box"
            style="bold"
            label="Factory"
            URL="index.html"
        ]
        _node1 [
            shape="box"
            label="ArtefactFactory"
            URL="../ArtefactFactory/index.html"
        ]
        _node2 [
            shape="box"
            label="OverviewArtefactVisitor"
            URL="../OverviewArtefactVisitor/index.html"
        ]
    }
    subgraph cluster_1 {
        label="artefact"
        URL="../../index.html"
        _node3 [
            shape="box"
            label="Artefact"
            URL="../../Artefact/index.html"
        ]
    }
    subgraph cluster_2 {
        label="ast"
        URL="../../../ast/index.html"
        _node4 [
            shape="box"
            label="Node"
            URL="../../../ast/Node/index.html"
        ]
    }
    subgraph cluster_3 {
        label="artefact::dependencies_between_packages"
        URL="../../dependencies_between_packages/index.html"
        _node5 [
            shape="box"
            label="Artefact"
            URL="../../dependencies_between_packages/Artefact/index.html"
        ]
    }
    subgraph cluster_4 {
        label="artefact::overview"
        URL="../../overview/index.html"
        _node6 [
            shape="box"
            label="Artefact"
            URL="../../overview/Artefact/index.html"
        ]
    }
    subgraph cluster_5 {
        label="artefact::pakageelement_neighbors"
        URL="../../pakageelement_neighbors/index.html"
        _node7 [
            shape="box"
            label="Artefact"
            URL="../../pakageelement_neighbors/Artefact/index.html"
        ]
    }
    subgraph cluster_6 {
        label="artefact::factory"
        URL="../../factory/index.html"
        _node8 [
            shape="box"
            label="Factory"
            URL="../../factory/Factory/index.html"
        ]
    }
    subgraph cluster_7 {
        label="artefact::intra_package_dependencies"
        URL="../../intra_package_dependencies/index.html"
        _node9 [
            shape="box"
            label="Artefact"
            URL="../../intra_package_dependencies/Artefact/index.html"
        ]
    }
    _node0 -> _node1
    _node0 -> _node3 [
        URL="../../../../dependencies-between-packages/-~artefact~overviewfactory,-~artefact.svg"
    ]
    _node0 -> _node4 [
        URL="../../../../dependencies-between-packages/-~artefact~overviewfactory,-~ast.svg"
    ]
    _node0 -> _node2
    _node5 -> _node0 [
        URL="../../../../dependencies-between-packages/-~artefact~dependencies_between_packages,-~artefact~overviewfactory.svg"
    ]
    _node6 -> _node0 [
        URL="../../../../dependencies-between-packages/-~artefact~overview,-~artefact~overviewfactory.svg"
    ]
    _node7 -> _node0 [
        URL="../../../../dependencies-between-packages/-~artefact~pakageelement_neighbors,-~artefact~overviewfactory.svg"
    ]
    _node8 -> _node0 [
        URL="../../../../dependencies-between-packages/-~artefact~factory,-~artefact~overviewfactory.svg"
    ]
    _node9 -> _node0 [
        URL="../../../../dependencies-between-packages/-~artefact~intra_package_dependencies,-~artefact~overviewfactory.svg"
    ]
}
