<?xml version="1.0" encoding="UTF-8" standalone="no"?>
<!DOCTYPE svg PUBLIC "-//W3C//DTD SVG 1.1//EN"
 "http://www.w3.org/Graphics/SVG/1.1/DTD/svg11.dtd">
<!-- Generated by graphviz version 2.40.1 (20161225.0304)
 -->
<!-- Title: %3 Pages: 1 -->
<svg width="555pt" height="1506pt"
 viewBox="0.00 0.00 554.50 1506.00" xmlns="http://www.w3.org/2000/svg" xmlns:xlink="http://www.w3.org/1999/xlink">
<g id="graph0" class="graph" transform="scale(1 1) rotate(0) translate(4 1502)">
<title>%3</title>
<polygon fill="#ffffff" stroke="transparent" points="-4,4 -4,-1502 550.5,-1502 550.5,4 -4,4"/>
<g id="clust1" class="cluster">
<title>cluster_0</title>
<g id="a_clust1"><a xlink:href="../index.html" xlink:title="artefact">
<polygon fill="none" stroke="#000000" points="65.5,-1307 65.5,-1490 538.5,-1490 538.5,-1307 65.5,-1307"/>
<text text-anchor="middle" x="302" y="-1474.8" font-family="Times,serif" font-size="14.00" fill="#000000">artefact</text>
</a>
</g>
</g>
<g id="clust2" class="cluster">
<title>cluster_1</title>
<g id="a_clust2"><a xlink:href="../class_overview/index.html" xlink:title="artefact::class_overview">
<polygon fill="none" stroke="#000000" points="67,-1224 67,-1299 215,-1299 215,-1224 67,-1224"/>
<text text-anchor="middle" x="141" y="-1283.8" font-family="Times,serif" font-size="14.00" fill="#000000">artefact::class_overview</text>
</a>
</g>
</g>
<g id="clust3" class="cluster">
<title>cluster_2</title>
<g id="a_clust3"><a xlink:href="../dependencies_between_packages/index.html" xlink:title="artefact::dependencies_between_packages">
<polygon fill="none" stroke="#000000" points="18,-1141 18,-1216 263,-1216 263,-1141 18,-1141"/>
<text text-anchor="middle" x="140.5" y="-1200.8" font-family="Times,serif" font-size="14.00" fill="#000000">artefact::dependencies_between_packages</text>
</a>
</g>
</g>
<g id="clust4" class="cluster">
<title>cluster_3</title>
<g id="a_clust4"><a xlink:href="../package_dependencies/index.html" xlink:title="artefact::package_dependencies">
<polygon fill="none" stroke="#000000" points="47,-1058 47,-1133 235,-1133 235,-1058 47,-1058"/>
<text text-anchor="middle" x="141" y="-1117.8" font-family="Times,serif" font-size="14.00" fill="#000000">artefact::package_dependencies</text>
</a>
</g>
</g>
<g id="clust5" class="cluster">
<title>cluster_4</title>
<g id="a_clust5"><a xlink:href="../overview/index.html" xlink:title="artefact::overview">
<polygon fill="none" stroke="#000000" points="83,-975 83,-1050 198,-1050 198,-975 83,-975"/>
<text text-anchor="middle" x="140.5" y="-1034.8" font-family="Times,serif" font-size="14.00" fill="#000000">artefact::overview</text>
</a>
</g>
</g>
<g id="clust6" class="cluster">
<title>cluster_5</title>
<g id="a_clust6"><a xlink:href="../package_overview/index.html" xlink:title="artefact::package_overview">
<polygon fill="none" stroke="#000000" points="58,-892 58,-967 224,-967 224,-892 58,-892"/>
<text text-anchor="middle" x="141" y="-951.8" font-family="Times,serif" font-size="14.00" fill="#000000">artefact::package_overview</text>
</a>
</g>
</g>
<g id="clust7" class="cluster">
<title>cluster_6</title>
<g id="a_clust7"><a xlink:href="../intra_class_dependencies/index.html" xlink:title="artefact::intra_class_dependencies">
<polygon fill="none" stroke="#000000" points="40,-809 40,-884 242,-884 242,-809 40,-809"/>
<text text-anchor="middle" x="141" y="-868.8" font-family="Times,serif" font-size="14.00" fill="#000000">artefact::intra_class_dependencies</text>
</a>
</g>
</g>
<g id="clust8" class="cluster">
<title>cluster_7</title>
<g id="a_clust8"><a xlink:href="../packages_with_cyclic_dependencies/index.html" xlink:title="artefact::packages_with_cyclic_dependencies">
<polygon fill="none" stroke="#000000" points="9,-726 9,-801 272,-801 272,-726 9,-726"/>
<text text-anchor="middle" x="140.5" y="-785.8" font-family="Times,serif" font-size="14.00" fill="#000000">artefact::packages_with_cyclic_dependencies</text>
</a>
</g>
</g>
<g id="clust9" class="cluster">
<title>cluster_8</title>
<g id="a_clust9"><a xlink:href="../package_neighbors/index.html" xlink:title="artefact::package_neighbors">
<polygon fill="none" stroke="#000000" points="56,-643 56,-718 225,-718 225,-643 56,-643"/>
<text text-anchor="middle" x="140.5" y="-702.8" font-family="Times,serif" font-size="14.00" fill="#000000">artefact::package_neighbors</text>
</a>
</g>
</g>
<g id="clust10" class="cluster">
<title>cluster_9</title>
<g id="a_clust10"><a xlink:href="../stable_dependency_principle_violations/index.html" xlink:title="artefact::stable_dependency_principle_violations">
<polygon fill="none" stroke="#000000" points="0,-560 0,-635 282,-635 282,-560 0,-560"/>
<text text-anchor="middle" x="141" y="-619.8" font-family="Times,serif" font-size="14.00" fill="#000000">artefact::stable_dependency_principle_violations</text>
</a>
</g>
</g>
<g id="clust11" class="cluster">
<title>cluster_10</title>
<g id="a_clust11"><a xlink:href="../function_overview/index.html" xlink:title="artefact::function_overview">
<polygon fill="none" stroke="#000000" points="57,-477 57,-552 224,-552 224,-477 57,-477"/>
<text text-anchor="middle" x="140.5" y="-536.8" font-family="Times,serif" font-size="14.00" fill="#000000">artefact::function_overview</text>
</a>
</g>
</g>
<g id="clust12" class="cluster">
<title>cluster_11</title>
<g id="a_clust12"><a xlink:href="../variable_overview/index.html" xlink:title="artefact::variable_overview">
<polygon fill="none" stroke="#000000" points="58,-394 58,-469 223,-469 223,-394 58,-394"/>
<text text-anchor="middle" x="140.5" y="-453.8" font-family="Times,serif" font-size="14.00" fill="#000000">artefact::variable_overview</text>
</a>
</g>
</g>
<g id="clust13" class="cluster">
<title>cluster_12</title>
<g id="a_clust13"><a xlink:href="../pakageelement_neighbors/index.html" xlink:title="artefact::pakageelement_neighbors">
<polygon fill="none" stroke="#000000" points="38,-311 38,-386 244,-386 244,-311 38,-311"/>
<text text-anchor="middle" x="141" y="-370.8" font-family="Times,serif" font-size="14.00" fill="#000000">artefact::pakageelement_neighbors</text>
</a>
</g>
</g>
<g id="clust14" class="cluster">
<title>cluster_13</title>
<g id="a_clust14"><a xlink:href="../intra_package_dependencies/index.html" xlink:title="artefact::intra_package_dependencies">
<polygon fill="none" stroke="#000000" points="31,-228 31,-303 251,-303 251,-228 31,-228"/>
<text text-anchor="middle" x="141" y="-287.8" font-family="Times,serif" font-size="14.00" fill="#000000">artefact::intra_package_dependencies</text>
</a>
</g>
</g>
<g id="clust15" class="cluster">
<title>cluster_14</title>
<g id="a_clust15"><a xlink:href="../unit_test/index.html" xlink:title="artefact::unit_test">
<polygon fill="none" stroke="#000000" points="82.5,-145 82.5,-220 198.5,-220 198.5,-145 82.5,-145"/>
<text text-anchor="middle" x="140.5" y="-204.8" font-family="Times,serif" font-size="14.00" fill="#000000">artefact::unit_test</text>
</a>
</g>
</g>
<g id="clust16" class="cluster">
<title>cluster_15</title>
<g id="a_clust16"><a xlink:href="../../graph/index.html" xlink:title="graph">
<polygon fill="none" stroke="#000000" points="97,-8 97,-137 184,-137 184,-8 97,-8"/>
<text text-anchor="middle" x="140.5" y="-121.8" font-family="Times,serif" font-size="14.00" fill="#000000">graph</text>
</a>
</g>
</g>
<!-- _node0 -->
<g id="node1" class="node">
<title>_node0</title>
<g id="a_node1"><a xlink:href="index.html" xlink:title="Environment">
<polygon fill="none" stroke="#000000" stroke-width="2" points="405.5,-1351 317.5,-1351 317.5,-1315 405.5,-1315 405.5,-1351"/>
<text text-anchor="middle" x="361.5" y="-1329.3" font-family="Times,serif" font-size="14.00" fill="#000000">Environment</text>
</a>
</g>
</g>
<!-- _node1 -->
<g id="node2" class="node">
<title>_node1</title>
<g id="a_node2"><a xlink:href="../PathForNode/index.html" xlink:title="PathForNode">
<polygon fill="none" stroke="#000000" points="530.5,-1351 441.5,-1351 441.5,-1315 530.5,-1315 530.5,-1351"/>
<text text-anchor="middle" x="486" y="-1329.3" font-family="Times,serif" font-size="14.00" fill="#000000">PathForNode</text>
</a>
</g>
</g>
<!-- _node0&#45;&gt;_node1 -->
<g id="edge1" class="edge">
<title>_node0&#45;&gt;_node1</title>
<path fill="none" stroke="#000000" d="M405.7446,-1333C413.993,-1333 422.7028,-1333 431.2232,-1333"/>
<polygon fill="#000000" stroke="#000000" points="431.4784,-1336.5001 441.4784,-1333 431.4784,-1329.5001 431.4784,-1336.5001"/>
</g>
<!-- _node2 -->
<g id="node3" class="node">
<title>_node2</title>
<g id="a_node3"><a xlink:href="../QueueAdder/index.html" xlink:title="QueueAdder">
<polygon fill="none" stroke="#000000" points="529,-1405 443,-1405 443,-1369 529,-1369 529,-1405"/>
<text text-anchor="middle" x="486" y="-1383.3" font-family="Times,serif" font-size="14.00" fill="#000000">QueueAdder</text>
</a>
</g>
</g>
<!-- _node0&#45;&gt;_node2 -->
<g id="edge2" class="edge">
<title>_node0&#45;&gt;_node2</title>
<path fill="none" stroke="#000000" d="M403.303,-1351.1314C413.3629,-1355.4947 424.2241,-1360.2056 434.6628,-1364.7333"/>
<polygon fill="#000000" stroke="#000000" points="433.5284,-1368.0562 444.0954,-1368.8245 436.3139,-1361.6343 433.5284,-1368.0562"/>
</g>
<!-- _node3 -->
<g id="node4" class="node">
<title>_node3</title>
<g id="a_node4"><a xlink:href="../Os/index.html" xlink:title="Os">
<polygon fill="none" stroke="#000000" points="513,-1459 459,-1459 459,-1423 513,-1423 513,-1459"/>
<text text-anchor="middle" x="486" y="-1437.3" font-family="Times,serif" font-size="14.00" fill="#000000">Os</text>
</a>
</g>
</g>
<!-- _node0&#45;&gt;_node3 -->
<g id="edge3" class="edge">
<title>_node0&#45;&gt;_node3</title>
<path fill="none" stroke="#000000" d="M376.9208,-1351.0131C392.2631,-1368.3264 416.9929,-1394.6445 441.5,-1414 444.279,-1416.1948 447.2499,-1418.3504 450.2889,-1420.4272"/>
<polygon fill="#000000" stroke="#000000" points="448.6379,-1423.5283 458.9309,-1426.0392 452.4503,-1417.6575 448.6379,-1423.5283"/>
</g>
<!-- _node4 -->
<g id="node5" class="node">
<title>_node4</title>
<g id="a_node5"><a xlink:href="../printArtefactList/index.html" xlink:title="printArtefactList">
<polygon fill="none" stroke="#000000" points="194,-1459 87,-1459 87,-1423 194,-1423 194,-1459"/>
<text text-anchor="middle" x="140.5" y="-1437.3" font-family="Times,serif" font-size="14.00" fill="#000000">printArtefactList</text>
</a>
</g>
</g>
<!-- _node4&#45;&gt;_node0 -->
<g id="edge18" class="edge">
<title>_node4&#45;&gt;_node0</title>
<path fill="none" stroke="#000000" d="M194.1124,-1438.3907C221.7055,-1435.2108 255.1026,-1428.4036 282,-1414 306.5532,-1400.8517 328.2296,-1377.5283 342.7204,-1359.2749"/>
<polygon fill="#000000" stroke="#000000" points="345.5327,-1361.3594 348.8573,-1351.2997 339.985,-1357.0905 345.5327,-1361.3594"/>
</g>
<!-- _node5 -->
<g id="node6" class="node">
<title>_node5</title>
<g id="a_node6"><a xlink:href="../generateGraphvizSvg/index.html" xlink:title="generateGraphvizSvg">
<polygon fill="none" stroke="#000000" points="207.5,-1405 73.5,-1405 73.5,-1369 207.5,-1369 207.5,-1405"/>
<text text-anchor="middle" x="140.5" y="-1383.3" font-family="Times,serif" font-size="14.00" fill="#000000">generateGraphvizSvg</text>
</a>
</g>
</g>
<!-- _node5&#45;&gt;_node0 -->
<g id="edge19" class="edge">
<title>_node5&#45;&gt;_node0</title>
<path fill="none" stroke="#000000" d="M207.5129,-1376.1834C231.2062,-1371.8408 257.9393,-1366.3485 282,-1360 290.3969,-1357.7844 299.1914,-1355.1378 307.7435,-1352.3806"/>
<polygon fill="#000000" stroke="#000000" points="308.8635,-1355.6967 317.262,-1349.2379 306.6688,-1349.0496 308.8635,-1355.6967"/>
</g>
<!-- _node6 -->
<g id="node7" class="node">
<title>_node6</title>
<g id="a_node7"><a xlink:href="../shouldGenerate/index.html" xlink:title="shouldGenerate">
<polygon fill="none" stroke="#000000" points="191,-1351 90,-1351 90,-1315 191,-1315 191,-1351"/>
<text text-anchor="middle" x="140.5" y="-1329.3" font-family="Times,serif" font-size="14.00" fill="#000000">shouldGenerate</text>
</a>
</g>
</g>
<!-- _node6&#45;&gt;_node0 -->
<g id="edge20" class="edge">
<title>_node6&#45;&gt;_node0</title>
<path fill="none" stroke="#000000" d="M191.2019,-1333C225.8816,-1333 271.8066,-1333 307.2254,-1333"/>
<polygon fill="#000000" stroke="#000000" points="307.3862,-1336.5001 317.3861,-1333 307.3861,-1329.5001 307.3862,-1336.5001"/>
</g>
<!-- _node7 -->
<g id="node8" class="node">
<title>_node7</title>
<g id="a_node8"><a xlink:href="../class_overview/Artefact/index.html" xlink:title="Artefact">
<polygon fill="none" stroke="#000000" points="171,-1268 110,-1268 110,-1232 171,-1232 171,-1268"/>
<text text-anchor="middle" x="140.5" y="-1246.3" font-family="Times,serif" font-size="14.00" fill="#000000">Artefact</text>
</a>
</g>
</g>
<!-- _node7&#45;&gt;_node0 -->
<g id="edge4" class="edge">
<title>_node7&#45;&gt;_node0</title>
<g id="a_edge4"><a xlink:href="../../../dependencies-between-packages/-~artefact~class_overview,-~artefact.svg">
<path fill="none" stroke="#000000" d="M171.1467,-1261.4543C199.8127,-1272.1741 243.8175,-1288.645 282,-1303 290.3271,-1306.1307 299.1427,-1309.4511 307.7544,-1312.6982"/>
<polygon fill="#000000" stroke="#000000" points="306.762,-1316.0645 317.3538,-1316.319 309.2325,-1309.5149 306.762,-1316.0645"/>
</a>
</g>
</g>
<!-- _node8 -->
<g id="node9" class="node">
<title>_node8</title>
<g id="a_node9"><a xlink:href="../dependencies_between_packages/Artefact/index.html" xlink:title="Artefact">
<polygon fill="none" stroke="#000000" points="171,-1185 110,-1185 110,-1149 171,-1149 171,-1185"/>
<text text-anchor="middle" x="140.5" y="-1163.3" font-family="Times,serif" font-size="14.00" fill="#000000">Artefact</text>
</a>
</g>
</g>
<!-- _node8&#45;&gt;_node0 -->
<g id="edge5" class="edge">
<title>_node8&#45;&gt;_node0</title>
<g id="a_edge5"><a xlink:href="../../../dependencies-between-packages/-~artefact~dependencies_between_packages,-~artefact.svg">
<path fill="none" stroke="#000000" d="M171.2618,-1172.9405C201.8205,-1180.0452 248.7919,-1194.3311 282,-1220 311.786,-1243.0237 334.9312,-1280.2899 348.3826,-1305.681"/>
<polygon fill="#000000" stroke="#000000" points="345.373,-1307.4822 353.0569,-1314.7765 351.5989,-1304.2825 345.373,-1307.4822"/>
</a>
</g>
</g>
<!-- _node9 -->
<g id="node10" class="node">
<title>_node9</title>
<g id="a_node10"><a xlink:href="../package_dependencies/Artefact/index.html" xlink:title="Artefact">
<polygon fill="none" stroke="#000000" points="171,-1102 110,-1102 110,-1066 171,-1066 171,-1102"/>
<text text-anchor="middle" x="140.5" y="-1080.3" font-family="Times,serif" font-size="14.00" fill="#000000">Artefact</text>
</a>
</g>
</g>
<!-- _node9&#45;&gt;_node0 -->
<g id="edge6" class="edge">
<title>_node9&#45;&gt;_node0</title>
<g id="a_edge6"><a xlink:href="../../../dependencies-between-packages/-~artefact~package_dependencies,-~artefact.svg">
<path fill="none" stroke="#000000" d="M171.1145,-1088.1465C202.6728,-1093.9253 251.4539,-1107.2663 282,-1137 329.8063,-1183.5348 349.7985,-1262.7392 357.3771,-1304.8029"/>
<polygon fill="#000000" stroke="#000000" points="353.9657,-1305.621 359.0842,-1314.8974 360.8677,-1304.4537 353.9657,-1305.621"/>
</a>
</g>
</g>
<!-- _node10 -->
<g id="node11" class="node">
<title>_node10</title>
<g id="a_node11"><a xlink:href="../overview/Artefact/index.html" xlink:title="Artefact">
<polygon fill="none" stroke="#000000" points="171,-1019 110,-1019 110,-983 171,-983 171,-1019"/>
<text text-anchor="middle" x="140.5" y="-997.3" font-family="Times,serif" font-size="14.00" fill="#000000">Artefact</text>
</a>
</g>
</g>
<!-- _node10&#45;&gt;_node0 -->
<g id="edge7" class="edge">
<title>_node10&#45;&gt;_node0</title>
<g id="a_edge7"><a xlink:href="../../../dependencies-between-packages/-~artefact~overview,-~artefact.svg">
<path fill="none" stroke="#000000" d="M171.1823,-1004.4095C203.2681,-1009.5972 252.9215,-1022.4718 282,-1054 316.2965,-1091.1858 345.7196,-1241.8015 356.8001,-1304.9377"/>
<polygon fill="#000000" stroke="#000000" points="353.3835,-1305.7207 358.5364,-1314.978 360.2811,-1304.5278 353.3835,-1305.7207"/>
</a>
</g>
</g>
<!-- _node11 -->
<g id="node12" class="node">
<title>_node11</title>
<g id="a_node12"><a xlink:href="../package_overview/Artefact/index.html" xlink:title="Artefact">
<polygon fill="none" stroke="#000000" points="171,-936 110,-936 110,-900 171,-900 171,-936"/>
<text text-anchor="middle" x="140.5" y="-914.3" font-family="Times,serif" font-size="14.00" fill="#000000">Artefact</text>
</a>
</g>
</g>
<!-- _node11&#45;&gt;_node0 -->
<g id="edge8" class="edge">
<title>_node11&#45;&gt;_node0</title>
<g id="a_edge8"><a xlink:href="../../../dependencies-between-packages/-~artefact~package_overview,-~artefact.svg">
<path fill="none" stroke="#000000" d="M171.2699,-921.0209C203.6719,-925.8857 253.8172,-938.4949 282,-971 325.7915,-1021.5075 350.8687,-1228.5008 358.762,-1304.6852"/>
<polygon fill="#000000" stroke="#000000" points="355.3109,-1305.3463 359.802,-1314.9421 362.2752,-1304.64 355.3109,-1305.3463"/>
</a>
</g>
</g>
<!-- _node12 -->
<g id="node13" class="node">
<title>_node12</title>
<g id="a_node13"><a xlink:href="../intra_class_dependencies/Artefact/index.html" xlink:title="Artefact">
<polygon fill="none" stroke="#000000" points="171,-853 110,-853 110,-817 171,-817 171,-853"/>
<text text-anchor="middle" x="140.5" y="-831.3" font-family="Times,serif" font-size="14.00" fill="#000000">Artefact</text>
</a>
</g>
</g>
<!-- _node12&#45;&gt;_node0 -->
<g id="edge9" class="edge">
<title>_node12&#45;&gt;_node0</title>
<g id="a_edge9"><a xlink:href="../../../dependencies-between-packages/-~artefact~intra_class_dependencies,-~artefact.svg">
<path fill="none" stroke="#000000" d="M171.2222,-837.7657C203.8289,-842.4155 254.3789,-854.8453 282,-888 335.4663,-952.1776 354.9845,-1217.3149 360.0436,-1304.8295"/>
<polygon fill="#000000" stroke="#000000" points="356.5496,-1305.0365 360.6025,-1314.8255 363.5387,-1304.6456 356.5496,-1305.0365"/>
</a>
</g>
</g>
<!-- _node13 -->
<g id="node14" class="node">
<title>_node13</title>
<g id="a_node14"><a xlink:href="../packages_with_cyclic_dependencies/Artefact/index.html" xlink:title="Artefact">
<polygon fill="none" stroke="#000000" points="171,-770 110,-770 110,-734 171,-734 171,-770"/>
<text text-anchor="middle" x="140.5" y="-748.3" font-family="Times,serif" font-size="14.00" fill="#000000">Artefact</text>
</a>
</g>
</g>
<!-- _node13&#45;&gt;_node0 -->
<g id="edge10" class="edge">
<title>_node13&#45;&gt;_node0</title>
<g id="a_edge10"><a xlink:href="../../../dependencies-between-packages/-~artefact~packages_with_cyclic_dependencies,-~artefact.svg">
<path fill="none" stroke="#000000" d="M171.0987,-754.5811C203.8465,-759.0731 254.7521,-771.3689 282,-805 345.2081,-883.0154 358.3692,-1207.0799 360.9223,-1304.912"/>
<polygon fill="#000000" stroke="#000000" points="357.4239,-1305.0241 361.1668,-1314.9357 364.4219,-1304.8533 357.4239,-1305.0241"/>
</a>
</g>
</g>
<!-- _node14 -->
<g id="node15" class="node">
<title>_node14</title>
<g id="a_node15"><a xlink:href="../package_neighbors/Artefact/index.html" xlink:title="Artefact">
<polygon fill="none" stroke="#000000" points="171,-687 110,-687 110,-651 171,-651 171,-687"/>
<text text-anchor="middle" x="140.5" y="-665.3" font-family="Times,serif" font-size="14.00" fill="#000000">Artefact</text>
</a>
</g>
</g>
<!-- _node14&#45;&gt;_node0 -->
<g id="edge11" class="edge">
<title>_node14&#45;&gt;_node0</title>
<g id="a_edge11"><a xlink:href="../../../dependencies-between-packages/-~artefact~package_neighbors,-~artefact.svg">
<path fill="none" stroke="#000000" d="M171.2271,-671.4782C204.0872,-675.8801 255.0908,-688.0974 282,-722 318.7622,-768.3163 351.3291,-1190.4558 359.5217,-1304.6381"/>
<polygon fill="#000000" stroke="#000000" points="356.0369,-1304.9773 360.2378,-1314.7037 363.0193,-1304.4805 356.0369,-1304.9773"/>
</a>
</g>
</g>
<!-- _node15 -->
<g id="node16" class="node">
<title>_node15</title>
<g id="a_node16"><a xlink:href="../stable_dependency_principle_violations/Artefact/index.html" xlink:title="Artefact">
<polygon fill="none" stroke="#000000" points="171,-604 110,-604 110,-568 171,-568 171,-604"/>
<text text-anchor="middle" x="140.5" y="-582.3" font-family="Times,serif" font-size="14.00" fill="#000000">Artefact</text>
</a>
</g>
</g>
<!-- _node15&#45;&gt;_node0 -->
<g id="edge12" class="edge">
<title>_node15&#45;&gt;_node0</title>
<g id="a_edge12"><a xlink:href="../../../dependencies-between-packages/-~artefact~stable_dependency_principle_violations,-~artefact.svg">
<path fill="none" stroke="#000000" d="M171.0269,-588.3612C203.9628,-592.6606 255.2707,-604.7887 282,-639 323.6744,-692.3398 353.1256,-1180.4896 359.9767,-1304.4703"/>
<polygon fill="#000000" stroke="#000000" points="356.4941,-1304.8849 360.535,-1314.6788 363.4836,-1304.5025 356.4941,-1304.8849"/>
</a>
</g>
</g>
<!-- _node16 -->
<g id="node17" class="node">
<title>_node16</title>
<g id="a_node17"><a xlink:href="../function_overview/Artefact/index.html" xlink:title="Artefact">
<polygon fill="none" stroke="#000000" points="171,-521 110,-521 110,-485 171,-485 171,-521"/>
<text text-anchor="middle" x="140.5" y="-499.3" font-family="Times,serif" font-size="14.00" fill="#000000">Artefact</text>
</a>
</g>
</g>
<!-- _node16&#45;&gt;_node0 -->
<g id="edge13" class="edge">
<title>_node16&#45;&gt;_node0</title>
<g id="a_edge13"><a xlink:href="../../../dependencies-between-packages/-~artefact~function_overview,-~artefact.svg">
<path fill="none" stroke="#000000" d="M171.1046,-505.3008C204.1094,-509.5468 255.4781,-521.6277 282,-556 328.631,-616.4336 354.7362,-1171.677 360.3476,-1304.5364"/>
<polygon fill="#000000" stroke="#000000" points="356.8585,-1304.8741 360.7722,-1314.7196 363.8525,-1304.5824 356.8585,-1304.8741"/>
</a>
</g>
</g>
<!-- _node17 -->
<g id="node18" class="node">
<title>_node17</title>
<g id="a_node18"><a xlink:href="../variable_overview/Artefact/index.html" xlink:title="Artefact">
<polygon fill="none" stroke="#000000" points="171,-438 110,-438 110,-402 171,-402 171,-438"/>
<text text-anchor="middle" x="140.5" y="-416.3" font-family="Times,serif" font-size="14.00" fill="#000000">Artefact</text>
</a>
</g>
</g>
<!-- _node17&#45;&gt;_node0 -->
<g id="edge14" class="edge">
<title>_node17&#45;&gt;_node0</title>
<g id="a_edge14"><a xlink:href="../../../dependencies-between-packages/-~artefact~variable_overview,-~artefact.svg">
<path fill="none" stroke="#000000" d="M171.1678,-422.2523C204.2285,-426.4554 255.6465,-438.4984 282,-473 333.6157,-540.5745 356.1791,-1163.6356 360.6496,-1304.6983"/>
<polygon fill="#000000" stroke="#000000" points="357.1522,-1304.8375 360.9624,-1314.7235 364.1488,-1304.6192 357.1522,-1304.8375"/>
</a>
</g>
</g>
<!-- _node18 -->
<g id="node19" class="node">
<title>_node18</title>
<g id="a_node19"><a xlink:href="../pakageelement_neighbors/Artefact/index.html" xlink:title="Artefact">
<polygon fill="none" stroke="#000000" points="171,-355 110,-355 110,-319 171,-319 171,-355"/>
<text text-anchor="middle" x="140.5" y="-333.3" font-family="Times,serif" font-size="14.00" fill="#000000">Artefact</text>
</a>
</g>
</g>
<!-- _node18&#45;&gt;_node0 -->
<g id="edge15" class="edge">
<title>_node18&#45;&gt;_node0</title>
<g id="a_edge15"><a xlink:href="../../../dependencies-between-packages/-~artefact~pakageelement_neighbors,-~artefact.svg">
<path fill="none" stroke="#000000" d="M171.2201,-339.2126C204.3271,-343.3804 255.786,-355.3923 282,-390 338.5558,-464.6649 357.4368,-1154.5911 360.8862,-1304.389"/>
<polygon fill="#000000" stroke="#000000" points="357.3918,-1304.6837 361.1165,-1314.6023 364.3901,-1304.5259 357.3918,-1304.6837"/>
</a>
</g>
</g>
<!-- _node19 -->
<g id="node20" class="node">
<title>_node19</title>
<g id="a_node20"><a xlink:href="../intra_package_dependencies/Artefact/index.html" xlink:title="Artefact">
<polygon fill="none" stroke="#000000" points="171,-272 110,-272 110,-236 171,-236 171,-272"/>
<text text-anchor="middle" x="140.5" y="-250.3" font-family="Times,serif" font-size="14.00" fill="#000000">Artefact</text>
</a>
</g>
</g>
<!-- _node19&#45;&gt;_node0 -->
<g id="edge16" class="edge">
<title>_node19&#45;&gt;_node0</title>
<g id="a_edge16"><a xlink:href="../../../dependencies-between-packages/-~artefact~intra_package_dependencies,-~artefact.svg">
<path fill="none" stroke="#000000" d="M171.2641,-256.1793C204.4101,-260.3177 255.9034,-272.3037 282,-307 343.548,-388.8301 358.6162,-1146.873 361.0933,-1304.4101"/>
<polygon fill="#000000" stroke="#000000" points="357.598,-1304.752 361.2504,-1314.6974 364.5972,-1304.6451 357.598,-1304.752"/>
</a>
</g>
</g>
<!-- _node20 -->
<g id="node21" class="node">
<title>_node20</title>
<g id="a_node21"><a xlink:href="../unit_test/SimpleArtefact/index.html" xlink:title="SimpleArtefact">
<polygon fill="none" stroke="#000000" points="190.5,-189 90.5,-189 90.5,-153 190.5,-153 190.5,-189"/>
<text text-anchor="middle" x="140.5" y="-167.3" font-family="Times,serif" font-size="14.00" fill="#000000">SimpleArtefact</text>
</a>
</g>
</g>
<!-- _node20&#45;&gt;_node0 -->
<g id="edge17" class="edge">
<title>_node20&#45;&gt;_node0</title>
<g id="a_edge17"><a xlink:href="../../../dependencies-between-packages/-~artefact~unit_test,-~artefact.svg">
<path fill="none" stroke="#000000" d="M190.544,-176.1838C222.0375,-182.2544 260.6373,-195.4265 282,-224 348.592,-313.0697 359.7155,-1140.4934 361.2724,-1304.7368"/>
<polygon fill="#000000" stroke="#000000" points="357.7747,-1305.023 361.3651,-1314.9909 364.7745,-1304.9596 357.7747,-1305.023"/>
</a>
</g>
</g>
<!-- _node21 -->
<g id="node22" class="node">
<title>_node21</title>
<g id="a_node22"><a xlink:href="../../graph/Queue/index.html" xlink:title="Queue">
<polygon fill="none" stroke="#000000" points="167.5,-106 113.5,-106 113.5,-70 167.5,-70 167.5,-106"/>
<text text-anchor="middle" x="140.5" y="-84.3" font-family="Times,serif" font-size="14.00" fill="#000000">Queue</text>
</a>
</g>
</g>
<!-- _node21&#45;&gt;_node0 -->
<g id="edge21" class="edge">
<title>_node21&#45;&gt;_node0</title>
<g id="a_edge21"><a xlink:href="../../../dependencies-between-packages/-~graph,-~artefact.svg">
<path fill="none" stroke="#000000" d="M167.5089,-89.6803C200.4534,-93.316 255.0724,-104.7959 282,-141 353.5717,-237.2277 360.7101,-1132.5677 361.4214,-1304.516"/>
<polygon fill="#000000" stroke="#000000" points="357.9215,-1304.579 361.4589,-1314.5658 364.9214,-1304.5528 357.9215,-1304.579"/>
</a>
</g>
</g>
<!-- _node22 -->
<g id="node23" class="node">
<title>_node22</title>
<g id="a_node23"><a xlink:href="../../graph/createEnv/index.html" xlink:title="createEnv">
<polygon fill="none" stroke="#000000" points="176,-52 105,-52 105,-16 176,-16 176,-52"/>
<text text-anchor="middle" x="140.5" y="-30.3" font-family="Times,serif" font-size="14.00" fill="#000000">createEnv</text>
</a>
</g>
</g>
<!-- _node22&#45;&gt;_node0 -->
<g id="edge22" class="edge">
<title>_node22&#45;&gt;_node0</title>
<g id="a_edge22"><a xlink:href="../../../dependencies-between-packages/-~graph,-~artefact.svg">
<path fill="none" stroke="#000000" d="M176.2839,-29.7576C209.0034,-28.0829 256.1235,-31.6351 282,-61 324.5593,-109.2966 355.4447,-1121.1775 360.7047,-1304.6143"/>
<polygon fill="#000000" stroke="#000000" points="357.2116,-1304.9075 360.9949,-1314.8038 364.2087,-1304.7082 357.2116,-1304.9075"/>
</a>
</g>
</g>
</g>
</svg>
