digraph {
    rankdir=LR
    label="Url"
    subgraph cluster_0 {
        label="methods"
        _node0 [
            shape="box"
            label="Url"
        ]
        _node1 [
            shape="box"
            label="Url"
        ]
        _node2 [
            shape="box"
            label="Url"
        ]
        _node3 [
            shape="box"
            label="escaped"
        ]
        _node4 [
            shape="box"
            label="filename"
        ]
        _node5 [
            shape="box"
            label="getRepresentation"
        ]
        _node6 [
            shape="box"
            label="getPath"
        ]
        _node7 [
            shape="box"
            label="append"
        ]
        _node8 [
            shape="box"
            label="asRepresentation"
        ]
        _node9 [
            shape="box"
            label="relativeTo"
        ]
        _node10 [
            shape="box"
            label="operator&lt;"
        ]
    }
    subgraph cluster_1 {
        label="fields"
        _node11 [
            shape="box"
            label="path"
        ]
        _node12 [
            shape="box"
            label="representation"
        ]
    }
    subgraph cluster_2 {
        label="classes"
        _node13 [
            shape="box"
            label="Path"
            URL="Path/index.html"
        ]
    }
    _node1 -> _node13
    _node1 -> _node11
    _node1 -> _node12
    _node3 -> _node11
    _node3 -> _node12
    _node4 -> _node11
    _node4 -> _node12
    _node5 -> _node12
    _node6 -> _node13
    _node6 -> _node11
    _node7 -> _node13
    _node7 -> _node11
    _node7 -> _node1
    _node7 -> _node12
    _node8 -> _node1
    _node8 -> _node11
    _node9 -> _node4
    _node9 -> _node13
    _node9 -> _node1
    _node9 -> _node12
    _node10 -> _node11
    _node10 -> _node12
    _node11 -> _node13
}
