<?xml version="1.0" encoding="UTF-8" standalone="no"?>
<!DOCTYPE svg PUBLIC "-//W3C//DTD SVG 1.1//EN"
 "http://www.w3.org/Graphics/SVG/1.1/DTD/svg11.dtd">
<!-- Generated by graphviz version 2.40.1 (20161225.0304)
 -->
<!-- Title: %3 Pages: 1 -->
<svg width="94pt" height="122pt"
 viewBox="0.00 0.00 94.00 122.00" xmlns="http://www.w3.org/2000/svg" xmlns:xlink="http://www.w3.org/1999/xlink">
<g id="graph0" class="graph" transform="scale(1 1) rotate(0) translate(4 118)">
<title>%3</title>
<polygon fill="#ffffff" stroke="transparent" points="-4,4 -4,-118 90,-118 90,4 -4,4"/>
<text text-anchor="middle" x="43" y="-7.8" font-family="Times,serif" font-size="14.00" fill="#000000">Variable</text>
<g id="clust1" class="cluster">
<title>cluster_0</title>
<polygon fill="none" stroke="#000000" points="8,-31 8,-106 78,-106 78,-31 8,-31"/>
<text text-anchor="middle" x="43" y="-90.8" font-family="Times,serif" font-size="14.00" fill="#000000">methods</text>
</g>
<!-- _node0 -->
<g id="node1" class="node">
<title>_node0</title>
<polygon fill="none" stroke="#000000" points="70,-75 16,-75 16,-39 70,-39 70,-75"/>
<text text-anchor="middle" x="43" y="-53.3" font-family="Times,serif" font-size="14.00" fill="#000000">accept</text>
</g>
</g>
</svg>
