digraph {
    rankdir=LR
    _node0 [
        shape="box"
        style="bold"
        label="artefact::variable_overview"
        URL="index.html"
    ]
    _node1 [
        shape="box"
        label="artefact"
        URL="../index.html"
    ]
    _node2 [
        shape="box"
        label="ast"
        URL="../../ast/index.html"
    ]
    _node3 [
        shape="box"
        label="html"
        URL="../../html/index.html"
    ]
    _node4 [
        shape="box"
        label="artefact::factory"
        URL="../factory/index.html"
    ]
    _node0 -> _node1 [
        label="8"
        URL="../../../dependencies-between-packages/-~artefact~variable_overview,-~artefact.svg"
    ]
    _node0 -> _node2 [
        label="1"
        URL="../../../dependencies-between-packages/-~artefact~variable_overview,-~ast.svg"
    ]
    _node0 -> _node3 [
        label="2"
        URL="../../../dependencies-between-packages/-~artefact~variable_overview,-~html.svg"
    ]
    _node4 -> _node0 [
        label="2"
        URL="../../../dependencies-between-packages/-~artefact~factory,-~artefact~variable_overview.svg"
    ]
}
