<?xml version="1.0" encoding="UTF-8" standalone="no"?>
<!DOCTYPE svg PUBLIC "-//W3C//DTD SVG 1.1//EN"
 "http://www.w3.org/Graphics/SVG/1.1/DTD/svg11.dtd">
<!-- Generated by graphviz version 2.40.1 (20161225.0304)
 -->
<!-- Title: %3 Pages: 1 -->
<svg width="417pt" height="314pt"
 viewBox="0.00 0.00 417.00 314.00" xmlns="http://www.w3.org/2000/svg" xmlns:xlink="http://www.w3.org/1999/xlink">
<g id="graph0" class="graph" transform="scale(1 1) rotate(0) translate(4 310)">
<title>%3</title>
<polygon fill="#ffffff" stroke="transparent" points="-4,4 -4,-310 413,-310 413,4 -4,4"/>
<!-- _node0 -->
<g id="node1" class="node">
<title>_node0</title>
<g id="a_node1"><a xlink:href="index.html" xlink:title="metric">
<polygon fill="none" stroke="#000000" stroke-width="2" points="212,-171 158,-171 158,-135 212,-135 212,-171"/>
<text text-anchor="middle" x="185" y="-149.3" font-family="Times,serif" font-size="14.00" fill="#000000">metric</text>
</a>
</g>
</g>
<!-- _node1 -->
<g id="node2" class="node">
<title>_node1</title>
<g id="a_node2"><a xlink:href="../ast/index.html" xlink:title="ast">
<polygon fill="none" stroke="#000000" points="362.5,-306 308.5,-306 308.5,-270 362.5,-270 362.5,-306"/>
<text text-anchor="middle" x="335.5" y="-284.3" font-family="Times,serif" font-size="14.00" fill="#000000">ast</text>
</a>
</g>
</g>
<!-- _node0&#45;&gt;_node1 -->
<g id="edge1" class="edge">
<title>_node0&#45;&gt;_node1</title>
<g id="a_edge1"><a xlink:href="../../dependencies-between-packages/-~metric,-~ast.svg" xlink:title="13">
<path fill="none" stroke="#000000" d="M193.6256,-171.2532C205.7436,-195.0634 229.9616,-236.5565 262,-261 272.7453,-269.1981 286.2303,-275.1008 298.7063,-279.2546"/>
<polygon fill="#000000" stroke="#000000" points="297.8376,-282.6488 308.4238,-282.2213 299.8815,-275.9538 297.8376,-282.6488"/>
</a>
</g>
<g id="a_edge1&#45;label"><a xlink:href="../../dependencies-between-packages/-~metric,-~ast.svg" xlink:title="13">
<text text-anchor="middle" x="237" y="-247.8" font-family="Times,serif" font-size="14.00" fill="#000000">13</text>
</a>
</g>
</g>
<!-- _node2 -->
<g id="node3" class="node">
<title>_node2</title>
<g id="a_node3"><a xlink:href="../ast/repository/index.html" xlink:title="ast::repository">
<polygon fill="none" stroke="#000000" points="382.5,-252 288.5,-252 288.5,-216 382.5,-216 382.5,-252"/>
<text text-anchor="middle" x="335.5" y="-230.3" font-family="Times,serif" font-size="14.00" fill="#000000">ast::repository</text>
</a>
</g>
</g>
<!-- _node0&#45;&gt;_node2 -->
<g id="edge2" class="edge">
<title>_node0&#45;&gt;_node2</title>
<g id="a_edge2"><a xlink:href="../../dependencies-between-packages/-~metric,-~ast~repository.svg" xlink:title="1">
<path fill="none" stroke="#000000" d="M207.585,-171.1951C222.4235,-182.5413 242.6117,-196.8613 262,-207 267.4548,-209.8525 273.2795,-212.5406 279.1725,-215.0332"/>
<polygon fill="#000000" stroke="#000000" points="277.8632,-218.2791 288.4459,-218.7849 280.4884,-211.79 277.8632,-218.2791"/>
</a>
</g>
<g id="a_edge2&#45;label"><a xlink:href="../../dependencies-between-packages/-~metric,-~ast~repository.svg" xlink:title="1">
<text text-anchor="middle" x="237" y="-198.8" font-family="Times,serif" font-size="14.00" fill="#000000">1</text>
</a>
</g>
</g>
<!-- _node3 -->
<g id="node4" class="node">
<title>_node3</title>
<g id="a_node4"><a xlink:href="package/index.html" xlink:title="metric::package">
<polygon fill="none" stroke="#000000" points="387.5,-198 283.5,-198 283.5,-162 387.5,-162 387.5,-198"/>
<text text-anchor="middle" x="335.5" y="-176.3" font-family="Times,serif" font-size="14.00" fill="#000000">metric::package</text>
</a>
</g>
</g>
<!-- _node0&#45;&gt;_node3 -->
<g id="edge3" class="edge">
<title>_node0&#45;&gt;_node3</title>
<g id="a_edge3"><a xlink:href="../../dependencies-between-packages/-~metric,-~metric~package.svg" xlink:title="2">
<path fill="none" stroke="#000000" d="M212.2544,-157.8895C229.3659,-160.9593 252.1601,-165.0487 273.4891,-168.8751"/>
<polygon fill="#000000" stroke="#000000" points="273.0232,-172.3473 283.4842,-170.6683 274.2594,-165.4573 273.0232,-172.3473"/>
</a>
</g>
<g id="a_edge3&#45;label"><a xlink:href="../../dependencies-between-packages/-~metric,-~metric~package.svg" xlink:title="2">
<text text-anchor="middle" x="237" y="-166.8" font-family="Times,serif" font-size="14.00" fill="#000000">2</text>
</a>
</g>
</g>
<!-- _node4 -->
<g id="node5" class="node">
<title>_node4</title>
<g id="a_node5"><a xlink:href="generic/index.html" xlink:title="metric::generic">
<polygon fill="none" stroke="#000000" points="385,-144 286,-144 286,-108 385,-108 385,-144"/>
<text text-anchor="middle" x="335.5" y="-122.3" font-family="Times,serif" font-size="14.00" fill="#000000">metric::generic</text>
</a>
</g>
</g>
<!-- _node0&#45;&gt;_node4 -->
<g id="edge4" class="edge">
<title>_node0&#45;&gt;_node4</title>
<g id="a_edge4"><a xlink:href="../../dependencies-between-packages/-~metric,-~metric~generic.svg" xlink:title="5">
<path fill="none" stroke="#000000" d="M212.0406,-145.9757C217.9383,-144.5599 224.1615,-143.1539 230,-142 244.7663,-139.0816 260.7866,-136.4039 275.7776,-134.1083"/>
<polygon fill="#000000" stroke="#000000" points="276.5926,-137.5253 285.9634,-132.5817 275.5551,-130.6026 276.5926,-137.5253"/>
</a>
</g>
<g id="a_edge4&#45;label"><a xlink:href="../../dependencies-between-packages/-~metric,-~metric~generic.svg" xlink:title="5">
<text text-anchor="middle" x="237" y="-145.8" font-family="Times,serif" font-size="14.00" fill="#000000">5</text>
</a>
</g>
</g>
<!-- _node5 -->
<g id="node6" class="node">
<title>_node5</title>
<g id="a_node6"><a xlink:href="packageelement/index.html" xlink:title="metric::packageelement">
<polygon fill="none" stroke="#000000" points="409,-90 262,-90 262,-54 409,-54 409,-90"/>
<text text-anchor="middle" x="335.5" y="-68.3" font-family="Times,serif" font-size="14.00" fill="#000000">metric::packageelement</text>
</a>
</g>
</g>
<!-- _node0&#45;&gt;_node5 -->
<g id="edge5" class="edge">
<title>_node0&#45;&gt;_node5</title>
<g id="a_edge5"><a xlink:href="../../dependencies-between-packages/-~metric,-~metric~packageelement.svg" xlink:title="2">
<path fill="none" stroke="#000000" d="M209.1219,-134.9553C215.8312,-130.0338 223.1554,-124.7508 230,-120 243.9748,-110.3001 246.8057,-106.6495 262,-99 265.3543,-97.3113 268.8405,-95.6727 272.3912,-94.0929"/>
<polygon fill="#000000" stroke="#000000" points="274.0592,-97.1871 281.894,-90.055 271.3217,-90.7446 274.0592,-97.1871"/>
</a>
</g>
<g id="a_edge5&#45;label"><a xlink:href="../../dependencies-between-packages/-~metric,-~metric~packageelement.svg" xlink:title="2">
<text text-anchor="middle" x="237" y="-123.8" font-family="Times,serif" font-size="14.00" fill="#000000">2</text>
</a>
</g>
</g>
<!-- _node6 -->
<g id="node7" class="node">
<title>_node6</title>
<g id="a_node7"><a xlink:href="../library/index.html" xlink:title="library">
<polygon fill="none" stroke="#000000" points="362.5,-36 308.5,-36 308.5,0 362.5,0 362.5,-36"/>
<text text-anchor="middle" x="335.5" y="-14.3" font-family="Times,serif" font-size="14.00" fill="#000000">library</text>
</a>
</g>
</g>
<!-- _node0&#45;&gt;_node6 -->
<g id="edge6" class="edge">
<title>_node0&#45;&gt;_node6</title>
<g id="a_edge6"><a xlink:href="../../dependencies-between-packages/-~metric,-~library.svg" xlink:title="1">
<path fill="none" stroke="#000000" d="M193.6256,-134.7468C205.7436,-110.9366 229.9616,-69.4435 262,-45 272.7453,-36.8019 286.2303,-30.8992 298.7063,-26.7454"/>
<polygon fill="#000000" stroke="#000000" points="299.8815,-30.0462 308.4238,-23.7787 297.8376,-23.3512 299.8815,-30.0462"/>
</a>
</g>
<g id="a_edge6&#45;label"><a xlink:href="../../dependencies-between-packages/-~metric,-~library.svg" xlink:title="1">
<text text-anchor="middle" x="237" y="-78.8" font-family="Times,serif" font-size="14.00" fill="#000000">1</text>
</a>
</g>
</g>
<!-- _node7 -->
<g id="node8" class="node">
<title>_node7</title>
<g id="a_node8"><a xlink:href="../artefact/factory/index.html" xlink:title="artefact::factory">
<polygon fill="none" stroke="#000000" points="109,-252 6,-252 6,-216 109,-216 109,-252"/>
<text text-anchor="middle" x="57.5" y="-230.3" font-family="Times,serif" font-size="14.00" fill="#000000">artefact::factory</text>
</a>
</g>
</g>
<!-- _node7&#45;&gt;_node0 -->
<g id="edge7" class="edge">
<title>_node7&#45;&gt;_node0</title>
<g id="a_edge7"><a xlink:href="../../dependencies-between-packages/-~artefact~factory,-~metric.svg" xlink:title="2">
<path fill="none" stroke="#000000" d="M98.9094,-215.8929C104.4197,-213.098 109.9168,-210.1028 115,-207 129.157,-198.3584 143.8351,-187.3904 156.0717,-177.5998"/>
<polygon fill="#000000" stroke="#000000" points="158.5697,-180.0796 164.1168,-171.0529 154.1513,-174.6501 158.5697,-180.0796"/>
</a>
</g>
<g id="a_edge7&#45;label"><a xlink:href="../../dependencies-between-packages/-~artefact~factory,-~metric.svg" xlink:title="2">
<text text-anchor="middle" x="136.5" y="-197.8" font-family="Times,serif" font-size="14.00" fill="#000000">2</text>
</a>
</g>
</g>
<!-- _node8 -->
<g id="node9" class="node">
<title>_node8</title>
<g id="a_node9"><a xlink:href="../artefact/overview/index.html" xlink:title="artefact::overview">
<polygon fill="none" stroke="#000000" points="115,-198 0,-198 0,-162 115,-162 115,-198"/>
<text text-anchor="middle" x="57.5" y="-176.3" font-family="Times,serif" font-size="14.00" fill="#000000">artefact::overview</text>
</a>
</g>
</g>
<!-- _node8&#45;&gt;_node0 -->
<g id="edge8" class="edge">
<title>_node8&#45;&gt;_node0</title>
<g id="a_edge8"><a xlink:href="../../dependencies-between-packages/-~artefact~overview,-~metric.svg" xlink:title="3">
<path fill="none" stroke="#000000" d="M115.2812,-167.764C126.4493,-165.399 137.8639,-162.9818 148.1378,-160.8061"/>
<polygon fill="#000000" stroke="#000000" points="148.9221,-164.2177 157.98,-158.7219 147.4718,-157.3696 148.9221,-164.2177"/>
</a>
</g>
<g id="a_edge8&#45;label"><a xlink:href="../../dependencies-between-packages/-~artefact~overview,-~metric.svg" xlink:title="3">
<text text-anchor="middle" x="136.5" y="-166.8" font-family="Times,serif" font-size="14.00" fill="#000000">3</text>
</a>
</g>
</g>
<!-- _node9 -->
<g id="node10" class="node">
<title>_node9</title>
<g id="a_node10"><a xlink:href="../feature_test/index.html" xlink:title="feature_test">
<polygon fill="none" stroke="#000000" points="97.5,-144 17.5,-144 17.5,-108 97.5,-108 97.5,-144"/>
<text text-anchor="middle" x="57.5" y="-122.3" font-family="Times,serif" font-size="14.00" fill="#000000">feature_test</text>
</a>
</g>
</g>
<!-- _node9&#45;&gt;_node0 -->
<g id="edge9" class="edge">
<title>_node9&#45;&gt;_node0</title>
<g id="a_edge9"><a xlink:href="../../dependencies-between-packages/-~feature_test,-~metric.svg" xlink:title="5">
<path fill="none" stroke="#000000" d="M97.8418,-134.543C113.8807,-137.9395 132.2153,-141.8221 147.917,-145.1471"/>
<polygon fill="#000000" stroke="#000000" points="147.2963,-148.5932 157.8044,-147.2409 148.7465,-141.7451 147.2963,-148.5932"/>
</a>
</g>
<g id="a_edge9&#45;label"><a xlink:href="../../dependencies-between-packages/-~feature_test,-~metric.svg" xlink:title="5">
<text text-anchor="middle" x="136.5" y="-145.8" font-family="Times,serif" font-size="14.00" fill="#000000">5</text>
</a>
</g>
</g>
<!-- _node10 -->
<g id="node11" class="node">
<title>_node10</title>
<g id="a_node11"><a xlink:href="../driver/index.html" xlink:title="driver">
<polygon fill="none" stroke="#000000" points="84.5,-90 30.5,-90 30.5,-54 84.5,-54 84.5,-90"/>
<text text-anchor="middle" x="57.5" y="-68.3" font-family="Times,serif" font-size="14.00" fill="#000000">driver</text>
</a>
</g>
</g>
<!-- _node10&#45;&gt;_node0 -->
<g id="edge10" class="edge">
<title>_node10&#45;&gt;_node0</title>
<g id="a_edge10"><a xlink:href="../../dependencies-between-packages/-~driver,-~metric.svg" xlink:title="1">
<path fill="none" stroke="#000000" d="M84.7557,-83.3257C94.537,-87.7697 105.4926,-93.1966 115,-99 129.157,-107.6416 143.8351,-118.6096 156.0717,-128.4002"/>
<polygon fill="#000000" stroke="#000000" points="154.1513,-131.3499 164.1168,-134.9471 158.5697,-125.9204 154.1513,-131.3499"/>
</a>
</g>
<g id="a_edge10&#45;label"><a xlink:href="../../dependencies-between-packages/-~driver,-~metric.svg" xlink:title="1">
<text text-anchor="middle" x="136.5" y="-118.8" font-family="Times,serif" font-size="14.00" fill="#000000">1</text>
</a>
</g>
</g>
</g>
</svg>
