<?xml version="1.0" encoding="UTF-8" standalone="no"?>
<!DOCTYPE svg PUBLIC "-//W3C//DTD SVG 1.1//EN"
 "http://www.w3.org/Graphics/SVG/1.1/DTD/svg11.dtd">
<!-- Generated by graphviz version 2.40.1 (20161225.0304)
 -->
<!-- Title: %3 Pages: 1 -->
<svg width="348pt" height="125pt"
 viewBox="0.00 0.00 348.00 125.00" xmlns="http://www.w3.org/2000/svg" xmlns:xlink="http://www.w3.org/1999/xlink">
<g id="graph0" class="graph" transform="scale(1 1) rotate(0) translate(4 121)">
<title>%3</title>
<polygon fill="#ffffff" stroke="transparent" points="-4,4 -4,-121 344,-121 344,4 -4,4"/>
<!-- _node0 -->
<g id="node1" class="node">
<title>_node0</title>
<g id="a_node1"><a xlink:href="InstabilityService/index.html" xlink:title="InstabilityService">
<polygon fill="none" stroke="#000000" points="112,-36 0,-36 0,0 112,0 112,-36"/>
<text text-anchor="middle" x="56" y="-14.3" font-family="Times,serif" font-size="14.00" fill="#000000">InstabilityService</text>
</a>
</g>
</g>
<!-- _node1 -->
<g id="node2" class="node">
<title>_node1</title>
<g id="a_node2"><a xlink:href="Repository/index.html" xlink:title="Repository">
<polygon fill="none" stroke="#000000" points="224,-117 148,-117 148,-81 224,-81 224,-117"/>
<text text-anchor="middle" x="186" y="-95.3" font-family="Times,serif" font-size="14.00" fill="#000000">Repository</text>
</a>
</g>
</g>
<!-- _node2 -->
<g id="node3" class="node">
<title>_node2</title>
<g id="a_node3"><a xlink:href="Description/index.html" xlink:title="Description">
<polygon fill="none" stroke="#000000" points="340,-63 260,-63 260,-27 340,-27 340,-63"/>
<text text-anchor="middle" x="300" y="-41.3" font-family="Times,serif" font-size="14.00" fill="#000000">Description</text>
</a>
</g>
</g>
<!-- _node3 -->
<g id="node4" class="node">
<title>_node3</title>
<g id="a_node4"><a xlink:href="Metrics/index.html" xlink:title="Metrics">
<polygon fill="none" stroke="#000000" points="215.5,-63 156.5,-63 156.5,-27 215.5,-27 215.5,-63"/>
<text text-anchor="middle" x="186" y="-41.3" font-family="Times,serif" font-size="14.00" fill="#000000">Metrics</text>
</a>
</g>
</g>
<!-- _node3&#45;&gt;_node2 -->
<g id="edge1" class="edge">
<title>_node3&#45;&gt;_node2</title>
<path fill="none" stroke="#000000" d="M215.6546,-45C226.0637,-45 238.0674,-45 249.6942,-45"/>
<polygon fill="#000000" stroke="#000000" points="249.7653,-48.5001 259.7653,-45 249.7652,-41.5001 249.7653,-48.5001"/>
</g>
<!-- _node4 -->
<g id="node5" class="node">
<title>_node4</title>
<g id="a_node5"><a xlink:href="AllRepository/index.html" xlink:title="AllRepository">
<polygon fill="none" stroke="#000000" points="102.5,-90 9.5,-90 9.5,-54 102.5,-54 102.5,-90"/>
<text text-anchor="middle" x="56" y="-68.3" font-family="Times,serif" font-size="14.00" fill="#000000">AllRepository</text>
</a>
</g>
</g>
<!-- _node4&#45;&gt;_node1 -->
<g id="edge2" class="edge">
<title>_node4&#45;&gt;_node1</title>
<path fill="none" stroke="#000000" d="M102.5658,-81.6714C114.0611,-84.0588 126.3949,-86.6205 137.9587,-89.0222"/>
<polygon fill="#000000" stroke="#000000" points="137.3795,-92.4765 147.8823,-91.0832 138.803,-85.6228 137.3795,-92.4765"/>
</g>
<!-- _node4&#45;&gt;_node3 -->
<g id="edge3" class="edge">
<title>_node4&#45;&gt;_node3</title>
<path fill="none" stroke="#000000" d="M102.5658,-62.3286C116.8478,-59.3624 132.4242,-56.1273 146.2102,-53.264"/>
<polygon fill="#000000" stroke="#000000" points="147.273,-56.6181 156.3523,-51.1576 145.8495,-49.7643 147.273,-56.6181"/>
</g>
</g>
</svg>
