<?xml version="1.0" encoding="UTF-8" standalone="no"?>
<!DOCTYPE svg PUBLIC "-//W3C//DTD SVG 1.1//EN"
 "http://www.w3.org/Graphics/SVG/1.1/DTD/svg11.dtd">
<!-- Generated by graphviz version 2.40.1 (20161225.0304)
 -->
<!-- Title: %3 Pages: 1 -->
<svg width="209pt" height="176pt"
 viewBox="0.00 0.00 209.00 176.00" xmlns="http://www.w3.org/2000/svg" xmlns:xlink="http://www.w3.org/1999/xlink">
<g id="graph0" class="graph" transform="scale(1 1) rotate(0) translate(4 172)">
<title>%3</title>
<polygon fill="#ffffff" stroke="transparent" points="-4,4 -4,-172 205,-172 205,4 -4,4"/>
<text text-anchor="middle" x="100.5" y="-7.8" font-family="Times,serif" font-size="14.00" fill="#000000">Description</text>
<g id="clust1" class="cluster">
<title>cluster_0</title>
<polygon fill="none" stroke="#000000" points="8,-31 8,-160 78,-160 78,-31 8,-31"/>
<text text-anchor="middle" x="43" y="-144.8" font-family="Times,serif" font-size="14.00" fill="#000000">fields</text>
</g>
<g id="clust2" class="cluster">
<title>cluster_1</title>
<polygon fill="none" stroke="#000000" points="98,-31 98,-106 193,-106 193,-31 98,-31"/>
<text text-anchor="middle" x="145.5" y="-90.8" font-family="Times,serif" font-size="14.00" fill="#000000">classes</text>
</g>
<!-- _node0 -->
<g id="node1" class="node">
<title>_node0</title>
<polygon fill="none" stroke="#000000" points="70,-129 16,-129 16,-93 70,-93 70,-129"/>
<text text-anchor="middle" x="43" y="-107.3" font-family="Times,serif" font-size="14.00" fill="#000000">name</text>
</g>
<!-- _node1 -->
<g id="node2" class="node">
<title>_node1</title>
<polygon fill="none" stroke="#000000" points="70,-75 16,-75 16,-39 70,-39 70,-75"/>
<text text-anchor="middle" x="43" y="-53.3" font-family="Times,serif" font-size="14.00" fill="#000000">value</text>
</g>
<!-- _node2 -->
<g id="node3" class="node">
<title>_node2</title>
<g id="a_node3"><a xlink:href="Calculation/index.html" xlink:title="Calculation">
<polygon fill="none" stroke="#000000" points="185,-75 106,-75 106,-39 185,-39 185,-75"/>
<text text-anchor="middle" x="145.5" y="-53.3" font-family="Times,serif" font-size="14.00" fill="#000000">Calculation</text>
</a>
</g>
</g>
<!-- _node1&#45;&gt;_node2 -->
<g id="edge1" class="edge">
<title>_node1&#45;&gt;_node2</title>
<path fill="none" stroke="#000000" d="M70.199,-57C78.0426,-57 86.8582,-57 95.6204,-57"/>
<polygon fill="#000000" stroke="#000000" points="95.8204,-60.5001 105.8204,-57 95.8204,-53.5001 95.8204,-60.5001"/>
</g>
</g>
</svg>
