digraph {
    rankdir=LR
    subgraph cluster_0 {
        label="metric::generic::Instability"
        URL="../index.html"
        _node0 [
            shape="box"
            style="bold"
            label="FanCount"
            URL="index.html"
        ]
    }
    subgraph cluster_1 {
        label="ast"
        URL="../../../../ast/index.html"
        _node1 [
            shape="box"
            label="Node"
            URL="../../../../ast/Node/index.html"
        ]
    }
    subgraph cluster_2 {
        label="metric::generic"
        URL="../../index.html"
        _node2 [
            shape="box"
            label="Instability"
            URL="../index.html"
        ]
    }
    _node0 -> _node1 [
        URL="../../../../../dependencies-between-packages/-~metric~generic,-~ast.svg"
    ]
    _node2 -> _node0
}
