<?xml version="1.0" encoding="UTF-8" standalone="no"?>
<!DOCTYPE svg PUBLIC "-//W3C//DTD SVG 1.1//EN"
 "http://www.w3.org/Graphics/SVG/1.1/DTD/svg11.dtd">
<!-- Generated by graphviz version 2.40.1 (20161225.0304)
 -->
<!-- Title: %3 Pages: 1 -->
<svg width="573pt" height="314pt"
 viewBox="0.00 0.00 573.00 314.00" xmlns="http://www.w3.org/2000/svg" xmlns:xlink="http://www.w3.org/1999/xlink">
<g id="graph0" class="graph" transform="scale(1 1) rotate(0) translate(4 310)">
<title>%3</title>
<polygon fill="#ffffff" stroke="transparent" points="-4,4 -4,-310 569,-310 569,4 -4,4"/>
<!-- _node0 -->
<g id="node1" class="node">
<title>_node0</title>
<g id="a_node1"><a xlink:href="index.html" xlink:title="artefact::stable_dependency_principle_violations">
<polygon fill="none" stroke="#000000" stroke-width="2" points="428,-171 146,-171 146,-135 428,-135 428,-171"/>
<text text-anchor="middle" x="287" y="-149.3" font-family="Times,serif" font-size="14.00" fill="#000000">artefact::stable_dependency_principle_violations</text>
</a>
</g>
</g>
<!-- _node1 -->
<g id="node2" class="node">
<title>_node1</title>
<g id="a_node2"><a xlink:href="../index.html" xlink:title="artefact">
<polygon fill="none" stroke="#000000" points="546.5,-306 489.5,-306 489.5,-270 546.5,-270 546.5,-306"/>
<text text-anchor="middle" x="518" y="-284.3" font-family="Times,serif" font-size="14.00" fill="#000000">artefact</text>
</a>
</g>
</g>
<!-- _node0&#45;&gt;_node1 -->
<g id="edge1" class="edge">
<title>_node0&#45;&gt;_node1</title>
<g id="a_edge1"><a xlink:href="../../../dependencies-between-packages/-~artefact~stable_dependency_principle_violations,-~artefact.svg" xlink:title="6">
<path fill="none" stroke="#000000" d="M317.5524,-171.0504C354.0178,-192.5669 416.8665,-229.5649 471,-261 474.0211,-262.7544 477.1545,-264.5677 480.3039,-266.3861"/>
<polygon fill="#000000" stroke="#000000" points="478.7307,-269.519 489.1427,-271.4789 482.2255,-263.4538 478.7307,-269.519"/>
</a>
</g>
<g id="a_edge1&#45;label"><a xlink:href="../../../dependencies-between-packages/-~artefact~stable_dependency_principle_violations,-~artefact.svg" xlink:title="6">
<text text-anchor="middle" x="449.5" y="-252.8" font-family="Times,serif" font-size="14.00" fill="#000000">6</text>
</a>
</g>
</g>
<!-- _node2 -->
<g id="node3" class="node">
<title>_node2</title>
<g id="a_node3"><a xlink:href="../../ast/index.html" xlink:title="ast">
<polygon fill="none" stroke="#000000" points="545,-252 491,-252 491,-216 545,-216 545,-252"/>
<text text-anchor="middle" x="518" y="-230.3" font-family="Times,serif" font-size="14.00" fill="#000000">ast</text>
</a>
</g>
</g>
<!-- _node0&#45;&gt;_node2 -->
<g id="edge2" class="edge">
<title>_node0&#45;&gt;_node2</title>
<g id="a_edge2"><a xlink:href="../../../dependencies-between-packages/-~artefact~stable_dependency_principle_violations,-~ast.svg" xlink:title="6">
<path fill="none" stroke="#000000" d="M338.5534,-171.0772C381.7636,-186.2288 442.4103,-207.4945 480.9536,-221.0097"/>
<polygon fill="#000000" stroke="#000000" points="480.1338,-224.4311 490.7287,-224.4373 482.4502,-217.8255 480.1338,-224.4311"/>
</a>
</g>
<g id="a_edge2&#45;label"><a xlink:href="../../../dependencies-between-packages/-~artefact~stable_dependency_principle_violations,-~ast.svg" xlink:title="6">
<text text-anchor="middle" x="449.5" y="-213.8" font-family="Times,serif" font-size="14.00" fill="#000000">6</text>
</a>
</g>
</g>
<!-- _node3 -->
<g id="node4" class="node">
<title>_node3</title>
<g id="a_node4"><a xlink:href="../../ast/repository/index.html" xlink:title="ast::repository">
<polygon fill="none" stroke="#000000" points="565,-198 471,-198 471,-162 565,-162 565,-198"/>
<text text-anchor="middle" x="518" y="-176.3" font-family="Times,serif" font-size="14.00" fill="#000000">ast::repository</text>
</a>
</g>
</g>
<!-- _node0&#45;&gt;_node3 -->
<g id="edge3" class="edge">
<title>_node0&#45;&gt;_node3</title>
<g id="a_edge3"><a xlink:href="../../../dependencies-between-packages/-~artefact~stable_dependency_principle_violations,-~ast~repository.svg" xlink:title="1">
<path fill="none" stroke="#000000" d="M428.0279,-169.4838C439.4409,-170.8178 450.5038,-172.1108 460.7401,-173.3073"/>
<polygon fill="#000000" stroke="#000000" points="460.3445,-176.7848 470.6832,-174.4695 461.1572,-169.8321 460.3445,-176.7848"/>
</a>
</g>
<g id="a_edge3&#45;label"><a xlink:href="../../../dependencies-between-packages/-~artefact~stable_dependency_principle_violations,-~ast~repository.svg" xlink:title="1">
<text text-anchor="middle" x="449.5" y="-175.8" font-family="Times,serif" font-size="14.00" fill="#000000">1</text>
</a>
</g>
</g>
<!-- _node4 -->
<g id="node5" class="node">
<title>_node4</title>
<g id="a_node5"><a xlink:href="../../library/index.html" xlink:title="library">
<polygon fill="none" stroke="#000000" points="545,-144 491,-144 491,-108 545,-108 545,-144"/>
<text text-anchor="middle" x="518" y="-122.3" font-family="Times,serif" font-size="14.00" fill="#000000">library</text>
</a>
</g>
</g>
<!-- _node0&#45;&gt;_node4 -->
<g id="edge4" class="edge">
<title>_node0&#45;&gt;_node4</title>
<g id="a_edge4"><a xlink:href="../../../dependencies-between-packages/-~artefact~stable_dependency_principle_violations,-~library.svg" xlink:title="3">
<path fill="none" stroke="#000000" d="M428.0279,-136.5162C447.2271,-134.2722 465.4357,-132.1439 480.385,-130.3966"/>
<polygon fill="#000000" stroke="#000000" points="481.1359,-133.8327 490.6619,-129.1954 480.3232,-126.88 481.1359,-133.8327"/>
</a>
</g>
<g id="a_edge4&#45;label"><a xlink:href="../../../dependencies-between-packages/-~artefact~stable_dependency_principle_violations,-~library.svg" xlink:title="3">
<text text-anchor="middle" x="449.5" y="-137.8" font-family="Times,serif" font-size="14.00" fill="#000000">3</text>
</a>
</g>
</g>
<!-- _node5 -->
<g id="node6" class="node">
<title>_node5</title>
<g id="a_node6"><a xlink:href="../../ast/traverse/index.html" xlink:title="ast::traverse">
<polygon fill="none" stroke="#000000" points="559,-90 477,-90 477,-54 559,-54 559,-90"/>
<text text-anchor="middle" x="518" y="-68.3" font-family="Times,serif" font-size="14.00" fill="#000000">ast::traverse</text>
</a>
</g>
</g>
<!-- _node0&#45;&gt;_node5 -->
<g id="edge5" class="edge">
<title>_node0&#45;&gt;_node5</title>
<g id="a_edge5"><a xlink:href="../../../dependencies-between-packages/-~artefact~stable_dependency_principle_violations,-~ast~traverse.svg" xlink:title="1">
<path fill="none" stroke="#000000" d="M338.5534,-134.9228C376.8811,-121.4832 428.9275,-103.2332 467.0985,-89.8486"/>
<polygon fill="#000000" stroke="#000000" points="468.7009,-92.9957 476.9794,-86.3838 466.3846,-86.39 468.7009,-92.9957"/>
</a>
</g>
<g id="a_edge5&#45;label"><a xlink:href="../../../dependencies-between-packages/-~artefact~stable_dependency_principle_violations,-~ast~traverse.svg" xlink:title="1">
<text text-anchor="middle" x="449.5" y="-99.8" font-family="Times,serif" font-size="14.00" fill="#000000">1</text>
</a>
</g>
</g>
<!-- _node6 -->
<g id="node7" class="node">
<title>_node6</title>
<g id="a_node7"><a xlink:href="../../html/index.html" xlink:title="html">
<polygon fill="none" stroke="#000000" points="545,-36 491,-36 491,0 545,0 545,-36"/>
<text text-anchor="middle" x="518" y="-14.3" font-family="Times,serif" font-size="14.00" fill="#000000">html</text>
</a>
</g>
</g>
<!-- _node0&#45;&gt;_node6 -->
<g id="edge6" class="edge">
<title>_node0&#45;&gt;_node6</title>
<g id="a_edge6"><a xlink:href="../../../dependencies-between-packages/-~artefact~stable_dependency_principle_violations,-~html.svg" xlink:title="8">
<path fill="none" stroke="#000000" d="M317.5524,-134.9496C354.0178,-113.4331 416.8665,-76.4351 471,-45 474.4713,-42.9843 478.0906,-40.8906 481.7124,-38.801"/>
<polygon fill="#000000" stroke="#000000" points="483.7177,-41.6852 490.637,-33.6618 480.2245,-35.619 483.7177,-41.6852"/>
</a>
</g>
<g id="a_edge6&#45;label"><a xlink:href="../../../dependencies-between-packages/-~artefact~stable_dependency_principle_violations,-~html.svg" xlink:title="8">
<text text-anchor="middle" x="449.5" y="-60.8" font-family="Times,serif" font-size="14.00" fill="#000000">8</text>
</a>
</g>
</g>
<!-- _node7 -->
<g id="node8" class="node">
<title>_node7</title>
<g id="a_node8"><a xlink:href="../factory/index.html" xlink:title="artefact::factory">
<polygon fill="none" stroke="#000000" points="103,-171 0,-171 0,-135 103,-135 103,-171"/>
<text text-anchor="middle" x="51.5" y="-149.3" font-family="Times,serif" font-size="14.00" fill="#000000">artefact::factory</text>
</a>
</g>
</g>
<!-- _node7&#45;&gt;_node0 -->
<g id="edge7" class="edge">
<title>_node7&#45;&gt;_node0</title>
<g id="a_edge7"><a xlink:href="../../../dependencies-between-packages/-~artefact~factory,-~artefact~stable_dependency_principle_violations.svg" xlink:title="2">
<path fill="none" stroke="#000000" d="M103.1815,-153C113.2347,-153 124.2379,-153 135.7042,-153"/>
<polygon fill="#000000" stroke="#000000" points="135.8876,-156.5001 145.8876,-153 135.8875,-149.5001 135.8876,-156.5001"/>
</a>
</g>
<g id="a_edge7&#45;label"><a xlink:href="../../../dependencies-between-packages/-~artefact~factory,-~artefact~stable_dependency_principle_violations.svg" xlink:title="2">
<text text-anchor="middle" x="124.5" y="-156.8" font-family="Times,serif" font-size="14.00" fill="#000000">2</text>
</a>
</g>
</g>
</g>
</svg>
