<?xml version="1.0" encoding="UTF-8" standalone="no"?>
<!DOCTYPE svg PUBLIC "-//W3C//DTD SVG 1.1//EN"
 "http://www.w3.org/Graphics/SVG/1.1/DTD/svg11.dtd">
<!-- Generated by graphviz version 2.40.1 (20161225.0304)
 -->
<!-- Title: %3 Pages: 1 -->
<svg width="659pt" height="612pt"
 viewBox="0.00 0.00 659.00 612.04" xmlns="http://www.w3.org/2000/svg" xmlns:xlink="http://www.w3.org/1999/xlink">
<g id="graph0" class="graph" transform="scale(1 1) rotate(0) translate(4 608.036)">
<title>%3</title>
<polygon fill="#ffffff" stroke="transparent" points="-4,4 -4,-608.036 655,-608.036 655,4 -4,4"/>
<text text-anchor="middle" x="325.5" y="-7.8" font-family="Times,serif" font-size="14.00" fill="#000000">Artefact</text>
<g id="clust1" class="cluster">
<title>cluster_0</title>
<polygon fill="none" stroke="#000000" points="8,-447.036 8,-596.036 621.5,-596.036 621.5,-447.036 8,-447.036"/>
<text text-anchor="middle" x="314.75" y="-580.836" font-family="Times,serif" font-size="14.00" fill="#000000">methods</text>
</g>
<g id="clust2" class="cluster">
<title>cluster_1</title>
<polygon fill="none" stroke="#000000" points="519,-83.036 519,-374.036 643,-374.036 643,-83.036 519,-83.036"/>
<text text-anchor="middle" x="581" y="-358.836" font-family="Times,serif" font-size="14.00" fill="#000000">fields</text>
</g>
<g id="clust3" class="cluster">
<title>cluster_2</title>
<polygon fill="none" stroke="#000000" points="196,-234.036 196,-309.036 325,-309.036 325,-234.036 196,-234.036"/>
<text text-anchor="middle" x="260.5" y="-293.836" font-family="Times,serif" font-size="14.00" fill="#000000">classes</text>
</g>
<!-- _node0 -->
<g id="node1" class="node">
<title>_node0</title>
<polygon fill="none" stroke="#000000" points="77.5,-491.036 16.5,-491.036 16.5,-455.036 77.5,-455.036 77.5,-491.036"/>
<text text-anchor="middle" x="47" y="-469.336" font-family="Times,serif" font-size="14.00" fill="#000000">Artefact</text>
</g>
<!-- _node7 -->
<g id="node8" class="node">
<title>_node7</title>
<polygon fill="none" stroke="#000000" points="611,-289.036 551,-289.036 551,-253.036 611,-253.036 611,-289.036"/>
<text text-anchor="middle" x="581" y="-267.336" font-family="Times,serif" font-size="14.00" fill="#000000">element</text>
</g>
<!-- _node0&#45;&gt;_node7 -->
<g id="edge1" class="edge">
<title>_node0&#45;&gt;_node7</title>
<path fill="none" stroke="#000000" d="M50.3808,-454.8889C59.5936,-407.0699 86.3097,-279.0876 114,-247.036 140.2594,-216.6406 156.7743,-217.6832 196,-209.036 321.0252,-181.4745 471.4219,-228.4634 541.4844,-254.9023"/>
<polygon fill="#000000" stroke="#000000" points="540.2362,-258.1721 550.8264,-258.4867 542.7438,-251.6367 540.2362,-258.1721"/>
</g>
<!-- _node8 -->
<g id="node9" class="node">
<title>_node8</title>
<polygon fill="none" stroke="#000000" points="630,-127.036 532,-127.036 532,-91.036 630,-91.036 630,-127.036"/>
<text text-anchor="middle" x="581" y="-105.336" font-family="Times,serif" font-size="14.00" fill="#000000">artefactFactory</text>
</g>
<!-- _node0&#45;&gt;_node8 -->
<g id="edge2" class="edge">
<title>_node0&#45;&gt;_node8</title>
<path fill="none" stroke="#000000" d="M48.2664,-454.6681C53.1187,-388.8765 72.3809,-165.9371 114,-110.036 214.7398,25.2739 326.4789,-28.7521 491,-66.036 508.762,-70.0612 527.1199,-78.0366 542.5862,-86.0371"/>
<polygon fill="#000000" stroke="#000000" points="541.3448,-89.3429 551.8113,-90.9867 544.6543,-83.1747 541.3448,-89.3429"/>
</g>
<!-- _node9 -->
<g id="node10" class="node">
<title>_node9</title>
<polygon fill="none" stroke="#000000" points="635,-343.036 527,-343.036 527,-307.036 635,-307.036 635,-343.036"/>
<text text-anchor="middle" x="581" y="-321.336" font-family="Times,serif" font-size="14.00" fill="#000000">overviewFactory</text>
</g>
<!-- _node0&#45;&gt;_node9 -->
<g id="edge3" class="edge">
<title>_node0&#45;&gt;_node9</title>
<path fill="none" stroke="#000000" d="M51.5567,-454.8929C64.5677,-407.4537 106.8328,-279.9563 196,-230.036 246.0269,-202.0284 269.7873,-214.5872 325,-230.036 339.02,-233.9588 339.8136,-240.866 353,-247.036 406.5953,-272.1132 470.5659,-293.29 517.087,-307.2214"/>
<polygon fill="#000000" stroke="#000000" points="516.1568,-310.5962 526.7392,-310.0831 518.1466,-303.8849 516.1568,-310.5962"/>
</g>
<!-- _node10 -->
<g id="node11" class="node">
<title>_node10</title>
<polygon fill="none" stroke="#000000" points="609,-235.036 553,-235.036 553,-199.036 609,-199.036 609,-235.036"/>
<text text-anchor="middle" x="581" y="-213.336" font-family="Times,serif" font-size="14.00" fill="#000000">parents</text>
</g>
<!-- _node0&#45;&gt;_node10 -->
<g id="edge4" class="edge">
<title>_node0&#45;&gt;_node10</title>
<path fill="none" stroke="#000000" d="M49.1805,-454.7272C55.9599,-400.8895 78.3746,-244.704 114,-210.036 235.3077,-91.9881 337.9242,-83.7957 491,-156.036 508.7034,-164.3906 503.3723,-178.2468 519,-190.036 526.3545,-195.584 535.0255,-200.2676 543.515,-204.0955"/>
<polygon fill="#000000" stroke="#000000" points="542.3678,-207.4097 552.943,-208.0542 545.0778,-200.9556 542.3678,-207.4097"/>
</g>
<!-- _node11 -->
<g id="node12" class="node">
<title>_node11</title>
<polygon fill="none" stroke="#000000" points="616,-181.036 546,-181.036 546,-145.036 616,-145.036 616,-181.036"/>
<text text-anchor="middle" x="581" y="-159.336" font-family="Times,serif" font-size="14.00" fill="#000000">neighbors</text>
</g>
<!-- _node0&#45;&gt;_node11 -->
<g id="edge5" class="edge">
<title>_node0&#45;&gt;_node11</title>
<path fill="none" stroke="#000000" d="M49.0989,-454.9851C56.2187,-396.0696 80.8643,-210.3568 114,-161.036 138.6112,-124.4034 153.8335,-118.0605 196,-105.036 321.2712,-66.3416 371.1826,-51.8015 491,-105.036 507.9666,-112.5742 503.9271,-125.1963 519,-136.036 524.4434,-139.9505 530.5436,-143.4622 536.7367,-146.556"/>
<polygon fill="#000000" stroke="#000000" points="535.2689,-149.7334 545.8111,-150.788 538.2276,-143.3893 535.2689,-149.7334"/>
</g>
<!-- _node1 -->
<g id="node2" class="node">
<title>_node1</title>
<polygon fill="none" stroke="#000000" points="78,-545.036 16,-545.036 16,-509.036 78,-509.036 78,-545.036"/>
<text text-anchor="middle" x="47" y="-523.336" font-family="Times,serif" font-size="14.00" fill="#000000">generate</text>
</g>
<!-- _node2 -->
<g id="node3" class="node">
<title>_node2</title>
<polygon fill="none" stroke="#000000" points="613.5,-543.036 548.5,-543.036 548.5,-507.036 613.5,-507.036 613.5,-543.036"/>
<text text-anchor="middle" x="581" y="-521.336" font-family="Times,serif" font-size="14.00" fill="#000000">filename</text>
</g>
<!-- _node1&#45;&gt;_node2 -->
<g id="edge8" class="edge">
<title>_node1&#45;&gt;_node2</title>
<path fill="none" stroke="#000000" d="M78.2739,-542.5215C89.2883,-547.1912 101.9346,-551.6963 114,-554.036 137.5611,-558.6048 144.0056,-554.5557 168,-554.036 311.6566,-550.9241 348.0895,-554.9861 491,-540.036 506.4887,-538.4157 523.3544,-535.8276 538.2551,-533.2541"/>
<polygon fill="#000000" stroke="#000000" points="538.9813,-536.68 548.2161,-531.4869 537.7584,-529.7877 538.9813,-536.68"/>
</g>
<!-- _node3 -->
<g id="node4" class="node">
<title>_node3</title>
<polygon fill="none" stroke="#000000" points="168,-545.036 114,-545.036 114,-509.036 168,-509.036 168,-545.036"/>
<text text-anchor="middle" x="141" y="-523.336" font-family="Times,serif" font-size="14.00" fill="#000000">print</text>
</g>
<!-- _node1&#45;&gt;_node3 -->
<g id="edge7" class="edge">
<title>_node1&#45;&gt;_node3</title>
<path fill="none" stroke="#000000" d="M78.0396,-527.036C86.2517,-527.036 95.2013,-527.036 103.7075,-527.036"/>
<polygon fill="#000000" stroke="#000000" points="103.7837,-530.5361 113.7837,-527.036 103.7837,-523.5361 103.7837,-530.5361"/>
</g>
<!-- _node5 -->
<g id="node6" class="node">
<title>_node5</title>
<polygon fill="none" stroke="#000000" points="168,-491.036 114,-491.036 114,-455.036 168,-455.036 168,-491.036"/>
<text text-anchor="middle" x="141" y="-469.336" font-family="Times,serif" font-size="14.00" fill="#000000">create</text>
</g>
<!-- _node1&#45;&gt;_node5 -->
<g id="edge6" class="edge">
<title>_node1&#45;&gt;_node5</title>
<path fill="none" stroke="#000000" d="M78.0396,-509.2047C86.7029,-504.2279 96.187,-498.7796 105.1054,-493.6563"/>
<polygon fill="#000000" stroke="#000000" points="106.8561,-496.687 113.7837,-488.6709 103.3692,-490.6173 106.8561,-496.687"/>
</g>
<!-- _node2&#45;&gt;_node7 -->
<g id="edge9" class="edge">
<title>_node2&#45;&gt;_node7</title>
<path fill="none" stroke="#000000" d="M568.7091,-506.8598C550.5366,-478.7712 517.3221,-422.4635 505,-369.036 498.8073,-342.1853 491.7957,-331.2218 505,-307.036 512.4465,-293.3966 526.8387,-284.8757 541.1137,-279.5749"/>
<polygon fill="#000000" stroke="#000000" points="542.463,-282.8167 550.8909,-276.3963 540.2987,-276.1596 542.463,-282.8167"/>
</g>
<!-- _node3&#45;&gt;_node2 -->
<g id="edge15" class="edge">
<title>_node3&#45;&gt;_node2</title>
<path fill="none" stroke="#000000" d="M168.2486,-528.8742C227.1682,-532.5647 370.8128,-540.0304 491,-534.036 506.4188,-533.2669 523.2682,-531.7612 538.1756,-530.1981"/>
<polygon fill="#000000" stroke="#000000" points="538.5808,-533.6748 548.1443,-529.1151 537.8247,-526.7157 538.5808,-533.6748"/>
</g>
<!-- _node4 -->
<g id="node5" class="node">
<title>_node4</title>
<polygon fill="none" stroke="#000000" points="297,-505.036 224,-505.036 224,-469.036 297,-469.036 297,-505.036"/>
<text text-anchor="middle" x="260.5" y="-483.336" font-family="Times,serif" font-size="14.00" fill="#000000">drawNode</text>
</g>
<!-- _node3&#45;&gt;_node4 -->
<g id="edge12" class="edge">
<title>_node3&#45;&gt;_node4</title>
<path fill="none" stroke="#000000" d="M168.1164,-517.9593C181.8028,-513.3781 198.7845,-507.6939 214.4407,-502.4533"/>
<polygon fill="#000000" stroke="#000000" points="215.6045,-505.7547 223.9764,-499.2614 213.3825,-499.1167 215.6045,-505.7547"/>
</g>
<!-- _node6 -->
<g id="node7" class="node">
<title>_node6</title>
<polygon fill="none" stroke="#000000" points="491,-525.036 353,-525.036 353,-489.036 491,-489.036 491,-525.036"/>
<text text-anchor="middle" x="422" y="-503.336" font-family="Times,serif" font-size="14.00" fill="#000000">printUrlWhenPossible</text>
</g>
<!-- _node3&#45;&gt;_node6 -->
<g id="edge11" class="edge">
<title>_node3&#45;&gt;_node6</title>
<path fill="none" stroke="#000000" d="M168.1244,-525.1324C204.0166,-522.6105 269.2599,-518.0163 325,-514.036 330.7721,-513.6238 336.7372,-513.1965 342.7403,-512.7656"/>
<polygon fill="#000000" stroke="#000000" points="343.1281,-516.2468 352.8515,-512.0389 342.6263,-509.2648 343.1281,-516.2468"/>
</g>
<!-- _node3&#45;&gt;_node7 -->
<g id="edge17" class="edge">
<title>_node3&#45;&gt;_node7</title>
<path fill="none" stroke="#000000" d="M160.0353,-508.8518C162.7914,-505.9783 165.5288,-502.9815 168,-500.036 181.9477,-483.4114 178.6059,-473.0113 196,-460.036 244.4415,-423.9006 270.4913,-443.1347 325,-417.036 338.3434,-410.6471 339.4918,-405.0687 353,-399.036 411.0867,-373.0946 442.7824,-402.5339 491,-361.036 514.2241,-341.0484 497.2524,-319.6209 519,-298.036 525.357,-291.7265 533.4311,-286.7798 541.6345,-282.9439"/>
<polygon fill="#000000" stroke="#000000" points="542.9987,-286.1672 550.8666,-279.0717 540.2911,-279.712 542.9987,-286.1672"/>
</g>
<!-- _node3&#45;&gt;_node8 -->
<g id="edge14" class="edge">
<title>_node3&#45;&gt;_node8</title>
<path fill="none" stroke="#000000" d="M162.0789,-508.7507C164.3497,-506.0234 166.4086,-503.0938 168,-500.036 201.1253,-436.3857 146.2722,-392.764 196,-341.036 236.659,-298.7415 283.6762,-354.6811 325,-313.036 367.8547,-269.848 311.9997,-223.9882 353,-179.036 395.9015,-131.9993 469.5113,-116.2125 521.4688,-111.1054"/>
<polygon fill="#000000" stroke="#000000" points="521.9003,-114.5811 531.556,-110.2203 521.2884,-107.6079 521.9003,-114.5811"/>
</g>
<!-- _node3&#45;&gt;_node10 -->
<g id="edge13" class="edge">
<title>_node3&#45;&gt;_node10</title>
<path fill="none" stroke="#000000" d="M161.3772,-508.8147C163.82,-506.0375 166.1125,-503.0777 168,-500.036 188.5272,-466.9559 167.9413,-444.0242 196,-417.036 239.0769,-375.6026 271.1088,-404.8833 325,-379.036 336.8392,-373.3576 507.5362,-250.4384 519,-244.036 526.7356,-239.7157 535.2985,-235.5962 543.5287,-231.9346"/>
<polygon fill="#000000" stroke="#000000" points="545.1727,-235.0372 552.9679,-227.8618 542.3995,-228.6099 545.1727,-235.0372"/>
</g>
<!-- _node3&#45;&gt;_node11 -->
<g id="edge16" class="edge">
<title>_node3&#45;&gt;_node11</title>
<path fill="none" stroke="#000000" d="M161.6596,-508.9805C164.0586,-506.1776 166.2637,-503.1664 168,-500.036 194.7732,-451.7648 158.1381,-419.203 196,-379.036 236.9967,-335.5432 281.8468,-382.3898 325,-341.036 352.8046,-314.3908 326.7311,-287.1963 353,-259.036 402.0608,-206.4427 484.4997,-181.5776 535.6542,-170.6692"/>
<polygon fill="#000000" stroke="#000000" points="536.661,-174.036 545.7602,-168.6089 535.2626,-167.1771 536.661,-174.036"/>
</g>
<!-- _node12 -->
<g id="node13" class="node">
<title>_node12</title>
<g id="a_node13"><a xlink:href="NodesInPackages/index.html" xlink:title="NodesInPackages">
<polygon fill="none" stroke="#000000" points="317,-278.036 204,-278.036 204,-242.036 317,-242.036 317,-278.036"/>
<text text-anchor="middle" x="260.5" y="-256.336" font-family="Times,serif" font-size="14.00" fill="#000000">NodesInPackages</text>
</a>
</g>
</g>
<!-- _node3&#45;&gt;_node12 -->
<g id="edge10" class="edge">
<title>_node3&#45;&gt;_node12</title>
<path fill="none" stroke="#000000" d="M162.154,-508.7891C164.4125,-506.0556 166.448,-503.114 168,-500.036 205.8355,-424.9973 154.5505,-386.1404 196,-313.036 202.255,-302.0041 211.7693,-292.3218 221.5842,-284.3554"/>
<polygon fill="#000000" stroke="#000000" points="223.9974,-286.9171 229.8344,-278.0751 219.7575,-281.3472 223.9974,-286.9171"/>
</g>
<!-- _node4&#45;&gt;_node6 -->
<g id="edge19" class="edge">
<title>_node4&#45;&gt;_node6</title>
<path fill="none" stroke="#000000" d="M297.1468,-491.5743C310.6594,-493.2477 326.5488,-495.2154 342.3803,-497.1759"/>
<polygon fill="#000000" stroke="#000000" points="342.3955,-500.7045 352.7499,-498.4601 343.2559,-493.7575 342.3955,-500.7045"/>
</g>
<!-- _node4&#45;&gt;_node7 -->
<g id="edge18" class="edge">
<title>_node4&#45;&gt;_node7</title>
<path fill="none" stroke="#000000" d="M297.3644,-483.2118C348.2933,-475.9455 439.6863,-455.4299 491,-399.036 522.3499,-364.5823 488.451,-333.2018 519,-298.036 524.9857,-291.1457 533.0537,-285.9503 541.3872,-282.0558"/>
<polygon fill="#000000" stroke="#000000" points="542.8879,-285.2233 550.812,-278.1906 540.2318,-278.7468 542.8879,-285.2233"/>
</g>
<!-- _node5&#45;&gt;_node7 -->
<g id="edge22" class="edge">
<title>_node5&#45;&gt;_node7</title>
<path fill="none" stroke="#000000" d="M142.2809,-454.6957C146.3062,-403.0503 160.6015,-258.3179 196,-230.036 240.7926,-194.2486 269.7873,-214.5872 325,-230.036 339.02,-233.9588 339.2048,-242.3836 353,-247.036 416.1561,-268.335 494.2448,-272.0387 540.7073,-272.0527"/>
<polygon fill="#000000" stroke="#000000" points="540.9869,-275.5513 550.9672,-271.9954 540.9477,-268.5514 540.9869,-275.5513"/>
</g>
<!-- _node5&#45;&gt;_node10 -->
<g id="edge21" class="edge">
<title>_node5&#45;&gt;_node10</title>
<path fill="none" stroke="#000000" d="M141.8694,-454.8937C144.9139,-400.0368 157.1123,-237.7295 196,-206.036 297.1964,-123.5606 467.9614,-173.28 543.3272,-201.5303"/>
<polygon fill="#000000" stroke="#000000" points="542.2963,-204.8833 552.8867,-205.1917 544.8001,-198.3464 542.2963,-204.8833"/>
</g>
<!-- _node5&#45;&gt;_node11 -->
<g id="edge23" class="edge">
<title>_node5&#45;&gt;_node11</title>
<path fill="none" stroke="#000000" d="M141.2554,-454.7223C142.535,-393.226 150.202,-195.801 196,-157.036 292.7616,-75.1335 457.435,-117.8667 536.3069,-145.5249"/>
<polygon fill="#000000" stroke="#000000" points="535.3496,-148.8997 545.9441,-148.9801 537.712,-142.3104 535.3496,-148.8997"/>
</g>
<!-- _node5&#45;&gt;_node12 -->
<g id="edge20" class="edge">
<title>_node5&#45;&gt;_node12</title>
<path fill="none" stroke="#000000" d="M143.9127,-454.7666C149.6038,-423.4204 164.5001,-358.392 196,-313.036 203.5021,-302.2339 213.7897,-292.4306 223.9456,-284.2752"/>
<polygon fill="#000000" stroke="#000000" points="226.1963,-286.9601 232.0065,-278.1004 221.9395,-281.4031 226.1963,-286.9601"/>
</g>
<!-- _node6&#45;&gt;_node2 -->
<g id="edge25" class="edge">
<title>_node6&#45;&gt;_node2</title>
<path fill="none" stroke="#000000" d="M491.2772,-514.8787C507.1697,-516.6778 523.6164,-518.5397 538.0197,-520.1703"/>
<polygon fill="#000000" stroke="#000000" points="537.7791,-523.6653 548.1094,-521.3125 538.5666,-516.7097 537.7791,-523.6653"/>
</g>
<!-- _node6&#45;&gt;_node9 -->
<g id="edge24" class="edge">
<title>_node6&#45;&gt;_node9</title>
<path fill="none" stroke="#000000" d="M470.6878,-488.9949C477.9571,-485.0572 485.0101,-480.4214 491,-475.036 511.2989,-456.7855 547.4685,-390.2016 567.2103,-352.1639"/>
<polygon fill="#000000" stroke="#000000" points="570.3833,-353.6472 571.8558,-343.1552 564.1618,-350.4389 570.3833,-353.6472"/>
</g>
</g>
</svg>
