<?xml version="1.0" encoding="UTF-8" standalone="no"?>
<!DOCTYPE svg PUBLIC "-//W3C//DTD SVG 1.1//EN"
 "http://www.w3.org/Graphics/SVG/1.1/DTD/svg11.dtd">
<!-- Generated by graphviz version 2.40.1 (20161225.0304)
 -->
<!-- Title: %3 Pages: 1 -->
<svg width="104pt" height="176pt"
 viewBox="0.00 0.00 104.00 176.00" xmlns="http://www.w3.org/2000/svg" xmlns:xlink="http://www.w3.org/1999/xlink">
<g id="graph0" class="graph" transform="scale(1 1) rotate(0) translate(4 172)">
<title>%3</title>
<polygon fill="#ffffff" stroke="transparent" points="-4,4 -4,-172 100,-172 100,4 -4,4"/>
<text text-anchor="middle" x="48" y="-7.8" font-family="Times,serif" font-size="14.00" fill="#000000">PackageInfo</text>
<g id="clust1" class="cluster">
<title>cluster_0</title>
<polygon fill="none" stroke="#000000" points="8,-31 8,-160 88,-160 88,-31 8,-31"/>
<text text-anchor="middle" x="48" y="-144.8" font-family="Times,serif" font-size="14.00" fill="#000000">fields</text>
</g>
<!-- _node0 -->
<g id="node1" class="node">
<title>_node0</title>
<polygon fill="none" stroke="#000000" points="78.5,-129 17.5,-129 17.5,-93 78.5,-93 78.5,-129"/>
<text text-anchor="middle" x="48" y="-107.3" font-family="Times,serif" font-size="14.00" fill="#000000">package</text>
</g>
<!-- _node1 -->
<g id="node2" class="node">
<title>_node1</title>
<polygon fill="none" stroke="#000000" points="80,-75 16,-75 16,-39 80,-39 80,-75"/>
<text text-anchor="middle" x="48" y="-53.3" font-family="Times,serif" font-size="14.00" fill="#000000">inCycles</text>
</g>
</g>
</svg>
