digraph {
    rankdir=LR
    subgraph cluster_0 {
        label="ast::parents"
        URL="../index.html"
        _node0 [
            shape="box"
            style="bold"
            label="sameParent"
            URL="index.html"
        ]
        _node1 [
            shape="box"
            label="Parents"
            URL="../Parents/index.html"
        ]
    }
    subgraph cluster_1 {
        label="ast"
        URL="../../index.html"
        _node2 [
            shape="box"
            label="Node"
            URL="../../Node/index.html"
        ]
    }
    _node0 -> _node2 [
        URL="../../../../dependencies-between-packages/-~ast~parents,-~ast.svg"
    ]
    _node0 -> _node1
}
