digraph {
    rankdir=LR
    subgraph cluster_0 {
        label="artefact"
        URL="../index.html"
        _node0 [
            shape="box"
            style="bold"
            label="PathForNode"
            URL="index.html"
        ]
        _node1 [
            shape="box"
            label="Environment"
            URL="../Environment/index.html"
        ]
    }
    subgraph cluster_1 {
        label="ast"
        URL="../../ast/index.html"
        _node2 [
            shape="box"
            label="Node"
            URL="../../ast/Node/index.html"
        ]
    }
    subgraph cluster_2 {
        label="artefact::class_overview"
        URL="../class_overview/index.html"
        _node3 [
            shape="box"
            label="Artefact"
            URL="../class_overview/Artefact/index.html"
        ]
    }
    subgraph cluster_3 {
        label="artefact::dependencies_between_packages"
        URL="../dependencies_between_packages/index.html"
        _node4 [
            shape="box"
            label="Artefact"
            URL="../dependencies_between_packages/Artefact/index.html"
        ]
    }
    subgraph cluster_4 {
        label="artefact::package_dependencies"
        URL="../package_dependencies/index.html"
        _node5 [
            shape="box"
            label="Artefact"
            URL="../package_dependencies/Artefact/index.html"
        ]
    }
    subgraph cluster_5 {
        label="artefact::overview"
        URL="../overview/index.html"
        _node6 [
            shape="box"
            label="Artefact"
            URL="../overview/Artefact/index.html"
        ]
    }
    subgraph cluster_6 {
        label="artefact::package_overview"
        URL="../package_overview/index.html"
        _node7 [
            shape="box"
            label="Artefact"
            URL="../package_overview/Artefact/index.html"
        ]
    }
    subgraph cluster_7 {
        label="artefact::intra_class_dependencies"
        URL="../intra_class_dependencies/index.html"
        _node8 [
            shape="box"
            label="Artefact"
            URL="../intra_class_dependencies/Artefact/index.html"
        ]
    }
    subgraph cluster_8 {
        label="artefact::packages_with_cyclic_dependencies"
        URL="../packages_with_cyclic_dependencies/index.html"
        _node9 [
            shape="box"
            label="Artefact"
            URL="../packages_with_cyclic_dependencies/Artefact/index.html"
        ]
    }
    subgraph cluster_9 {
        label="artefact::package_neighbors"
        URL="../package_neighbors/index.html"
        _node10 [
            shape="box"
            label="Artefact"
            URL="../package_neighbors/Artefact/index.html"
        ]
    }
    subgraph cluster_10 {
        label="artefact::stable_dependency_principle_violations"
        URL="../stable_dependency_principle_violations/index.html"
        _node11 [
            shape="box"
            label="Artefact"
            URL="../stable_dependency_principle_violations/Artefact/index.html"
        ]
    }
    subgraph cluster_11 {
        label="artefact::function_overview"
        URL="../function_overview/index.html"
        _node12 [
            shape="box"
            label="Artefact"
            URL="../function_overview/Artefact/index.html"
        ]
    }
    subgraph cluster_12 {
        label="artefact::variable_overview"
        URL="../variable_overview/index.html"
        _node13 [
            shape="box"
            label="Artefact"
            URL="../variable_overview/Artefact/index.html"
        ]
    }
    subgraph cluster_13 {
        label="artefact::pakageelement_neighbors"
        URL="../pakageelement_neighbors/index.html"
        _node14 [
            shape="box"
            label="Artefact"
            URL="../pakageelement_neighbors/Artefact/index.html"
        ]
    }
    subgraph cluster_14 {
        label="artefact::intra_package_dependencies"
        URL="../intra_package_dependencies/index.html"
        _node15 [
            shape="box"
            label="Artefact"
            URL="../intra_package_dependencies/Artefact/index.html"
        ]
    }
    subgraph cluster_15 {
        label="artefact::unit_test"
        URL="../unit_test/index.html"
        _node16 [
            shape="box"
            label="SimpleArtefact"
            URL="../unit_test/SimpleArtefact/index.html"
        ]
    }
    _node0 -> _node2 [
        URL="../../../dependencies-between-packages/-~artefact,-~ast.svg"
    ]
    _node3 -> _node0 [
        URL="../../../dependencies-between-packages/-~artefact~class_overview,-~artefact.svg"
    ]
    _node4 -> _node0 [
        URL="../../../dependencies-between-packages/-~artefact~dependencies_between_packages,-~artefact.svg"
    ]
    _node5 -> _node0 [
        URL="../../../dependencies-between-packages/-~artefact~package_dependencies,-~artefact.svg"
    ]
    _node6 -> _node0 [
        URL="../../../dependencies-between-packages/-~artefact~overview,-~artefact.svg"
    ]
    _node7 -> _node0 [
        URL="../../../dependencies-between-packages/-~artefact~package_overview,-~artefact.svg"
    ]
    _node8 -> _node0 [
        URL="../../../dependencies-between-packages/-~artefact~intra_class_dependencies,-~artefact.svg"
    ]
    _node9 -> _node0 [
        URL="../../../dependencies-between-packages/-~artefact~packages_with_cyclic_dependencies,-~artefact.svg"
    ]
    _node10 -> _node0 [
        URL="../../../dependencies-between-packages/-~artefact~package_neighbors,-~artefact.svg"
    ]
    _node11 -> _node0 [
        URL="../../../dependencies-between-packages/-~artefact~stable_dependency_principle_violations,-~artefact.svg"
    ]
    _node12 -> _node0 [
        URL="../../../dependencies-between-packages/-~artefact~function_overview,-~artefact.svg"
    ]
    _node13 -> _node0 [
        URL="../../../dependencies-between-packages/-~artefact~variable_overview,-~artefact.svg"
    ]
    _node14 -> _node0 [
        URL="../../../dependencies-between-packages/-~artefact~pakageelement_neighbors,-~artefact.svg"
    ]
    _node15 -> _node0 [
        URL="../../../dependencies-between-packages/-~artefact~intra_package_dependencies,-~artefact.svg"
    ]
    _node16 -> _node0 [
        URL="../../../dependencies-between-packages/-~artefact~unit_test,-~artefact.svg"
    ]
    _node1 -> _node0
}
