<?xml version="1.0" encoding="UTF-8" standalone="no"?>
<!DOCTYPE svg PUBLIC "-//W3C//DTD SVG 1.1//EN"
 "http://www.w3.org/Graphics/SVG/1.1/DTD/svg11.dtd">
<!-- Generated by graphviz version 2.40.1 (20161225.0304)
 -->
<!-- Title: %3 Pages: 1 -->
<svg width="411pt" height="209pt"
 viewBox="0.00 0.00 411.00 209.00" xmlns="http://www.w3.org/2000/svg" xmlns:xlink="http://www.w3.org/1999/xlink">
<g id="graph0" class="graph" transform="scale(1 1) rotate(0) translate(4 205)">
<title>%3</title>
<polygon fill="#ffffff" stroke="transparent" points="-4,4 -4,-205 407,-205 407,4 -4,4"/>
<g id="clust1" class="cluster">
<title>cluster_0</title>
<g id="a_clust1"><a xlink:href="../index.html" xlink:title="ast::parents">
<polygon fill="none" stroke="#000000" points="203,-91 203,-166 395,-166 395,-91 203,-91"/>
<text text-anchor="middle" x="299" y="-150.8" font-family="Times,serif" font-size="14.00" fill="#000000">ast::parents</text>
</a>
</g>
</g>
<g id="clust2" class="cluster">
<title>cluster_1</title>
<g id="a_clust2"><a xlink:href="../../index.html" xlink:title="ast">
<polygon fill="none" stroke="#000000" points="324,-8 324,-83 394,-83 394,-8 324,-8"/>
<text text-anchor="middle" x="359" y="-67.8" font-family="Times,serif" font-size="14.00" fill="#000000">ast</text>
</a>
</g>
</g>
<g id="clust3" class="cluster">
<title>cluster_2</title>
<g id="a_clust3"><a xlink:href="../../graph/index.html" xlink:title="ast::graph">
<polygon fill="none" stroke="#000000" points="8,-64 8,-193 183,-193 183,-64 8,-64"/>
<text text-anchor="middle" x="95.5" y="-177.8" font-family="Times,serif" font-size="14.00" fill="#000000">ast::graph</text>
</a>
</g>
</g>
<!-- _node0 -->
<g id="node1" class="node">
<title>_node0</title>
<g id="a_node1"><a xlink:href="index.html" xlink:title="buildParents">
<polygon fill="none" stroke="#000000" stroke-width="2" points="295,-135 211,-135 211,-99 295,-99 295,-135"/>
<text text-anchor="middle" x="253" y="-113.3" font-family="Times,serif" font-size="14.00" fill="#000000">buildParents</text>
</a>
</g>
</g>
<!-- _node1 -->
<g id="node2" class="node">
<title>_node1</title>
<g id="a_node2"><a xlink:href="../Parents/index.html" xlink:title="Parents">
<polygon fill="none" stroke="#000000" points="387,-135 331,-135 331,-99 387,-99 387,-135"/>
<text text-anchor="middle" x="359" y="-113.3" font-family="Times,serif" font-size="14.00" fill="#000000">Parents</text>
</a>
</g>
</g>
<!-- _node0&#45;&gt;_node1 -->
<g id="edge2" class="edge">
<title>_node0&#45;&gt;_node1</title>
<path fill="none" stroke="#000000" d="M295.1986,-117C303.6422,-117 312.4679,-117 320.7683,-117"/>
<polygon fill="#000000" stroke="#000000" points="320.933,-120.5001 330.933,-117 320.933,-113.5001 320.933,-120.5001"/>
</g>
<!-- _node2 -->
<g id="node3" class="node">
<title>_node2</title>
<g id="a_node3"><a xlink:href="../../Node/index.html" xlink:title="Node">
<polygon fill="none" stroke="#000000" points="386,-52 332,-52 332,-16 386,-16 386,-52"/>
<text text-anchor="middle" x="359" y="-30.3" font-family="Times,serif" font-size="14.00" fill="#000000">Node</text>
</a>
</g>
</g>
<!-- _node0&#45;&gt;_node2 -->
<g id="edge1" class="edge">
<title>_node0&#45;&gt;_node2</title>
<g id="a_edge1"><a xlink:href="../../../../dependencies-between-packages/-~ast~parents,-~ast.svg">
<path fill="none" stroke="#000000" d="M276.0004,-98.9902C291.0373,-87.2161 310.8779,-71.6805 327.3901,-58.7512"/>
<polygon fill="#000000" stroke="#000000" points="329.9627,-61.1821 335.6784,-52.2612 325.6471,-55.6706 329.9627,-61.1821"/>
</a>
</g>
</g>
<!-- _node3 -->
<g id="node4" class="node">
<title>_node3</title>
<g id="a_node4"><a xlink:href="../../graph/buildDirectChildrenGraph/index.html" xlink:title="buildDirectChildrenGraph">
<polygon fill="none" stroke="#000000" points="175,-162 16,-162 16,-126 175,-126 175,-162"/>
<text text-anchor="middle" x="95.5" y="-140.3" font-family="Times,serif" font-size="14.00" fill="#000000">buildDirectChildrenGraph</text>
</a>
</g>
</g>
<!-- _node3&#45;&gt;_node0 -->
<g id="edge3" class="edge">
<title>_node3&#45;&gt;_node0</title>
<g id="a_edge3"><a xlink:href="../../../../dependencies-between-packages/-~ast~graph,-~ast~parents.svg">
<path fill="none" stroke="#000000" d="M175.1728,-130.3418C183.9603,-128.8354 192.7325,-127.3316 201.0515,-125.9054"/>
<polygon fill="#000000" stroke="#000000" points="201.68,-129.3489 210.9449,-124.2095 200.4972,-122.4495 201.68,-129.3489"/>
</a>
</g>
</g>
<!-- _node4 -->
<g id="node5" class="node">
<title>_node4</title>
<g id="a_node5"><a xlink:href="../../graph/buildGraph/index.html" xlink:title="buildGraph">
<polygon fill="none" stroke="#000000" points="134.5,-108 56.5,-108 56.5,-72 134.5,-72 134.5,-108"/>
<text text-anchor="middle" x="95.5" y="-86.3" font-family="Times,serif" font-size="14.00" fill="#000000">buildGraph</text>
</a>
</g>
</g>
<!-- _node4&#45;&gt;_node0 -->
<g id="edge4" class="edge">
<title>_node4&#45;&gt;_node0</title>
<g id="a_edge4"><a xlink:href="../../../../dependencies-between-packages/-~ast~graph,-~ast~parents.svg">
<path fill="none" stroke="#000000" d="M134.8376,-96.7436C154.8165,-100.1685 179.3554,-104.3752 200.884,-108.0658"/>
<polygon fill="#000000" stroke="#000000" points="200.4083,-111.5353 210.856,-109.7753 201.5911,-104.6359 200.4083,-111.5353"/>
</a>
</g>
</g>
</g>
</svg>
