<?xml version="1.0" encoding="UTF-8" standalone="no"?>
<!DOCTYPE svg PUBLIC "-//W3C//DTD SVG 1.1//EN"
 "http://www.w3.org/Graphics/SVG/1.1/DTD/svg11.dtd">
<!-- Generated by graphviz version 2.40.1 (20161225.0304)
 -->
<!-- Title: %3 Pages: 1 -->
<svg width="108pt" height="284pt"
 viewBox="0.00 0.00 108.00 284.00" xmlns="http://www.w3.org/2000/svg" xmlns:xlink="http://www.w3.org/1999/xlink">
<g id="graph0" class="graph" transform="scale(1 1) rotate(0) translate(4 280)">
<title>%3</title>
<polygon fill="#ffffff" stroke="transparent" points="-4,4 -4,-280 104,-280 104,4 -4,4"/>
<text text-anchor="middle" x="50" y="-7.8" font-family="Times,serif" font-size="14.00" fill="#000000">StdOs</text>
<g id="clust1" class="cluster">
<title>cluster_0</title>
<polygon fill="none" stroke="#000000" points="8,-31 8,-268 92,-268 92,-31 8,-31"/>
<text text-anchor="middle" x="50" y="-252.8" font-family="Times,serif" font-size="14.00" fill="#000000">methods</text>
</g>
<!-- _node0 -->
<g id="node1" class="node">
<title>_node0</title>
<polygon fill="none" stroke="#000000" points="77,-237 23,-237 23,-201 77,-201 77,-237"/>
<text text-anchor="middle" x="50" y="-215.3" font-family="Times,serif" font-size="14.00" fill="#000000">write</text>
</g>
<!-- _node1 -->
<g id="node2" class="node">
<title>_node1</title>
<polygon fill="none" stroke="#000000" points="84,-183 16,-183 16,-147 84,-147 84,-183"/>
<text text-anchor="middle" x="50" y="-161.3" font-family="Times,serif" font-size="14.00" fill="#000000">fileExists</text>
</g>
<!-- _node2 -->
<g id="node3" class="node">
<title>_node2</title>
<polygon fill="none" stroke="#000000" points="77,-129 23,-129 23,-93 77,-93 77,-129"/>
<text text-anchor="middle" x="50" y="-107.3" font-family="Times,serif" font-size="14.00" fill="#000000">read</text>
</g>
<!-- _node3 -->
<g id="node4" class="node">
<title>_node3</title>
<polygon fill="none" stroke="#000000" points="79,-75 21,-75 21,-39 79,-39 79,-75"/>
<text text-anchor="middle" x="50" y="-53.3" font-family="Times,serif" font-size="14.00" fill="#000000">execute</text>
</g>
</g>
</svg>
