<?xml version="1.0" encoding="UTF-8" standalone="no"?>
<!DOCTYPE svg PUBLIC "-//W3C//DTD SVG 1.1//EN"
 "http://www.w3.org/Graphics/SVG/1.1/DTD/svg11.dtd">
<!-- Generated by graphviz version 2.40.1 (20161225.0304)
 -->
<!-- Title: %3 Pages: 1 -->
<svg width="112pt" height="367pt"
 viewBox="0.00 0.00 112.00 367.00" xmlns="http://www.w3.org/2000/svg" xmlns:xlink="http://www.w3.org/1999/xlink">
<g id="graph0" class="graph" transform="scale(1 1) rotate(0) translate(4 363)">
<title>%3</title>
<polygon fill="#ffffff" stroke="transparent" points="-4,4 -4,-363 108,-363 108,4 -4,4"/>
<text text-anchor="middle" x="52" y="-7.8" font-family="Times,serif" font-size="14.00" fill="#000000">Node</text>
<g id="clust1" class="cluster">
<title>cluster_0</title>
<polygon fill="none" stroke="#000000" points="17,-31 17,-160 87,-160 87,-31 17,-31"/>
<text text-anchor="middle" x="52" y="-144.8" font-family="Times,serif" font-size="14.00" fill="#000000">methods</text>
</g>
<g id="clust2" class="cluster">
<title>cluster_1</title>
<polygon fill="none" stroke="#000000" points="8,-168 8,-351 96,-351 96,-168 8,-168"/>
<text text-anchor="middle" x="52" y="-335.8" font-family="Times,serif" font-size="14.00" fill="#000000">fields</text>
</g>
<!-- _node0 -->
<g id="node1" class="node">
<title>_node0</title>
<polygon fill="none" stroke="#000000" points="79,-129 25,-129 25,-93 79,-93 79,-129"/>
<text text-anchor="middle" x="52" y="-107.3" font-family="Times,serif" font-size="14.00" fill="#000000">~Node</text>
</g>
<!-- _node1 -->
<g id="node2" class="node">
<title>_node1</title>
<polygon fill="none" stroke="#000000" points="79,-75 25,-75 25,-39 79,-39 79,-75"/>
<text text-anchor="middle" x="52" y="-53.3" font-family="Times,serif" font-size="14.00" fill="#000000">accept</text>
</g>
<!-- _node2 -->
<g id="node3" class="node">
<title>_node2</title>
<polygon fill="none" stroke="#000000" points="79,-320 25,-320 25,-284 79,-284 79,-320"/>
<text text-anchor="middle" x="52" y="-298.3" font-family="Times,serif" font-size="14.00" fill="#000000">name</text>
</g>
<!-- _node3 -->
<g id="node4" class="node">
<title>_node3</title>
<polygon fill="none" stroke="#000000" points="82.5,-266 21.5,-266 21.5,-230 82.5,-230 82.5,-266"/>
<text text-anchor="middle" x="52" y="-244.3" font-family="Times,serif" font-size="14.00" fill="#000000">children</text>
</g>
<!-- _node4 -->
<g id="node5" class="node">
<title>_node4</title>
<polygon fill="none" stroke="#000000" points="88,-212 16,-212 16,-176 88,-176 88,-212"/>
<text text-anchor="middle" x="52" y="-190.3" font-family="Times,serif" font-size="14.00" fill="#000000">references</text>
</g>
</g>
</svg>
