digraph {
    rankdir=LR
    subgraph cluster_0 {
        label="library"
        URL="../index.html"
        _node0 [
            shape="box"
            style="bold"
            label="join"
            URL="index.html"
        ]
    }
    subgraph cluster_1 {
        label="artefact"
        URL="../../artefact/index.html"
        _node1 [
            shape="box"
            label="Path"
            URL="../../artefact/Path/index.html"
        ]
        _node2 [
            shape="box"
            label="Url"
            URL="../../artefact/Url/index.html"
        ]
    }
    subgraph cluster_2 {
        label="feature_test::graph"
        URL="../../feature_test/graph/index.html"
        _node3 [
            shape="box"
            label="Context"
            URL="../../feature_test/graph/Context/index.html"
        ]
    }
    _node1 -> _node0 [
        URL="../../../dependencies-between-packages/-~artefact,-~library.svg"
    ]
    _node2 -> _node0 [
        URL="../../../dependencies-between-packages/-~artefact,-~library.svg"
    ]
    _node3 -> _node0 [
        URL="../../../dependencies-between-packages/-~feature_test~graph,-~library.svg"
    ]
}
